Name:         write-read-array-pipeline-run-r4zmt
Namespace:    default
Labels:       tekton.dev/pipeline=write-read-array-pipeline
Annotations:  <none>
API Version:  tekton.dev/v1beta1
Kind:         PipelineRun
Metadata:
  Creation Timestamp:  2022-03-29T15:36:17Z
  Generate Name:       write-read-array-pipeline-run-
  Generation:          1
  Managed Fields:
    API Version:  tekton.dev/v1beta1
    Fields Type:  FieldsV1
    fieldsV1:
      f:metadata:
        f:generateName:
      f:spec:
        .:
        f:pipelineRef:
          .:
          f:name:
        f:taskRunSpecs:
        f:workspaces:
    Manager:      kubectl-create
    Operation:    Update
    Time:         2022-03-29T15:36:17Z
    API Version:  tekton.dev/v1beta1
    Fields Type:  FieldsV1
    fieldsV1:
      f:metadata:
        f:annotations:
          .:
          f:kubectl.kubernetes.io/last-applied-configuration:
        f:labels:
          .:
          f:tekton.dev/pipeline:
      f:status:
        .:
        f:completionTime:
        f:conditions:
        f:pipelineSpec:
          .:
          f:tasks:
          f:workspaces:
        f:startTime:
        f:taskRuns:
          .:
          f:write-read-array-pipeline-run-r4zmt-read1-task-sfrzk:
            .:
            f:pipelineTaskName:
            f:status:
              .:
              f:completionTime:
              f:conditions:
              f:podName:
              f:startTime:
              f:steps:
              f:taskSpec:
                .:
                f:steps:
                f:workspaces:
          f:write-read-array-pipeline-run-r4zmt-read2-task-bzqxn:
            .:
            f:pipelineTaskName:
            f:status:
              .:
              f:completionTime:
              f:conditions:
              f:podName:
              f:startTime:
              f:steps:
              f:taskSpec:
                .:
                f:steps:
                f:workspaces:
          f:write-read-array-pipeline-run-r4zmt-read3-task-vrhx5:
            .:
            f:pipelineTaskName:
            f:status:
              .:
              f:completionTime:
              f:conditions:
              f:podName:
              f:startTime:
              f:steps:
              f:taskSpec:
                .:
                f:steps:
                f:workspaces:
          f:write-read-array-pipeline-run-r4zmt-write1-task-2kpwc:
            .:
            f:pipelineTaskName:
            f:status:
              .:
              f:completionTime:
              f:conditions:
              f:podName:
              f:startTime:
              f:steps:
              f:taskSpec:
                .:
                f:steps:
                f:workspaces:
          f:write-read-array-pipeline-run-r4zmt-write2-task-z8m2x:
            .:
            f:pipelineTaskName:
            f:status:
              .:
              f:completionTime:
              f:conditions:
              f:podName:
              f:startTime:
              f:steps:
              f:taskSpec:
                .:
                f:steps:
                f:workspaces:
          f:write-read-array-pipeline-run-r4zmt-write3-task-2ddss:
            .:
            f:pipelineTaskName:
            f:status:
              .:
              f:completionTime:
              f:conditions:
              f:podName:
              f:startTime:
              f:steps:
              f:taskSpec:
                .:
                f:steps:
                f:workspaces:
    Manager:         controller
    Operation:       Update
    Time:            2022-03-29T15:37:02Z
  Resource Version:  54475404
  Self Link:         /apis/tekton.dev/v1beta1/namespaces/default/pipelineruns/write-read-array-pipeline-run-r4zmt
  UID:               7d18a99a-c51a-46b0-b0a1-fbf57c66c2b7
Spec:
  Pipeline Ref:
    Name:                write-read-array-pipeline
  Service Account Name:  default
  Task Run Specs:
    Pipeline Task Name:  write1-task
    Task Pod Template:
      Node Selector:
        kubernetes.io/hostname:  k8s-worker-node1
    Pipeline Task Name:          write2-task
    Task Pod Template:
      Node Selector:
        kubernetes.io/hostname:  k8s-worker-node2
    Pipeline Task Name:          write3-task
    Task Pod Template:
      Node Selector:
        kubernetes.io/hostname:  k8s-worker-node3
    Pipeline Task Name:          read1-task
    Task Pod Template:
      Node Selector:
        kubernetes.io/hostname:  k8s-worker-node4
    Pipeline Task Name:          read2-task
    Task Pod Template:
      Node Selector:
        kubernetes.io/hostname:  k8s-worker-node5
    Pipeline Task Name:          read3-task
    Task Pod Template:
      Node Selector:
        kubernetes.io/hostname:  k8s-worker-node6
  Timeout:                       1h0m0s
  Workspaces:
    Name:  task-write1-ws
    Persistent Volume Claim:
      Claim Name:  task1-pv-claim
    Name:          task-write2-ws
    Persistent Volume Claim:
      Claim Name:  task2-pv-claim
    Name:          task-write3-ws
    Persistent Volume Claim:
      Claim Name:  task3-pv-claim
    Name:          task-read1-ws
    Persistent Volume Claim:
      Claim Name:  task4-pv-claim
    Name:          task-read2-ws
    Persistent Volume Claim:
      Claim Name:  task5-pv-claim
    Name:          task-read3-ws
    Persistent Volume Claim:
      Claim Name:  task6-pv-claim
Status:
  Completion Time:  2022-03-29T15:37:02Z
  Conditions:
    Last Transition Time:  2022-03-29T15:37:02Z
    Message:               Tasks Completed: 6 (Failed: 0, Cancelled 0), Skipped: 0
    Reason:                Succeeded
    Status:                True
    Type:                  Succeeded
  Pipeline Spec:
    Tasks:
      Name:  write1-task
      Task Ref:
        Kind:  Task
        Name:  write1
      Workspaces:
        Name:       write1-ws
        Workspace:  task-write1-ws
      Name:         write2-task
      Task Ref:
        Kind:  Task
        Name:  write2
      Workspaces:
        Name:       write2-ws
        Workspace:  task-write2-ws
      Name:         write3-task
      Task Ref:
        Kind:  Task
        Name:  write3
      Workspaces:
        Name:       write3-ws
        Workspace:  task-write3-ws
      Name:         read1-task
      Run After:
        write1-task
        write2-task
        write3-task
      Task Ref:
        Kind:  Task
        Name:  read1
      Workspaces:
        Name:       read1-ws
        Workspace:  task-read1-ws
      Name:         read2-task
      Run After:
        write1-task
        write2-task
        write3-task
      Task Ref:
        Kind:  Task
        Name:  read2
      Workspaces:
        Name:       read2-ws
        Workspace:  task-read2-ws
      Name:         read3-task
      Run After:
        write1-task
        write2-task
        write3-task
      Task Ref:
        Kind:  Task
        Name:  read3
      Workspaces:
        Name:       read3-ws
        Workspace:  task-read3-ws
    Workspaces:
      Name:    task-write1-ws
      Name:    task-write2-ws
      Name:    task-write3-ws
      Name:    task-read1-ws
      Name:    task-read2-ws
      Name:    task-read3-ws
  Start Time:  2022-03-29T15:36:17Z
  Task Runs:
    write-read-array-pipeline-run-r4zmt-read1-task-sfrzk:
      Pipeline Task Name:  read1-task
      Status:
        Completion Time:  2022-03-29T15:36:59Z
        Conditions:
          Last Transition Time:  2022-03-29T15:36:59Z
          Message:               All Steps have completed executing
          Reason:                Succeeded
          Status:                True
          Type:                  Succeeded
        Pod Name:                write-read-array-pipeline-run-r4zmt-read1-task-sfrzk-pod-tp5zh
        Start Time:              2022-03-29T15:36:40Z
        Steps:
          Container:  step-s-start
          Image ID:   docker-pullable://python@sha256:c90e15c86e2ebe71244a2a51bc7f094554422c159ce309a6faadb6debd5a6df0
          Name:       s-start
          Terminated:
            Container ID:  docker://6256c48e24400edac90cfe5f7a543b6c44da056e8288edff03c89f292b8a0455
            Exit Code:     0
            Finished At:   2022-03-29T15:36:55Z
            Reason:        Completed
            Started At:    2022-03-29T15:36:54Z
          Container:       step-read
          Image ID:        docker-pullable://jupyter/scipy-notebook@sha256:87b339ec6a62b283d0c2aee1446e7bc2e5ad03a80d49d2dfddb031b233aedd29
          Name:            read
          Terminated:
            Container ID:  docker://1728eb1d2dd0a05ad6954efc85cf97fdcf90ec7e9c1f96f569f648c2c747b52a
            Exit Code:     0
            Finished At:   2022-03-29T15:36:58Z
            Reason:        Completed
            Started At:    2022-03-29T15:36:55Z
        Task Spec:
          Steps:
            Image:              python
            Image Pull Policy:  IfNotPresent
            Name:               s-start
            Resources:
            Script:  #!/usr/bin/env python3
import time
# Store initial timestamp
with open("/data/timestamps/socket/3to3/256MB/r1sent_start_ts.txt", 'a+') as fp_sent_s_ts:
   fp_sent_s_ts.write("%f\n" % time.time())
# Wait for the ready signal from external process
with open("/data/sync_pipe", "rb") as sync_pipe_file:
   while(int.from_bytes(sync_pipe_file.read(1), "little") != 1):
       continue
# Store final timestamp
with open("/data/timestamps/socket/3to3/256MB/r1sent_end_ts.txt", 'a+') as fp_sent_e_ts:
   fp_sent_e_ts.write("%f\n" % time.time())

            Image:              jupyter/scipy-notebook
            Image Pull Policy:  IfNotPresent
            Name:               read
            Resources:
            Script:  #!/usr/bin/env python3
import time
import gc
# Store initial timestamp
with open("/data/timestamps/socket/3to3/256MB/r1cont_start_ts.txt", 'a+') as fp_rcont_s_ts:
   fp_rcont_s_ts.write("%f\n" % time.time())
# Read data object from remote shared storage
with open("/data/in_data/out1.bin", "rb") as fp_data1:
   data = fp_data1.read()
   del data
   gc.collect()
with open("/data/in_data/out2.bin", "rb") as fp_data2:
   data = fp_data2.read()
   del data
   gc.collect()
with open("/data/in_data/out3.bin", "rb") as fp_data3:
   data = fp_data3.read()
   del data
   gc.collect()
# Store final timestamp
with open("/data/timestamps/socket/3to3/256MB/r1cont_end_ts.txt", 'a+') as fp_rcont_e_ts:
   fp_rcont_e_ts.write("%f\n" % time.time())
#print("READER: Read %d x chars" % len(data))

          Workspaces:
            Mount Path:  /data
            Name:        read1-ws
    write-read-array-pipeline-run-r4zmt-read2-task-bzqxn:
      Pipeline Task Name:  read2-task
      Status:
        Completion Time:  2022-03-29T15:36:59Z
        Conditions:
          Last Transition Time:  2022-03-29T15:36:59Z
          Message:               All Steps have completed executing
          Reason:                Succeeded
          Status:                True
          Type:                  Succeeded
        Pod Name:                write-read-array-pipeline-run-r4zmt-read2-task-bzqxn-pod-nxx9h
        Start Time:              2022-03-29T15:36:40Z
        Steps:
          Container:  step-s-start
          Image ID:   docker-pullable://python@sha256:6441e2f0bd2e566de0df6445cb8e7e395ea1a376dd702de908d70401d3700961
          Name:       s-start
          Terminated:
            Container ID:  docker://19f0f355ff28658167b7f783f135323df95a1be4a02248536b428f446ee102d8
            Exit Code:     0
            Finished At:   2022-03-29T15:36:57Z
            Reason:        Completed
            Started At:    2022-03-29T15:36:56Z
          Container:       step-read
          Image ID:        docker-pullable://jupyter/scipy-notebook@sha256:af220ba516b0c154461915f76b5b170ff8f4fb35a5c80f7e94577117f39b743c
          Name:            read
          Terminated:
            Container ID:  docker://ac05e98b02953bc4c23253ba78962c02359c5eaa74ef54f16636fb2fcafc8242
            Exit Code:     0
            Finished At:   2022-03-29T15:36:59Z
            Reason:        Completed
            Started At:    2022-03-29T15:36:57Z
        Task Spec:
          Steps:
            Image:              python
            Image Pull Policy:  IfNotPresent
            Name:               s-start
            Resources:
            Script:  #!/usr/bin/env python3
import time
# Store initial timestamp
with open("/data/timestamps/socket/3to3/256MB/r2sent_start_ts.txt", 'a+') as fp_sent_s_ts:
   fp_sent_s_ts.write("%f\n" % time.time())
# Wait for the ready signal from external process
with open("/data/sync_pipe", "rb") as sync_pipe_file:
   while(int.from_bytes(sync_pipe_file.read(1), "little") != 1):
       continue
# Store final timestamp
with open("/data/timestamps/socket/3to3/256MB/r2sent_end_ts.txt", 'a+') as fp_sent_e_ts:
   fp_sent_e_ts.write("%f\n" % time.time())

            Image:              jupyter/scipy-notebook
            Image Pull Policy:  IfNotPresent
            Name:               read
            Resources:
            Script:  #!/usr/bin/env python3
import time
import gc
# Store initial timestamp
with open("/data/timestamps/socket/3to3/256MB/r2cont_start_ts.txt", 'a+') as fp_rcont_s_ts:
   fp_rcont_s_ts.write("%f\n" % time.time())
# Read data object from remote shared storage
with open("/data/in_data/out1.bin", "rb") as fp_data1:
   data = fp_data1.read()
   del data
   gc.collect()
with open("/data/in_data/out2.bin", "rb") as fp_data2:
   data = fp_data2.read()
   del data
   gc.collect()
with open("/data/in_data/out3.bin", "rb") as fp_data3:
   data = fp_data3.read()
   del data
   gc.collect()
# Store final timestamp
with open("/data/timestamps/socket/3to3/256MB/r2cont_end_ts.txt", 'a+') as fp_rcont_e_ts:
   fp_rcont_e_ts.write("%f\n" % time.time())
#print("READER: Read %d x chars" % len(data))

          Workspaces:
            Mount Path:  /data
            Name:        read2-ws
    write-read-array-pipeline-run-r4zmt-read3-task-vrhx5:
      Pipeline Task Name:  read3-task
      Status:
        Completion Time:  2022-03-29T15:37:02Z
        Conditions:
          Last Transition Time:  2022-03-29T15:37:02Z
          Message:               All Steps have completed executing
          Reason:                Succeeded
          Status:                True
          Type:                  Succeeded
        Pod Name:                write-read-array-pipeline-run-r4zmt-read3-task-vrhx5-pod-w6bpd
        Start Time:              2022-03-29T15:36:41Z
        Steps:
          Container:  step-s-start
          Image ID:   docker-pullable://python@sha256:e71692a9512db7addf474eff98e84822d12ff4708b3aa298cb7fa15478aa76a8
          Name:       s-start
          Terminated:
            Container ID:  docker://6658cafc5c9e2625073a584fcb43dd3d0b5a60790fa1d01492da9e2a07fbda8d
            Exit Code:     0
            Finished At:   2022-03-29T15:36:57Z
            Reason:        Completed
            Started At:    2022-03-29T15:36:56Z
          Container:       step-read
          Image ID:        docker-pullable://jupyter/scipy-notebook@sha256:87b339ec6a62b283d0c2aee1446e7bc2e5ad03a80d49d2dfddb031b233aedd29
          Name:            read
          Terminated:
            Container ID:  docker://e64e4d19f909eb004004c672241cfb84c0fa00c60a142de774ac04a035ef9ac4
            Exit Code:     0
            Finished At:   2022-03-29T15:37:01Z
            Reason:        Completed
            Started At:    2022-03-29T15:36:58Z
        Task Spec:
          Steps:
            Image:              python
            Image Pull Policy:  IfNotPresent
            Name:               s-start
            Resources:
            Script:  #!/usr/bin/env python3
import time
# Store initial timestamp
with open("/data/timestamps/socket/3to3/256MB/r3sent_start_ts.txt", 'a+') as fp_sent_s_ts:
   fp_sent_s_ts.write("%f\n" % time.time())
# Wait for the ready signal from external process
with open("/data/sync_pipe", "rb") as sync_pipe_file:
   while(int.from_bytes(sync_pipe_file.read(1), "little") != 1):
       continue
# Store final timestamp
with open("/data/timestamps/socket/3to3/256MB/r3sent_end_ts.txt", 'a+') as fp_sent_e_ts:
   fp_sent_e_ts.write("%f\n" % time.time())

            Image:              jupyter/scipy-notebook
            Image Pull Policy:  IfNotPresent
            Name:               read
            Resources:
            Script:  #!/usr/bin/env python3
import time
import gc
# Store initial timestamp
with open("/data/timestamps/socket/3to3/256MB/r3cont_start_ts.txt", 'a+') as fp_rcont_s_ts:
   fp_rcont_s_ts.write("%f\n" % time.time())
# Read data object from remote shared storage
with open("/data/in_data/out1.bin", "rb") as fp_data1:
   data = fp_data1.read()
   del data
   gc.collect()
with open("/data/in_data/out2.bin", "rb") as fp_data2:
   data = fp_data2.read()
   del data
   gc.collect()
with open("/data/in_data/out3.bin", "rb") as fp_data3:
   data = fp_data3.read()
   del data
   gc.collect()
# Store final timestamp
with open("/data/timestamps/socket/3to3/256MB/r3cont_end_ts.txt", 'a+') as fp_rcont_e_ts:
   fp_rcont_e_ts.write("%f\n" % time.time())
#print("READER: Read %d x chars" % len(data))

          Workspaces:
            Mount Path:  /data
            Name:        read3-ws
    write-read-array-pipeline-run-r4zmt-write1-task-2kpwc:
      Pipeline Task Name:  write1-task
      Status:
        Completion Time:  2022-03-29T15:36:40Z
        Conditions:
          Last Transition Time:  2022-03-29T15:36:40Z
          Message:               All Steps have completed executing
          Reason:                Succeeded
          Status:                True
          Type:                  Succeeded
        Pod Name:                write-read-array-pipeline-run-r4zmt-write1-task-2kpwc-pod-ttnqx
        Start Time:              2022-03-29T15:36:17Z
        Steps:
          Container:  step-write
          Image ID:   docker-pullable://jupyter/scipy-notebook@sha256:87b339ec6a62b283d0c2aee1446e7bc2e5ad03a80d49d2dfddb031b233aedd29
          Name:       write
          Terminated:
            Container ID:  docker://51ba81aa51a361559e9985a007a938fa05929ba1ca0f5cf8a2aaa75690b28201
            Exit Code:     0
            Finished At:   2022-03-29T15:36:38Z
            Reason:        Completed
            Started At:    2022-03-29T15:36:34Z
          Container:       step-s-end
          Image ID:        docker-pullable://python@sha256:c90e15c86e2ebe71244a2a51bc7f094554422c159ce309a6faadb6debd5a6df0
          Name:            s-end
          Terminated:
            Container ID:  docker://03b8b63ec16d4ad8b61eeab68fc43bdaff105aa351db014c160cac1e256ffd07
            Exit Code:     0
            Finished At:   2022-03-29T15:36:39Z
            Reason:        Completed
            Started At:    2022-03-29T15:36:38Z
        Task Spec:
          Steps:
            Image:              jupyter/scipy-notebook
            Image Pull Policy:  IfNotPresent
            Name:               write
            Resources:
            Script:  #!/usr/bin/env python3
import time
# Store initial timestamp
with open("/data/timestamps/socket/3to3/256MB/w1cont_start_ts.txt", 'a+') as fp_wcont_s_ts:
   fp_wcont_s_ts.write("%f\n" % time.time())
# Create data object
#string = 'x' * 268435456
bytes = bytearray(b'\x01') * 268435456
# Store timestamp after data creation
with open("/data/timestamps/socket/3to3/256MB/w1cont_data_end_ts.txt", 'a+') as fp_wcont_data_ts:
   fp_wcont_data_ts.write("%f\n" % time.time())
# Write data object on the local pv
with open("/data/out_data/out1.bin", 'wb') as fp_data:
   fp_data.write(bytes)
# Store final timestamp
with open("/data/timestamps/socket/3to3/256MB/w1cont_end_ts.txt", 'a+') as fp_wcont_e_ts:
   fp_wcont_e_ts.write("%f\n" % time.time())
#print("WRITER: Written out1!")

            Image:              python
            Image Pull Policy:  IfNotPresent
            Name:               s-end
            Resources:
            Script:  #!/usr/bin/env python3
import os
import time
# Store initial timestamp
with open("/data/timestamps/socket/3to3/256MB/w1sent_start_ts.txt", 'a+') as fp_sent_s_ts:
   fp_sent_s_ts.write("%f\n" % time.time())
# Writes ready signal to sync pipe
os.system("echo 1 > /data/sync_pipe")
# Store final timestamp
with open("/data/timestamps/socket/3to3/256MB/w1sent_end_ts.txt", 'a+') as fp_sent_e_ts:
   fp_sent_e_ts.write("%f\n" % time.time())
#print("WRITER: Finished!")

          Workspaces:
            Mount Path:  /data
            Name:        write1-ws
    write-read-array-pipeline-run-r4zmt-write2-task-z8m2x:
      Pipeline Task Name:  write2-task
      Status:
        Completion Time:  2022-03-29T15:36:36Z
        Conditions:
          Last Transition Time:  2022-03-29T15:36:36Z
          Message:               All Steps have completed executing
          Reason:                Succeeded
          Status:                True
          Type:                  Succeeded
        Pod Name:                write-read-array-pipeline-run-r4zmt-write2-task-z8m2x-pod-ghznp
        Start Time:              2022-03-29T15:36:17Z
        Steps:
          Container:  step-write
          Image ID:   docker-pullable://jupyter/scipy-notebook@sha256:87b339ec6a62b283d0c2aee1446e7bc2e5ad03a80d49d2dfddb031b233aedd29
          Name:       write
          Terminated:
            Container ID:  docker://5c7b70d648f2b1d992dadbb9f410a0497e8ba8ddd75d45df48435a9c0df14f12
            Exit Code:     0
            Finished At:   2022-03-29T15:36:32Z
            Reason:        Completed
            Started At:    2022-03-29T15:36:31Z
          Container:       step-s-end
          Image ID:        docker-pullable://python@sha256:c90e15c86e2ebe71244a2a51bc7f094554422c159ce309a6faadb6debd5a6df0
          Name:            s-end
          Terminated:
            Container ID:  docker://8c2cc4a694be9495765b8d1d8513fed34619fd0d2b80bba5375b4c0ebaeba0ee
            Exit Code:     0
            Finished At:   2022-03-29T15:36:34Z
            Reason:        Completed
            Started At:    2022-03-29T15:36:33Z
        Task Spec:
          Steps:
            Image:              jupyter/scipy-notebook
            Image Pull Policy:  IfNotPresent
            Name:               write
            Resources:
            Script:  #!/usr/bin/env python3
import time
# Store initial timestamp
with open("/data/timestamps/socket/3to3/256MB/w2cont_start_ts.txt", 'a+') as fp_wcont_s_ts:
   fp_wcont_s_ts.write("%f\n" % time.time())
# Create data object
#string = 'x' * 268435456
bytes = bytearray(b'\x01') * 268435456
# Store timestamp after data creation
with open("/data/timestamps/socket/3to3/256MB/w2cont_data_end_ts.txt", 'a+') as fp_wcont_data_ts:
   fp_wcont_data_ts.write("%f\n" % time.time())
# Write data object on the local pv
with open("/data/out_data/out2.bin", 'wb') as fp_data:
   fp_data.write(bytes)
# Store final timestamp
with open("/data/timestamps/socket/3to3/256MB/w2cont_end_ts.txt", 'a+') as fp_wcont_e_ts:
   fp_wcont_e_ts.write("%f\n" % time.time())
#print("WRITER: Written out1!")

            Image:              python
            Image Pull Policy:  IfNotPresent
            Name:               s-end
            Resources:
            Script:  #!/usr/bin/env python3
import os
import time
# Store initial timestamp
with open("/data/timestamps/socket/3to3/256MB/w2sent_start_ts.txt", 'a+') as fp_sent_s_ts:
   fp_sent_s_ts.write("%f\n" % time.time())
# Writes ready signal to sync pipe
os.system("echo 1 > /data/sync_pipe")
# Store final timestamp
with open("/data/timestamps/socket/3to3/256MB/w2sent_end_ts.txt", 'a+') as fp_sent_e_ts:
   fp_sent_e_ts.write("%f\n" % time.time())
#print("WRITER: Finished!")

          Workspaces:
            Mount Path:  /data
            Name:        write2-ws
    write-read-array-pipeline-run-r4zmt-write3-task-2ddss:
      Pipeline Task Name:  write3-task
      Status:
        Completion Time:  2022-03-29T15:36:37Z
        Conditions:
          Last Transition Time:  2022-03-29T15:36:37Z
          Message:               All Steps have completed executing
          Reason:                Succeeded
          Status:                True
          Type:                  Succeeded
        Pod Name:                write-read-array-pipeline-run-r4zmt-write3-task-2ddss-pod-49dgz
        Start Time:              2022-03-29T15:36:18Z
        Steps:
          Container:  step-write
          Image ID:   docker-pullable://jupyter/scipy-notebook@sha256:87b339ec6a62b283d0c2aee1446e7bc2e5ad03a80d49d2dfddb031b233aedd29
          Name:       write
          Terminated:
            Container ID:  docker://c70aefb7ade94ba8115e1d40f6afef0d3594543559e55ae44668234251a5ddf4
            Exit Code:     0
            Finished At:   2022-03-29T15:36:35Z
            Reason:        Completed
            Started At:    2022-03-29T15:36:34Z
          Container:       step-s-end
          Image ID:        docker-pullable://python@sha256:c90e15c86e2ebe71244a2a51bc7f094554422c159ce309a6faadb6debd5a6df0
          Name:            s-end
          Terminated:
            Container ID:  docker://0ee64abe218631cea25a32e61564aa818947523c2f85563aa3d691cc3b190385
            Exit Code:     0
            Finished At:   2022-03-29T15:36:37Z
            Reason:        Completed
            Started At:    2022-03-29T15:36:36Z
        Task Spec:
          Steps:
            Image:              jupyter/scipy-notebook
            Image Pull Policy:  IfNotPresent
            Name:               write
            Resources:
            Script:  #!/usr/bin/env python3
import time
# Store initial timestamp
with open("/data/timestamps/socket/3to3/256MB/w3cont_start_ts.txt", 'a+') as fp_wcont_s_ts:
   fp_wcont_s_ts.write("%f\n" % time.time())
# Create data object
#string = 'x' * 268435456
bytes = bytearray(b'\x01') * 268435456
# Store timestamp after data creation
with open("/data/timestamps/socket/3to3/256MB/w3cont_data_end_ts.txt", 'a+') as fp_wcont_data_ts:
   fp_wcont_data_ts.write("%f\n" % time.time())
# Write data object on the local pv
with open("/data/out_data/out3.bin", 'wb') as fp_data:
   fp_data.write(bytes)
# Store final timestamp
with open("/data/timestamps/socket/3to3/256MB/w3cont_end_ts.txt", 'a+') as fp_wcont_e_ts:
   fp_wcont_e_ts.write("%f\n" % time.time())
#print("WRITER: Written out1!")

            Image:              python
            Image Pull Policy:  IfNotPresent
            Name:               s-end
            Resources:
            Script:  #!/usr/bin/env python3
import os
import time
# Store initial timestamp
with open("/data/timestamps/socket/3to3/256MB/w3sent_start_ts.txt", 'a+') as fp_sent_s_ts:
   fp_sent_s_ts.write("%f\n" % time.time())
# Writes ready signal to sync pipe
os.system("echo 1 > /data/sync_pipe")
# Store final timestamp
with open("/data/timestamps/socket/3to3/256MB/w3sent_end_ts.txt", 'a+') as fp_sent_e_ts:
   fp_sent_e_ts.write("%f\n" % time.time())
#print("WRITER: Finished!")

          Workspaces:
            Mount Path:  /data
            Name:        write3-ws
Events:
  Type    Reason     Age                From         Message
  ----    ------     ----               ----         -------
  Normal  Started    54s                PipelineRun  
  Normal  Running    53s                PipelineRun  Tasks Completed: 0 (Failed: 0, Cancelled 0), Incomplete: 6, Skipped: 0
  Normal  Running    34s                PipelineRun  Tasks Completed: 1 (Failed: 0, Cancelled 0), Incomplete: 5, Skipped: 0
  Normal  Running    33s                PipelineRun  Tasks Completed: 2 (Failed: 0, Cancelled 0), Incomplete: 4, Skipped: 0
  Normal  Running    30s (x2 over 30s)  PipelineRun  Tasks Completed: 3 (Failed: 0, Cancelled 0), Incomplete: 3, Skipped: 0
  Normal  Running    11s                PipelineRun  Tasks Completed: 4 (Failed: 0, Cancelled 0), Incomplete: 2, Skipped: 0
  Normal  Running    11s                PipelineRun  Tasks Completed: 5 (Failed: 0, Cancelled 0), Incomplete: 1, Skipped: 0
  Normal  Succeeded  8s                 PipelineRun  Tasks Completed: 6 (Failed: 0, Cancelled 0), Skipped: 0
