Name:         write-read-array-pipeline-run-vjnkp
Namespace:    default
Labels:       tekton.dev/pipeline=write-read-array-pipeline
Annotations:  <none>
API Version:  tekton.dev/v1beta1
Kind:         PipelineRun
Metadata:
  Creation Timestamp:  2022-03-01T12:48:19Z
  Generate Name:       write-read-array-pipeline-run-
  Generation:          1
  Managed Fields:
    API Version:  tekton.dev/v1beta1
    Fields Type:  FieldsV1
    fieldsV1:
      f:metadata:
        f:generateName:
      f:spec:
        .:
        f:pipelineRef:
          .:
          f:name:
        f:taskRunSpecs:
        f:workspaces:
    Manager:      kubectl-create
    Operation:    Update
    Time:         2022-03-01T12:48:19Z
    API Version:  tekton.dev/v1beta1
    Fields Type:  FieldsV1
    fieldsV1:
      f:metadata:
        f:annotations:
          .:
          f:kubectl.kubernetes.io/last-applied-configuration:
        f:labels:
          .:
          f:tekton.dev/pipeline:
      f:status:
        .:
        f:completionTime:
        f:conditions:
        f:pipelineSpec:
          .:
          f:tasks:
          f:workspaces:
        f:startTime:
        f:taskRuns:
          .:
          f:write-read-array-pipeline-run-vjnkp-read1-task-cqbmq:
            .:
            f:pipelineTaskName:
            f:status:
              .:
              f:completionTime:
              f:conditions:
              f:podName:
              f:startTime:
              f:steps:
              f:taskSpec:
                .:
                f:steps:
                f:workspaces:
          f:write-read-array-pipeline-run-vjnkp-read2-task-nqs7w:
            .:
            f:pipelineTaskName:
            f:status:
              .:
              f:completionTime:
              f:conditions:
              f:podName:
              f:startTime:
              f:steps:
              f:taskSpec:
                .:
                f:steps:
                f:workspaces:
          f:write-read-array-pipeline-run-vjnkp-write1-task-4v82k:
            .:
            f:pipelineTaskName:
            f:status:
              .:
              f:completionTime:
              f:conditions:
              f:podName:
              f:startTime:
              f:steps:
              f:taskSpec:
                .:
                f:steps:
                f:workspaces:
    Manager:         controller
    Operation:       Update
    Time:            2022-03-01T12:48:46Z
  Resource Version:  250362
  Self Link:         /apis/tekton.dev/v1beta1/namespaces/default/pipelineruns/write-read-array-pipeline-run-vjnkp
  UID:               6832f951-0314-4104-bc26-21cd7414d29c
Spec:
  Pipeline Ref:
    Name:                write-read-array-pipeline
  Service Account Name:  default
  Task Run Specs:
    Pipeline Task Name:  write1-task
    Task Pod Template:
      Node Selector:
        kubernetes.io/hostname:  k8s-worker-node1
    Pipeline Task Name:          read1-task
    Task Pod Template:
      Node Selector:
        kubernetes.io/hostname:  k8s-worker-node2
    Pipeline Task Name:          read2-task
    Task Pod Template:
      Node Selector:
        kubernetes.io/hostname:  k8s-worker-node3
  Timeout:                       1h0m0s
  Workspaces:
    Name:  shared-vol-ws
    Volume Claim Template:
      Metadata:
        Creation Timestamp:  <nil>
      Spec:
        Access Modes:
          ReadWriteMany
        Resources:
          Requests:
            Storage:  50Gi
      Status:
    Name:  task-write1-ws
    Persistent Volume Claim:
      Claim Name:  task1-pv-claim
    Name:          task-read1-ws
    Persistent Volume Claim:
      Claim Name:  task2-pv-claim
    Name:          task-read2-ws
    Persistent Volume Claim:
      Claim Name:  task3-pv-claim
Status:
  Completion Time:  2022-03-01T12:48:46Z
  Conditions:
    Last Transition Time:  2022-03-01T12:48:46Z
    Message:               Tasks Completed: 3 (Failed: 0, Cancelled 0), Skipped: 0
    Reason:                Succeeded
    Status:                True
    Type:                  Succeeded
  Pipeline Spec:
    Tasks:
      Name:  write1-task
      Task Ref:
        Kind:  Task
        Name:  write1
      Workspaces:
        Name:       write1-shared-ws
        Workspace:  shared-vol-ws
        Name:       write1-ws
        Workspace:  task-write1-ws
      Name:         read1-task
      Run After:
        write1-task
      Task Ref:
        Kind:  Task
        Name:  read1
      Workspaces:
        Name:       read1-shared-ws
        Workspace:  shared-vol-ws
        Name:       read1-ws
        Workspace:  task-read1-ws
      Name:         read2-task
      Run After:
        write1-task
      Task Ref:
        Kind:  Task
        Name:  read2
      Workspaces:
        Name:       read2-shared-ws
        Workspace:  shared-vol-ws
        Name:       read2-ws
        Workspace:  task-read2-ws
    Workspaces:
      Name:    shared-vol-ws
      Name:    task-write1-ws
      Name:    task-read1-ws
      Name:    task-read2-ws
  Start Time:  2022-03-01T12:48:19Z
  Task Runs:
    write-read-array-pipeline-run-vjnkp-read1-task-cqbmq:
      Pipeline Task Name:  read1-task
      Status:
        Completion Time:  2022-03-01T12:48:42Z
        Conditions:
          Last Transition Time:  2022-03-01T12:48:42Z
          Message:               All Steps have completed executing
          Reason:                Succeeded
          Status:                True
          Type:                  Succeeded
        Pod Name:                write-read-array-pipeline-run-vjnkp-read1-task-cqbmq-pod-kkhrl
        Start Time:              2022-03-01T12:48:34Z
        Steps:
          Container:  step-read
          Image ID:   docker-pullable://jupyter/scipy-notebook@sha256:e51cb4700af349c040bbf83c7f7a3c5fb94edb97df3071be48d5eae6c03d2f5b
          Name:       read
          Terminated:
            Container ID:  docker://fcef3f62827bf1eb0e5891c91af7a92a690a9bf44fc42660e7a2f295f18533fd
            Exit Code:     0
            Finished At:   2022-03-01T12:48:41Z
            Reason:        Completed
            Started At:    2022-03-01T12:48:41Z
        Task Spec:
          Steps:
            Image:              jupyter/scipy-notebook
            Image Pull Policy:  IfNotPresent
            Name:               read
            Resources:
            Script:  #!/usr/bin/env python3
import time
# Store initial timestamp
with open("/timestamps/shared/1to2/8MB/r1cont_start_ts.txt", 'a+') as fp_rcont_s_ts:
   fp_rcont_s_ts.write("%f\n" % time.time())
# Read data object from remote shared storage
with open("/data/out1.txt", "r") as fp_data:
   data = fp_data.read()
# Store final timestamp
with open("/timestamps/shared/1to2/8MB/r1cont_end_ts.txt", 'a+') as fp_rcont_e_ts:
   fp_rcont_e_ts.write("%f\n" % time.time())
#print("READER: Read %d x chars" % len(data))

          Workspaces:
            Mount Path:  /data
            Name:        read1-shared-ws
            Mount Path:  /timestamps
            Name:        read1-ws
    write-read-array-pipeline-run-vjnkp-read2-task-nqs7w:
      Pipeline Task Name:  read2-task
      Status:
        Completion Time:  2022-03-01T12:48:46Z
        Conditions:
          Last Transition Time:  2022-03-01T12:48:46Z
          Message:               All Steps have completed executing
          Reason:                Succeeded
          Status:                True
          Type:                  Succeeded
        Pod Name:                write-read-array-pipeline-run-vjnkp-read2-task-nqs7w-pod-7gqjc
        Start Time:              2022-03-01T12:48:34Z
        Steps:
          Container:  step-read
          Image ID:   docker-pullable://jupyter/scipy-notebook@sha256:e51cb4700af349c040bbf83c7f7a3c5fb94edb97df3071be48d5eae6c03d2f5b
          Name:       read
          Terminated:
            Container ID:  docker://1aa8314d48e492a4ce707350768f0c5c07f3fc229e5e2b1b039adba25dde2700
            Exit Code:     0
            Finished At:   2022-03-01T12:48:44Z
            Reason:        Completed
            Started At:    2022-03-01T12:48:44Z
        Task Spec:
          Steps:
            Image:              jupyter/scipy-notebook
            Image Pull Policy:  IfNotPresent
            Name:               read
            Resources:
            Script:  #!/usr/bin/env python3
import time
# Store initial timestamp
with open("/timestamps/shared/1to2/8MB/r2cont_start_ts.txt", 'a+') as fp_rcont_s_ts:
   fp_rcont_s_ts.write("%f\n" % time.time())
# Read data object from remote shared storage
with open("/data/out1.txt", "r") as fp_data:
   data = fp_data.read()
# Store final timestamp
with open("/timestamps/shared/1to2/8MB/r2cont_end_ts.txt", 'a+') as fp_rcont_e_ts:
   fp_rcont_e_ts.write("%f\n" % time.time())
#print("READER: Read %d x chars" % len(data))

          Workspaces:
            Mount Path:  /data
            Name:        read2-shared-ws
            Mount Path:  /timestamps
            Name:        read2-ws
    write-read-array-pipeline-run-vjnkp-write1-task-4v82k:
      Pipeline Task Name:  write1-task
      Status:
        Completion Time:  2022-03-01T12:48:34Z
        Conditions:
          Last Transition Time:  2022-03-01T12:48:34Z
          Message:               All Steps have completed executing
          Reason:                Succeeded
          Status:                True
          Type:                  Succeeded
        Pod Name:                write-read-array-pipeline-run-vjnkp-write1-task-4v82k-pod-bl5hq
        Start Time:              2022-03-01T12:48:19Z
        Steps:
          Container:  step-write
          Image ID:   docker-pullable://jupyter/scipy-notebook@sha256:e51cb4700af349c040bbf83c7f7a3c5fb94edb97df3071be48d5eae6c03d2f5b
          Name:       write
          Terminated:
            Container ID:  docker://97c16da5f82131e154370f340c112e0484ff1a9e1f4656a55b6dfa56f32b66b3
            Exit Code:     0
            Finished At:   2022-03-01T12:48:33Z
            Reason:        Completed
            Started At:    2022-03-01T12:48:33Z
        Task Spec:
          Steps:
            Image:              jupyter/scipy-notebook
            Image Pull Policy:  IfNotPresent
            Name:               write
            Resources:
            Script:  #!/usr/bin/env python3
import time
# Store initial timestamp
with open("/timestamps/shared/1to2/8MB/w1cont_start_ts.txt", 'a+') as fp_wcont_s_ts:
   fp_wcont_s_ts.write("%f\n" % time.time()) 
# Create data object
string = 'x' * 8388608
# Store timestamp after data creation 
with open("/timestamps/shared/1to2/8MB/w1cont_data_end_ts.txt", 'a+') as fp_wcont_data_ts:
   fp_wcont_data_ts.write("%f\n" % time.time())
# Write data object on the remote shared storage
with open("/data/out1.txt", 'w') as fp_data:
   fp_data.write("%s" % string)
# Store final timestamp
with open("/timestamps/shared/1to2/8MB/w1cont_end_ts.txt", 'a+') as fp_wcont_e_ts:
   fp_wcont_e_ts.write("%f\n" % time.time())
#print("WRITER: Written out1!")

          Workspaces:
            Mount Path:  /data
            Name:        write1-shared-ws
            Mount Path:  /timestamps
            Name:        write1-ws
Events:
  Type    Reason     Age                From         Message
  ----    ------     ----               ----         -------
  Normal  Started    35s (x2 over 35s)  PipelineRun  
  Normal  Running    35s (x2 over 35s)  PipelineRun  Tasks Completed: 0 (Failed: 0, Cancelled 0), Incomplete: 3, Skipped: 0
  Normal  Running    20s                PipelineRun  Tasks Completed: 1 (Failed: 0, Cancelled 0), Incomplete: 2, Skipped: 0
  Normal  Running    12s                PipelineRun  Tasks Completed: 2 (Failed: 0, Cancelled 0), Incomplete: 1, Skipped: 0
  Normal  Succeeded  8s                 PipelineRun  Tasks Completed: 3 (Failed: 0, Cancelled 0), Skipped: 0
