Name:         write-read-array-pipeline-run-82spt
Namespace:    default
Labels:       tekton.dev/pipeline=write-read-array-pipeline
Annotations:  <none>
API Version:  tekton.dev/v1beta1
Kind:         PipelineRun
Metadata:
  Creation Timestamp:  2022-03-10T16:48:43Z
  Generate Name:       write-read-array-pipeline-run-
  Generation:          1
  Managed Fields:
    API Version:  tekton.dev/v1beta1
    Fields Type:  FieldsV1
    fieldsV1:
      f:metadata:
        f:generateName:
      f:spec:
        .:
        f:pipelineRef:
          .:
          f:name:
        f:taskRunSpecs:
        f:workspaces:
    Manager:      kubectl-create
    Operation:    Update
    Time:         2022-03-10T16:48:43Z
    API Version:  tekton.dev/v1beta1
    Fields Type:  FieldsV1
    fieldsV1:
      f:metadata:
        f:annotations:
          .:
          f:kubectl.kubernetes.io/last-applied-configuration:
        f:labels:
          .:
          f:tekton.dev/pipeline:
      f:status:
        .:
        f:completionTime:
        f:conditions:
        f:pipelineSpec:
          .:
          f:tasks:
          f:workspaces:
        f:startTime:
        f:taskRuns:
          .:
          f:write-read-array-pipeline-run-82spt-read1-task-4mknb:
            .:
            f:pipelineTaskName:
            f:status:
              .:
              f:completionTime:
              f:conditions:
              f:podName:
              f:startTime:
              f:steps:
              f:taskSpec:
                .:
                f:steps:
                f:workspaces:
          f:write-read-array-pipeline-run-82spt-write1-task-gw9tg:
            .:
            f:pipelineTaskName:
            f:status:
              .:
              f:completionTime:
              f:conditions:
              f:podName:
              f:startTime:
              f:steps:
              f:taskSpec:
                .:
                f:steps:
                f:workspaces:
          f:write-read-array-pipeline-run-82spt-write2-task-b2wzd:
            .:
            f:pipelineTaskName:
            f:status:
              .:
              f:completionTime:
              f:conditions:
              f:podName:
              f:startTime:
              f:steps:
              f:taskSpec:
                .:
                f:steps:
                f:workspaces:
    Manager:         controller
    Operation:       Update
    Time:            2022-03-10T16:49:13Z
  Resource Version:  11135675
  Self Link:         /apis/tekton.dev/v1beta1/namespaces/default/pipelineruns/write-read-array-pipeline-run-82spt
  UID:               3342986f-da8e-4464-b783-37b66724698a
Spec:
  Pipeline Ref:
    Name:                write-read-array-pipeline
  Service Account Name:  default
  Task Run Specs:
    Pipeline Task Name:  write1-task
    Task Pod Template:
      Node Selector:
        kubernetes.io/hostname:  k8s-worker-node1
    Pipeline Task Name:          write2-task
    Task Pod Template:
      Node Selector:
        kubernetes.io/hostname:  k8s-worker-node2
    Pipeline Task Name:          read1-task
    Task Pod Template:
      Node Selector:
        kubernetes.io/hostname:  k8s-worker-node3
  Timeout:                       1h0m0s
  Workspaces:
    Name:  task-write1-ws
    Persistent Volume Claim:
      Claim Name:  task1-pv-claim
    Name:          task-write2-ws
    Persistent Volume Claim:
      Claim Name:  task2-pv-claim
    Name:          task-read1-ws
    Persistent Volume Claim:
      Claim Name:  task3-pv-claim
Status:
  Completion Time:  2022-03-10T16:49:12Z
  Conditions:
    Last Transition Time:  2022-03-10T16:49:12Z
    Message:               Tasks Completed: 3 (Failed: 0, Cancelled 0), Skipped: 0
    Reason:                Succeeded
    Status:                True
    Type:                  Succeeded
  Pipeline Spec:
    Tasks:
      Name:  write1-task
      Task Ref:
        Kind:  Task
        Name:  write1
      Workspaces:
        Name:       write1-ws
        Workspace:  task-write1-ws
      Name:         write2-task
      Task Ref:
        Kind:  Task
        Name:  write2
      Workspaces:
        Name:       write2-ws
        Workspace:  task-write2-ws
      Name:         read1-task
      Run After:
        write1-task
        write2-task
      Task Ref:
        Kind:  Task
        Name:  read1
      Workspaces:
        Name:       read1-ws
        Workspace:  task-read1-ws
    Workspaces:
      Name:    task-write1-ws
      Name:    task-write2-ws
      Name:    task-read1-ws
  Start Time:  2022-03-10T16:48:43Z
  Task Runs:
    write-read-array-pipeline-run-82spt-read1-task-4mknb:
      Pipeline Task Name:  read1-task
      Status:
        Completion Time:  2022-03-10T16:49:12Z
        Conditions:
          Last Transition Time:  2022-03-10T16:49:12Z
          Message:               All Steps have completed executing
          Reason:                Succeeded
          Status:                True
          Type:                  Succeeded
        Pod Name:                write-read-array-pipeline-run-82spt-read1-task-4mknb-pod-bxhqm
        Start Time:              2022-03-10T16:49:00Z
        Steps:
          Container:  step-s-start
          Image ID:   docker-pullable://python@sha256:c90e15c86e2ebe71244a2a51bc7f094554422c159ce309a6faadb6debd5a6df0
          Name:       s-start
          Terminated:
            Container ID:  docker://021c6a01e088a4d303549c528e8100f20da5d0c48876c1763bf3bbff839c01c8
            Exit Code:     0
            Finished At:   2022-03-10T16:49:11Z
            Reason:        Completed
            Started At:    2022-03-10T16:49:10Z
          Container:       step-read
          Image ID:        docker-pullable://jupyter/scipy-notebook@sha256:87b339ec6a62b283d0c2aee1446e7bc2e5ad03a80d49d2dfddb031b233aedd29
          Name:            read
          Terminated:
            Container ID:  docker://95c641b3a6409bd0ef3eba30e911d7f72c983b706be2c528e2f0d069f3dbe495
            Exit Code:     0
            Finished At:   2022-03-10T16:49:11Z
            Reason:        Completed
            Started At:    2022-03-10T16:49:11Z
        Task Spec:
          Steps:
            Image:              python
            Image Pull Policy:  IfNotPresent
            Name:               s-start
            Resources:
            Script:  #!/usr/bin/env python3
import time
# Store initial timestamp
with open("/data/timestamps/socket/2to1/2MB/r1sent_start_ts.txt", 'a+') as fp_sent_s_ts:
   fp_sent_s_ts.write("%f\n" % time.time())
# Wait for the ready signal from external process
with open("/data/sync_pipe", "rb") as sync_pipe_file:
   while(int.from_bytes(sync_pipe_file.read(1), "little") != 1):
       continue
# Store final timestamp
with open("/data/timestamps/socket/2to1/2MB/r1sent_end_ts.txt", 'a+') as fp_sent_e_ts:
   fp_sent_e_ts.write("%f\n" % time.time())

            Image:              jupyter/scipy-notebook
            Image Pull Policy:  IfNotPresent
            Name:               read
            Resources:
            Script:  #!/usr/bin/env python3
import time
# Store initial timestamp
with open("/data/timestamps/socket/2to1/2MB/r1cont_start_ts.txt", 'a+') as fp_rcont_s_ts:
   fp_rcont_s_ts.write("%f\n" % time.time())
# Read data object from remote shared storage
with open("/data/in_data/out1.txt", "r") as fp_data1:
   data = fp_data1.read()
   del data
with open("/data/in_data/out2.txt", "r") as fp_data2:
   data = fp_data2.read()
   del data
# Store final timestamp
with open("/data/timestamps/socket/2to1/2MB/r1cont_end_ts.txt", 'a+') as fp_rcont_e_ts:
   fp_rcont_e_ts.write("%f\n" % time.time())
#print("READER: Read %d x chars" % len(data))

          Workspaces:
            Mount Path:  /data
            Name:        read1-ws
    write-read-array-pipeline-run-82spt-write1-task-gw9tg:
      Pipeline Task Name:  write1-task
      Status:
        Completion Time:  2022-03-10T16:48:59Z
        Conditions:
          Last Transition Time:  2022-03-10T16:48:59Z
          Message:               All Steps have completed executing
          Reason:                Succeeded
          Status:                True
          Type:                  Succeeded
        Pod Name:                write-read-array-pipeline-run-82spt-write1-task-gw9tg-pod-4hx6c
        Start Time:              2022-03-10T16:48:43Z
        Steps:
          Container:  step-write
          Image ID:   docker-pullable://jupyter/scipy-notebook@sha256:87b339ec6a62b283d0c2aee1446e7bc2e5ad03a80d49d2dfddb031b233aedd29
          Name:       write
          Terminated:
            Container ID:  docker://6e18225cf4d1fd19b7b4073261d21542087d2e37616bcf60d45f82f7f467f9ec
            Exit Code:     0
            Finished At:   2022-03-10T16:48:57Z
            Reason:        Completed
            Started At:    2022-03-10T16:48:57Z
          Container:       step-s-end
          Image ID:        docker-pullable://python@sha256:c90e15c86e2ebe71244a2a51bc7f094554422c159ce309a6faadb6debd5a6df0
          Name:            s-end
          Terminated:
            Container ID:  docker://abdf1d9cd35366f44eabe26ca73902c681ead3dc35202d3575a4e2544e7c89ea
            Exit Code:     0
            Finished At:   2022-03-10T16:48:58Z
            Reason:        Completed
            Started At:    2022-03-10T16:48:58Z
        Task Spec:
          Steps:
            Image:              jupyter/scipy-notebook
            Image Pull Policy:  IfNotPresent
            Name:               write
            Resources:
            Script:  #!/usr/bin/env python3
import time
# Store initial timestamp
with open("/data/timestamps/socket/2to1/2MB/w1cont_start_ts.txt", 'a+') as fp_wcont_s_ts:
   fp_wcont_s_ts.write("%f\n" % time.time())
# Create data object
string = 'x' * 2097152
# Store timestamp after data creation
with open("/data/timestamps/socket/2to1/2MB/w1cont_data_end_ts.txt", 'a+') as fp_wcont_data_ts:
   fp_wcont_data_ts.write("%f\n" % time.time())
# Write data object on the local pv
with open("/data/out_data/out1.txt", 'w') as fp_data:
   fp_data.write("%s" % string)
# Store final timestamp
with open("/data/timestamps/socket/2to1/2MB/w1cont_end_ts.txt", 'a+') as fp_wcont_e_ts:
   fp_wcont_e_ts.write("%f\n" % time.time())
#print("WRITER: Written out1!")

            Image:              python
            Image Pull Policy:  IfNotPresent
            Name:               s-end
            Resources:
            Script:  #!/usr/bin/env python3
import os
import time
# Store initial timestamp
with open("/data/timestamps/socket/2to1/2MB/w1sent_start_ts.txt", 'a+') as fp_sent_s_ts:
   fp_sent_s_ts.write("%f\n" % time.time())
# Writes ready signal to sync pipe
os.system("echo 1 > /data/sync_pipe")
# Store final timestamp
with open("/data/timestamps/socket/2to1/2MB/w1sent_end_ts.txt", 'a+') as fp_sent_e_ts:
   fp_sent_e_ts.write("%f\n" % time.time())
#print("WRITER: Finished!")

          Workspaces:
            Mount Path:  /data
            Name:        write1-ws
    write-read-array-pipeline-run-82spt-write2-task-b2wzd:
      Pipeline Task Name:  write2-task
      Status:
        Completion Time:  2022-03-10T16:48:54Z
        Conditions:
          Last Transition Time:  2022-03-10T16:48:54Z
          Message:               All Steps have completed executing
          Reason:                Succeeded
          Status:                True
          Type:                  Succeeded
        Pod Name:                write-read-array-pipeline-run-82spt-write2-task-b2wzd-pod-bzpqd
        Start Time:              2022-03-10T16:48:43Z
        Steps:
          Container:  step-write
          Image ID:   docker-pullable://jupyter/scipy-notebook@sha256:87b339ec6a62b283d0c2aee1446e7bc2e5ad03a80d49d2dfddb031b233aedd29
          Name:       write
          Terminated:
            Container ID:  docker://45765c4f6069e0be1776e1025a57d37533c4d08034d5d3ce29904b5a956cb628
            Exit Code:     0
            Finished At:   2022-03-10T16:48:52Z
            Reason:        Completed
            Started At:    2022-03-10T16:48:52Z
          Container:       step-s-end
          Image ID:        docker-pullable://python@sha256:c90e15c86e2ebe71244a2a51bc7f094554422c159ce309a6faadb6debd5a6df0
          Name:            s-end
          Terminated:
            Container ID:  docker://75281be400576616902f272bdbd327fca0ac850ab4139c4b0b3a9334e80d0556
            Exit Code:     0
            Finished At:   2022-03-10T16:48:53Z
            Reason:        Completed
            Started At:    2022-03-10T16:48:53Z
        Task Spec:
          Steps:
            Image:              jupyter/scipy-notebook
            Image Pull Policy:  IfNotPresent
            Name:               write
            Resources:
            Script:  #!/usr/bin/env python3
import time
# Store initial timestamp
with open("/data/timestamps/socket/2to1/2MB/w2cont_start_ts.txt", 'a+') as fp_wcont_s_ts:
   fp_wcont_s_ts.write("%f\n" % time.time())
# Create data object
string = 'x' * 2097152
# Store timestamp after data creation
with open("/data/timestamps/socket/2to1/2MB/w2cont_data_end_ts.txt", 'a+') as fp_wcont_data_ts:
   fp_wcont_data_ts.write("%f\n" % time.time())
# Write data object on the local pv
with open("/data/out_data/out2.txt", 'w') as fp_data:
   fp_data.write("%s" % string)
# Store final timestamp
with open("/data/timestamps/socket/2to1/2MB/w2cont_end_ts.txt", 'a+') as fp_wcont_e_ts:
   fp_wcont_e_ts.write("%f\n" % time.time())
#print("WRITER: Written out1!")

            Image:              python
            Image Pull Policy:  IfNotPresent
            Name:               s-end
            Resources:
            Script:  #!/usr/bin/env python3
import os
import time
# Store initial timestamp
with open("/data/timestamps/socket/2to1/2MB/w2sent_start_ts.txt", 'a+') as fp_sent_s_ts:
   fp_sent_s_ts.write("%f\n" % time.time())
# Writes ready signal to sync pipe
os.system("echo 1 > /data/sync_pipe")
# Store final timestamp
with open("/data/timestamps/socket/2to1/2MB/w2sent_end_ts.txt", 'a+') as fp_sent_e_ts:
   fp_sent_e_ts.write("%f\n" % time.time())
#print("WRITER: Finished!")

          Workspaces:
            Mount Path:  /data
            Name:        write2-ws
Events:
  Type    Reason     Age                From         Message
  ----    ------     ----               ----         -------
  Normal  Started    38s                PipelineRun  
  Normal  Running    37s                PipelineRun  Tasks Completed: 0 (Failed: 0, Cancelled 0), Incomplete: 3, Skipped: 0
  Normal  Running    26s                PipelineRun  Tasks Completed: 1 (Failed: 0, Cancelled 0), Incomplete: 2, Skipped: 0
  Normal  Running    21s (x2 over 21s)  PipelineRun  Tasks Completed: 2 (Failed: 0, Cancelled 0), Incomplete: 1, Skipped: 0
  Normal  Succeeded  8s                 PipelineRun  Tasks Completed: 3 (Failed: 0, Cancelled 0), Skipped: 0
