Name:         write-read-array-pipeline-run-hh4z4
Namespace:    default
Labels:       tekton.dev/pipeline=write-read-array-pipeline
Annotations:  <none>
API Version:  tekton.dev/v1beta1
Kind:         PipelineRun
Metadata:
  Creation Timestamp:  2022-03-12T08:23:00Z
  Generate Name:       write-read-array-pipeline-run-
  Generation:          1
  Managed Fields:
    API Version:  tekton.dev/v1beta1
    Fields Type:  FieldsV1
    fieldsV1:
      f:metadata:
        f:generateName:
      f:spec:
        .:
        f:pipelineRef:
          .:
          f:name:
        f:taskRunSpecs:
        f:workspaces:
    Manager:      kubectl-create
    Operation:    Update
    Time:         2022-03-12T08:23:00Z
    API Version:  tekton.dev/v1beta1
    Fields Type:  FieldsV1
    fieldsV1:
      f:metadata:
        f:annotations:
          .:
          f:kubectl.kubernetes.io/last-applied-configuration:
        f:labels:
          .:
          f:tekton.dev/pipeline:
      f:status:
        .:
        f:completionTime:
        f:conditions:
        f:pipelineSpec:
          .:
          f:tasks:
          f:workspaces:
        f:startTime:
        f:taskRuns:
          .:
          f:write-read-array-pipeline-run-hh4z4-read1-task-2blq9:
            .:
            f:pipelineTaskName:
            f:status:
              .:
              f:completionTime:
              f:conditions:
              f:podName:
              f:startTime:
              f:steps:
              f:taskSpec:
                .:
                f:steps:
                f:workspaces:
          f:write-read-array-pipeline-run-hh4z4-read2-task-dbvzq:
            .:
            f:pipelineTaskName:
            f:status:
              .:
              f:completionTime:
              f:conditions:
              f:podName:
              f:startTime:
              f:steps:
              f:taskSpec:
                .:
                f:steps:
                f:workspaces:
          f:write-read-array-pipeline-run-hh4z4-read3-task-52n6q:
            .:
            f:pipelineTaskName:
            f:status:
              .:
              f:completionTime:
              f:conditions:
              f:podName:
              f:startTime:
              f:steps:
              f:taskSpec:
                .:
                f:steps:
                f:workspaces:
          f:write-read-array-pipeline-run-hh4z4-read4-task-c252h:
            .:
            f:pipelineTaskName:
            f:status:
              .:
              f:completionTime:
              f:conditions:
              f:podName:
              f:startTime:
              f:steps:
              f:taskSpec:
                .:
                f:steps:
                f:workspaces:
          f:write-read-array-pipeline-run-hh4z4-read5-task-75wbs:
            .:
            f:pipelineTaskName:
            f:status:
              .:
              f:completionTime:
              f:conditions:
              f:podName:
              f:startTime:
              f:steps:
              f:taskSpec:
                .:
                f:steps:
                f:workspaces:
          f:write-read-array-pipeline-run-hh4z4-read6-task-s7vzh:
            .:
            f:pipelineTaskName:
            f:status:
              .:
              f:completionTime:
              f:conditions:
              f:podName:
              f:startTime:
              f:steps:
              f:taskSpec:
                .:
                f:steps:
                f:workspaces:
          f:write-read-array-pipeline-run-hh4z4-write1-task-dqvff:
            .:
            f:pipelineTaskName:
            f:status:
              .:
              f:completionTime:
              f:conditions:
              f:podName:
              f:startTime:
              f:steps:
              f:taskSpec:
                .:
                f:steps:
                f:workspaces:
    Manager:         controller
    Operation:       Update
    Time:            2022-03-12T08:23:12Z
  Resource Version:  14935023
  Self Link:         /apis/tekton.dev/v1beta1/namespaces/default/pipelineruns/write-read-array-pipeline-run-hh4z4
  UID:               d5ffe774-c974-4fd1-95b3-b2dd41773018
Spec:
  Pipeline Ref:
    Name:                write-read-array-pipeline
  Service Account Name:  default
  Task Run Specs:
    Pipeline Task Name:  write1-task
    Task Pod Template:
      Node Selector:
        kubernetes.io/hostname:  k8s-worker-node1
    Pipeline Task Name:          read1-task
    Task Pod Template:
      Node Selector:
        kubernetes.io/hostname:  k8s-worker-node2
    Pipeline Task Name:          read2-task
    Task Pod Template:
      Node Selector:
        kubernetes.io/hostname:  k8s-worker-node3
    Pipeline Task Name:          read3-task
    Task Pod Template:
      Node Selector:
        kubernetes.io/hostname:  k8s-worker-node4
    Pipeline Task Name:          read4-task
    Task Pod Template:
      Node Selector:
        kubernetes.io/hostname:  k8s-worker-node5
    Pipeline Task Name:          read5-task
    Task Pod Template:
      Node Selector:
        kubernetes.io/hostname:  k8s-worker-node6
    Pipeline Task Name:          read6-task
    Task Pod Template:
      Node Selector:
        kubernetes.io/hostname:  k8s-worker-node7
  Timeout:                       1h0m0s
  Workspaces:
    Name:  task-write1-ws
    Persistent Volume Claim:
      Claim Name:  task1-pv-claim
    Name:          task-read1-ws
    Persistent Volume Claim:
      Claim Name:  task2-pv-claim
    Name:          task-read2-ws
    Persistent Volume Claim:
      Claim Name:  task3-pv-claim
    Name:          task-read3-ws
    Persistent Volume Claim:
      Claim Name:  task4-pv-claim
    Name:          task-read4-ws
    Persistent Volume Claim:
      Claim Name:  task5-pv-claim
    Name:          task-read5-ws
    Persistent Volume Claim:
      Claim Name:  task6-pv-claim
    Name:          task-read6-ws
    Persistent Volume Claim:
      Claim Name:  task7-pv-claim
Status:
  Completion Time:  2022-03-12T08:23:12Z
  Conditions:
    Last Transition Time:  2022-03-12T08:23:12Z
    Message:               Tasks Completed: 7 (Failed: 0, Cancelled 0), Skipped: 0
    Reason:                Succeeded
    Status:                True
    Type:                  Succeeded
  Pipeline Spec:
    Tasks:
      Name:  write1-task
      Task Ref:
        Kind:  Task
        Name:  write1
      Workspaces:
        Name:       write1-ws
        Workspace:  task-write1-ws
      Name:         read1-task
      Task Ref:
        Kind:  Task
        Name:  read1
      Workspaces:
        Name:       read1-ws
        Workspace:  task-read1-ws
      Name:         read2-task
      Task Ref:
        Kind:  Task
        Name:  read2
      Workspaces:
        Name:       read2-ws
        Workspace:  task-read2-ws
      Name:         read3-task
      Task Ref:
        Kind:  Task
        Name:  read3
      Workspaces:
        Name:       read3-ws
        Workspace:  task-read3-ws
      Name:         read4-task
      Task Ref:
        Kind:  Task
        Name:  read4
      Workspaces:
        Name:       read4-ws
        Workspace:  task-read4-ws
      Name:         read5-task
      Task Ref:
        Kind:  Task
        Name:  read5
      Workspaces:
        Name:       read5-ws
        Workspace:  task-read5-ws
      Name:         read6-task
      Task Ref:
        Kind:  Task
        Name:  read6
      Workspaces:
        Name:       read6-ws
        Workspace:  task-read6-ws
    Workspaces:
      Name:    task-write1-ws
      Name:    task-read1-ws
      Name:    task-read2-ws
      Name:    task-read3-ws
      Name:    task-read4-ws
      Name:    task-read5-ws
      Name:    task-read6-ws
  Start Time:  2022-03-12T08:23:00Z
  Task Runs:
    write-read-array-pipeline-run-hh4z4-read1-task-2blq9:
      Pipeline Task Name:  read1-task
      Status:
        Completion Time:  2022-03-12T08:23:11Z
        Conditions:
          Last Transition Time:  2022-03-12T08:23:11Z
          Message:               All Steps have completed executing
          Reason:                Succeeded
          Status:                True
          Type:                  Succeeded
        Pod Name:                write-read-array-pipeline-run-hh4z4-read1-task-2blq9-pod-2tplh
        Start Time:              2022-03-12T08:23:00Z
        Steps:
          Container:  step-read
          Image ID:   docker-pullable://jupyter/scipy-notebook@sha256:87b339ec6a62b283d0c2aee1446e7bc2e5ad03a80d49d2dfddb031b233aedd29
          Name:       read
          Terminated:
            Container ID:  docker://d1459955faa1482a681747cc5f8d6c017667ca4150456e01a1db2aaea0742dd6
            Exit Code:     0
            Finished At:   2022-03-12T08:23:10Z
            Reason:        Completed
            Started At:    2022-03-12T08:23:10Z
        Task Spec:
          Steps:
            Image:              jupyter/scipy-notebook
            Image Pull Policy:  IfNotPresent
            Name:               read
            Resources:
            Script:  #!/usr/bin/env python3
import time
import os
# Store initial timestamp
with open("/data/timestamps/socket_pipe/1to6/16MB/r1cont_start_ts.txt", 'a+') as fp_rcont_s_ts:
   fp_rcont_s_ts.write("%f\n" % time.time())
buf_sz = 65536
ready = b'\x01'
sync_pipe = open("/data/sync_pipe", 'wb')
sync_pipe.write(ready)
sync_pipe.close()
#print("Written ready signal!")
# Read data object from data pipe
data_fifo = open('/data/data_pipe', 'rb')
data_length_bin = data_fifo.read(8)
data_length = int.from_bytes(data_length_bin, "big")
data = bytearray(0)
counter = 0
while counter < data_length:
   buff = data_fifo.read(buf_sz)
   counter += len(buff)
   data.extend(buff)
data_fifo.close()
# Store final timestamp
with open("/data/timestamps/socket_pipe/1to6/16MB/r1cont_end_ts.txt", 'a+') as fp_rcont_e_ts:
   fp_rcont_e_ts.write("%f\n" % time.time())
#print("READER: Read %d x chars" % len(data))

          Workspaces:
            Mount Path:  /data
            Name:        read1-ws
    write-read-array-pipeline-run-hh4z4-read2-task-dbvzq:
      Pipeline Task Name:  read2-task
      Status:
        Completion Time:  2022-03-12T08:23:12Z
        Conditions:
          Last Transition Time:  2022-03-12T08:23:12Z
          Message:               All Steps have completed executing
          Reason:                Succeeded
          Status:                True
          Type:                  Succeeded
        Pod Name:                write-read-array-pipeline-run-hh4z4-read2-task-dbvzq-pod-57wbj
        Start Time:              2022-03-12T08:23:00Z
        Steps:
          Container:  step-read
          Image ID:   docker-pullable://jupyter/scipy-notebook@sha256:87b339ec6a62b283d0c2aee1446e7bc2e5ad03a80d49d2dfddb031b233aedd29
          Name:       read
          Terminated:
            Container ID:  docker://9326699c6f4056ea7ebc3906e7f110a01d3febc358615472a33e5775ac5c6065
            Exit Code:     0
            Finished At:   2022-03-12T08:23:10Z
            Reason:        Completed
            Started At:    2022-03-12T08:23:09Z
        Task Spec:
          Steps:
            Image:              jupyter/scipy-notebook
            Image Pull Policy:  IfNotPresent
            Name:               read
            Resources:
            Script:  #!/usr/bin/env python3
import time
import os
# Store initial timestamp
with open("/data/timestamps/socket_pipe/1to6/16MB/r2cont_start_ts.txt", 'a+') as fp_rcont_s_ts:
   fp_rcont_s_ts.write("%f\n" % time.time())
buf_sz = 65536
ready = b'\x01'
sync_pipe = open("/data/sync_pipe", 'wb')
sync_pipe.write(ready)
sync_pipe.close()
#print("Written ready signal!")
# Read data object from data pipe
data_fifo = open('/data/data_pipe', 'rb')
data_length_bin = data_fifo.read(8)
data_length = int.from_bytes(data_length_bin, "big")
data = bytearray(0)
counter = 0
while counter < data_length:
   buff = data_fifo.read(buf_sz)
   counter += len(buff)
   data.extend(buff)
data_fifo.close()
# Store final timestamp
with open("/data/timestamps/socket_pipe/1to6/16MB/r2cont_end_ts.txt", 'a+') as fp_rcont_e_ts:
   fp_rcont_e_ts.write("%f\n" % time.time())
#print("READER: Read %d x chars" % len(data))

          Workspaces:
            Mount Path:  /data
            Name:        read2-ws
    write-read-array-pipeline-run-hh4z4-read3-task-52n6q:
      Pipeline Task Name:  read3-task
      Status:
        Completion Time:  2022-03-12T08:23:11Z
        Conditions:
          Last Transition Time:  2022-03-12T08:23:11Z
          Message:               All Steps have completed executing
          Reason:                Succeeded
          Status:                True
          Type:                  Succeeded
        Pod Name:                write-read-array-pipeline-run-hh4z4-read3-task-52n6q-pod-bn95g
        Start Time:              2022-03-12T08:23:00Z
        Steps:
          Container:  step-read
          Image ID:   docker-pullable://jupyter/scipy-notebook@sha256:87b339ec6a62b283d0c2aee1446e7bc2e5ad03a80d49d2dfddb031b233aedd29
          Name:       read
          Terminated:
            Container ID:  docker://617e0a03114f3630a0757d15b75a0bf5814ae80dae41534a90aa92338e7bcb97
            Exit Code:     0
            Finished At:   2022-03-12T08:23:11Z
            Reason:        Completed
            Started At:    2022-03-12T08:23:07Z
        Task Spec:
          Steps:
            Image:              jupyter/scipy-notebook
            Image Pull Policy:  IfNotPresent
            Name:               read
            Resources:
            Script:  #!/usr/bin/env python3
import time
import os
# Store initial timestamp
with open("/data/timestamps/socket_pipe/1to6/16MB/r3cont_start_ts.txt", 'a+') as fp_rcont_s_ts:
   fp_rcont_s_ts.write("%f\n" % time.time())
buf_sz = 65536
ready = b'\x01'
sync_pipe = open("/data/sync_pipe", 'wb')
sync_pipe.write(ready)
sync_pipe.close()
#print("Written ready signal!")
# Read data object from data pipe
data_fifo = open('/data/data_pipe', 'rb')
data_length_bin = data_fifo.read(8)
data_length = int.from_bytes(data_length_bin, "big")
data = bytearray(0)
counter = 0
while counter < data_length:
   buff = data_fifo.read(buf_sz)
   counter += len(buff)
   data.extend(buff)
data_fifo.close()
# Store final timestamp
with open("/data/timestamps/socket_pipe/1to6/16MB/r3cont_end_ts.txt", 'a+') as fp_rcont_e_ts:
   fp_rcont_e_ts.write("%f\n" % time.time())
#print("READER: Read %d x chars" % len(data))

          Workspaces:
            Mount Path:  /data
            Name:        read3-ws
    write-read-array-pipeline-run-hh4z4-read4-task-c252h:
      Pipeline Task Name:  read4-task
      Status:
        Completion Time:  2022-03-12T08:23:12Z
        Conditions:
          Last Transition Time:  2022-03-12T08:23:12Z
          Message:               All Steps have completed executing
          Reason:                Succeeded
          Status:                True
          Type:                  Succeeded
        Pod Name:                write-read-array-pipeline-run-hh4z4-read4-task-c252h-pod-5h98v
        Start Time:              2022-03-12T08:23:01Z
        Steps:
          Container:  step-read
          Image ID:   docker-pullable://jupyter/scipy-notebook@sha256:87b339ec6a62b283d0c2aee1446e7bc2e5ad03a80d49d2dfddb031b233aedd29
          Name:       read
          Terminated:
            Container ID:  docker://69dbf721d03242ce22a02546742c8096652d8389c7a270cac75f07a0547bb5fd
            Exit Code:     0
            Finished At:   2022-03-12T08:23:11Z
            Reason:        Completed
            Started At:    2022-03-12T08:23:09Z
        Task Spec:
          Steps:
            Image:              jupyter/scipy-notebook
            Image Pull Policy:  IfNotPresent
            Name:               read
            Resources:
            Script:  #!/usr/bin/env python3
import time
import os
# Store initial timestamp
with open("/data/timestamps/socket_pipe/1to6/16MB/r4cont_start_ts.txt", 'a+') as fp_rcont_s_ts:
   fp_rcont_s_ts.write("%f\n" % time.time())
buf_sz = 65536
ready = b'\x01'
sync_pipe = open("/data/sync_pipe", 'wb')
sync_pipe.write(ready)
sync_pipe.close()
#print("Written ready signal!")
# Read data object from data pipe
data_fifo = open('/data/data_pipe', 'rb')
data_length_bin = data_fifo.read(8)
data_length = int.from_bytes(data_length_bin, "big")
data = bytearray(0)
counter = 0
while counter < data_length:
   buff = data_fifo.read(buf_sz)
   counter += len(buff)
   data.extend(buff)
data_fifo.close()
# Store final timestamp
with open("/data/timestamps/socket_pipe/1to6/16MB/r4cont_end_ts.txt", 'a+') as fp_rcont_e_ts:
   fp_rcont_e_ts.write("%f\n" % time.time())
#print("READER: Read %d x chars" % len(data))

          Workspaces:
            Mount Path:  /data
            Name:        read4-ws
    write-read-array-pipeline-run-hh4z4-read5-task-75wbs:
      Pipeline Task Name:  read5-task
      Status:
        Completion Time:  2022-03-12T08:23:11Z
        Conditions:
          Last Transition Time:  2022-03-12T08:23:11Z
          Message:               All Steps have completed executing
          Reason:                Succeeded
          Status:                True
          Type:                  Succeeded
        Pod Name:                write-read-array-pipeline-run-hh4z4-read5-task-75wbs-pod-z8wdg
        Start Time:              2022-03-12T08:23:01Z
        Steps:
          Container:  step-read
          Image ID:   docker-pullable://jupyter/scipy-notebook@sha256:87b339ec6a62b283d0c2aee1446e7bc2e5ad03a80d49d2dfddb031b233aedd29
          Name:       read
          Terminated:
            Container ID:  docker://1f41e69b8e6239697b965b711e1335f33cb40d365e9f92867821a835f29b543a
            Exit Code:     0
            Finished At:   2022-03-12T08:23:11Z
            Reason:        Completed
            Started At:    2022-03-12T08:23:09Z
        Task Spec:
          Steps:
            Image:              jupyter/scipy-notebook
            Image Pull Policy:  IfNotPresent
            Name:               read
            Resources:
            Script:  #!/usr/bin/env python3
import time
import os
# Store initial timestamp
with open("/data/timestamps/socket_pipe/1to6/16MB/r5cont_start_ts.txt", 'a+') as fp_rcont_s_ts:
   fp_rcont_s_ts.write("%f\n" % time.time())
buf_sz = 65536
ready = b'\x01'
sync_pipe = open("/data/sync_pipe", 'wb')
sync_pipe.write(ready)
sync_pipe.close()
#print("Written ready signal!")
# Read data object from data pipe
data_fifo = open('/data/data_pipe', 'rb')
data_length_bin = data_fifo.read(8)
data_length = int.from_bytes(data_length_bin, "big")
data = bytearray(0)
counter = 0
while counter < data_length:
   buff = data_fifo.read(buf_sz)
   counter += len(buff)
   data.extend(buff)
data_fifo.close()
# Store final timestamp
with open("/data/timestamps/socket_pipe/1to6/16MB/r5cont_end_ts.txt", 'a+') as fp_rcont_e_ts:
   fp_rcont_e_ts.write("%f\n" % time.time())
#print("READER: Read %d x chars" % len(data))

          Workspaces:
            Mount Path:  /data
            Name:        read5-ws
    write-read-array-pipeline-run-hh4z4-read6-task-s7vzh:
      Pipeline Task Name:  read6-task
      Status:
        Completion Time:  2022-03-12T08:23:11Z
        Conditions:
          Last Transition Time:  2022-03-12T08:23:11Z
          Message:               All Steps have completed executing
          Reason:                Succeeded
          Status:                True
          Type:                  Succeeded
        Pod Name:                write-read-array-pipeline-run-hh4z4-read6-task-s7vzh-pod-xjsg5
        Start Time:              2022-03-12T08:23:02Z
        Steps:
          Container:  step-read
          Image ID:   docker-pullable://jupyter/scipy-notebook@sha256:87b339ec6a62b283d0c2aee1446e7bc2e5ad03a80d49d2dfddb031b233aedd29
          Name:       read
          Terminated:
            Container ID:  docker://cc7b6038b26c255e2d24df55d93e56e334ba278575b0f07d4c530de96e417716
            Exit Code:     0
            Finished At:   2022-03-12T08:23:11Z
            Reason:        Completed
            Started At:    2022-03-12T08:23:10Z
        Task Spec:
          Steps:
            Image:              jupyter/scipy-notebook
            Image Pull Policy:  IfNotPresent
            Name:               read
            Resources:
            Script:  #!/usr/bin/env python3
import time
import os
# Store initial timestamp
with open("/data/timestamps/socket_pipe/1to6/16MB/r6cont_start_ts.txt", 'a+') as fp_rcont_s_ts:
   fp_rcont_s_ts.write("%f\n" % time.time())
buf_sz = 65536
ready = b'\x01'
sync_pipe = open("/data/sync_pipe", 'wb')
sync_pipe.write(ready)
sync_pipe.close()
#print("Written ready signal!")
# Read data object from data pipe
data_fifo = open('/data/data_pipe', 'rb')
data_length_bin = data_fifo.read(8)
data_length = int.from_bytes(data_length_bin, "big")
data = bytearray(0)
counter = 0
while counter < data_length:
   buff = data_fifo.read(buf_sz)
   counter += len(buff)
   data.extend(buff)
data_fifo.close()
# Store final timestamp
with open("/data/timestamps/socket_pipe/1to6/16MB/r6cont_end_ts.txt", 'a+') as fp_rcont_e_ts:
   fp_rcont_e_ts.write("%f\n" % time.time())
#print("READER: Read %d x chars" % len(data))

          Workspaces:
            Mount Path:  /data
            Name:        read6-ws
    write-read-array-pipeline-run-hh4z4-write1-task-dqvff:
      Pipeline Task Name:  write1-task
      Status:
        Completion Time:  2022-03-12T08:23:11Z
        Conditions:
          Last Transition Time:  2022-03-12T08:23:11Z
          Message:               All Steps have completed executing
          Reason:                Succeeded
          Status:                True
          Type:                  Succeeded
        Pod Name:                write-read-array-pipeline-run-hh4z4-write1-task-dqvff-pod-jf55r
        Start Time:              2022-03-12T08:23:00Z
        Steps:
          Container:  step-write
          Image ID:   docker-pullable://jupyter/scipy-notebook@sha256:87b339ec6a62b283d0c2aee1446e7bc2e5ad03a80d49d2dfddb031b233aedd29
          Name:       write
          Terminated:
            Container ID:  docker://aa4122812ecd3a53bae12de8b20ec5911a9ebf8593383097524db21eefea4189
            Exit Code:     0
            Finished At:   2022-03-12T08:23:10Z
            Reason:        Completed
            Started At:    2022-03-12T08:23:08Z
        Task Spec:
          Steps:
            Image:              jupyter/scipy-notebook
            Image Pull Policy:  IfNotPresent
            Name:               write
            Resources:
            Script:  #!/usr/bin/env python3
import time
# Store initial timestamp
with open("/data/timestamps/socket_pipe/1to6/16MB/w1cont_start_ts.txt", 'a+') as fp_wcont_s_ts:
   fp_wcont_s_ts.write("%f\n" % time.time())
# Create data object
# string = 'x' * 16777216
data_as_bytes = bytearray(b'\x78') * 16777216
#data_as_bytes = str.encode(string)
data_dim = 16777216
data_dim_bin = data_dim.to_bytes(8, "big")
# Store timestamp after data creation
with open("/data/timestamps/socket_pipe/1to6/16MB/w1cont_data_end_ts.txt", 'a+') as fp_wcont_data_ts:
   fp_wcont_data_ts.write("%f\n" % time.time())
# Write data object on pipe
data_fifo = open('/data/data_pipe', 'wb') 
data_fifo.write(data_dim_bin)
data_fifo.write(data_as_bytes) 
data_fifo.close()
# Store final timestamp
with open("/data/timestamps/socket_pipe/1to6/16MB/w1cont_end_ts.txt", 'a+') as fp_wcont_e_ts:
   fp_wcont_e_ts.write("%f\n" % time.time())

          Workspaces:
            Mount Path:  /data
            Name:        write1-ws
Events:
  Type    Reason     Age                From         Message
  ----    ------     ----               ----         -------
  Normal  Started    20s (x2 over 20s)  PipelineRun  
  Normal  Running    19s (x2 over 20s)  PipelineRun  Tasks Completed: 0 (Failed: 0, Cancelled 0), Incomplete: 7, Skipped: 0
  Normal  Running    9s                 PipelineRun  Tasks Completed: 1 (Failed: 0, Cancelled 0), Incomplete: 6, Skipped: 0
  Normal  Running    9s                 PipelineRun  Tasks Completed: 2 (Failed: 0, Cancelled 0), Incomplete: 5, Skipped: 0
  Normal  Running    9s (x2 over 9s)    PipelineRun  Tasks Completed: 3 (Failed: 0, Cancelled 0), Incomplete: 4, Skipped: 0
  Normal  Running    9s                 PipelineRun  Tasks Completed: 4 (Failed: 0, Cancelled 0), Incomplete: 3, Skipped: 0
  Normal  Running    9s                 PipelineRun  Tasks Completed: 5 (Failed: 0, Cancelled 0), Incomplete: 2, Skipped: 0
  Normal  Running    8s                 PipelineRun  Tasks Completed: 6 (Failed: 0, Cancelled 0), Incomplete: 1, Skipped: 0
  Normal  Succeeded  8s                 PipelineRun  Tasks Completed: 7 (Failed: 0, Cancelled 0), Skipped: 0
