Name:         write-read-array-minio-pipeline-run-s5ct2
Namespace:    default
Labels:       tekton.dev/pipeline=write-read-array-minio-pipeline
Annotations:  <none>
API Version:  tekton.dev/v1beta1
Kind:         PipelineRun
Metadata:
  Creation Timestamp:  2022-06-29T17:15:24Z
  Generate Name:       write-read-array-minio-pipeline-run-
  Generation:          1
  Managed Fields:
    API Version:  tekton.dev/v1beta1
    Fields Type:  FieldsV1
    fieldsV1:
      f:metadata:
        f:generateName:
      f:spec:
        .:
        f:pipelineRef:
          .:
          f:name:
        f:taskRunSpecs:
        f:workspaces:
    Manager:      kubectl-create
    Operation:    Update
    Time:         2022-06-29T17:15:24Z
    API Version:  tekton.dev/v1beta1
    Fields Type:  FieldsV1
    fieldsV1:
      f:metadata:
        f:annotations:
          .:
          f:kubectl.kubernetes.io/last-applied-configuration:
        f:labels:
          .:
          f:tekton.dev/pipeline:
      f:status:
        .:
        f:completionTime:
        f:conditions:
        f:pipelineSpec:
          .:
          f:tasks:
          f:workspaces:
        f:startTime:
        f:taskRuns:
          .:
          f:write-read-array-minio-pipeline-run-s5ct2-read1-task-tllfm:
            .:
            f:pipelineTaskName:
            f:status:
              .:
              f:completionTime:
              f:conditions:
              f:podName:
              f:startTime:
              f:steps:
              f:taskSpec:
                .:
                f:steps:
                f:workspaces:
          f:write-read-array-minio-pipeline-run-s5ct2-write1-task-vb8h2:
            .:
            f:pipelineTaskName:
            f:status:
              .:
              f:completionTime:
              f:conditions:
              f:podName:
              f:startTime:
              f:steps:
              f:taskSpec:
                .:
                f:steps:
                f:workspaces:
          f:write-read-array-minio-pipeline-run-s5ct2-write2-task-55pvz:
            .:
            f:pipelineTaskName:
            f:status:
              .:
              f:completionTime:
              f:conditions:
              f:podName:
              f:startTime:
              f:steps:
              f:taskSpec:
                .:
                f:steps:
                f:workspaces:
          f:write-read-array-minio-pipeline-run-s5ct2-write3-task-nxb49:
            .:
            f:pipelineTaskName:
            f:status:
              .:
              f:completionTime:
              f:conditions:
              f:podName:
              f:startTime:
              f:steps:
              f:taskSpec:
                .:
                f:steps:
                f:workspaces:
          f:write-read-array-minio-pipeline-run-s5ct2-write4-task-426pb:
            .:
            f:pipelineTaskName:
            f:status:
              .:
              f:completionTime:
              f:conditions:
              f:podName:
              f:startTime:
              f:steps:
              f:taskSpec:
                .:
                f:steps:
                f:workspaces:
          f:write-read-array-minio-pipeline-run-s5ct2-write5-task-x5kgc:
            .:
            f:pipelineTaskName:
            f:status:
              .:
              f:completionTime:
              f:conditions:
              f:podName:
              f:startTime:
              f:steps:
              f:taskSpec:
                .:
                f:steps:
                f:workspaces:
          f:write-read-array-minio-pipeline-run-s5ct2-write6-task-h2zt5:
            .:
            f:pipelineTaskName:
            f:status:
              .:
              f:completionTime:
              f:conditions:
              f:podName:
              f:startTime:
              f:steps:
              f:taskSpec:
                .:
                f:steps:
                f:workspaces:
    Manager:         controller
    Operation:       Update
    Time:            2022-06-29T17:16:10Z
  Resource Version:  257064836
  Self Link:         /apis/tekton.dev/v1beta1/namespaces/default/pipelineruns/write-read-array-minio-pipeline-run-s5ct2
  UID:               67b4b954-f8ec-4bfc-8da4-534e32c684b6
Spec:
  Pipeline Ref:
    Name:                write-read-array-minio-pipeline
  Service Account Name:  default
  Task Run Specs:
    Pipeline Task Name:  write1-task
    Task Pod Template:
      Node Selector:
        kubernetes.io/hostname:  k8s-worker-node1
    Pipeline Task Name:          write2-task
    Task Pod Template:
      Node Selector:
        kubernetes.io/hostname:  k8s-worker-node2
    Pipeline Task Name:          write3-task
    Task Pod Template:
      Node Selector:
        kubernetes.io/hostname:  k8s-worker-node3
    Pipeline Task Name:          write4-task
    Task Pod Template:
      Node Selector:
        kubernetes.io/hostname:  k8s-worker-node4
    Pipeline Task Name:          write5-task
    Task Pod Template:
      Node Selector:
        kubernetes.io/hostname:  k8s-worker-node5
    Pipeline Task Name:          write6-task
    Task Pod Template:
      Node Selector:
        kubernetes.io/hostname:  k8s-worker-node6
    Pipeline Task Name:          read1-task
    Task Pod Template:
      Node Selector:
        kubernetes.io/hostname:  k8s-worker-node7
  Timeout:                       1h0m0s
  Workspaces:
    Name:  task-write1-ws
    Persistent Volume Claim:
      Claim Name:  task1-pv-claim
    Name:          task-write2-ws
    Persistent Volume Claim:
      Claim Name:  task2-pv-claim
    Name:          task-write3-ws
    Persistent Volume Claim:
      Claim Name:  task3-pv-claim
    Name:          task-write4-ws
    Persistent Volume Claim:
      Claim Name:  task4-pv-claim
    Name:          task-write5-ws
    Persistent Volume Claim:
      Claim Name:  task5-pv-claim
    Name:          task-write6-ws
    Persistent Volume Claim:
      Claim Name:  task6-pv-claim
    Name:          task-read1-ws
    Persistent Volume Claim:
      Claim Name:  task7-pv-claim
Status:
  Completion Time:  2022-06-29T17:16:09Z
  Conditions:
    Last Transition Time:  2022-06-29T17:16:09Z
    Message:               Tasks Completed: 7 (Failed: 0, Cancelled 0), Skipped: 0
    Reason:                Succeeded
    Status:                True
    Type:                  Succeeded
  Pipeline Spec:
    Tasks:
      Name:  write1-task
      Task Ref:
        Kind:  Task
        Name:  write1
      Workspaces:
        Name:       write1-ws
        Workspace:  task-write1-ws
      Name:         write2-task
      Task Ref:
        Kind:  Task
        Name:  write2
      Workspaces:
        Name:       write2-ws
        Workspace:  task-write2-ws
      Name:         write3-task
      Task Ref:
        Kind:  Task
        Name:  write3
      Workspaces:
        Name:       write3-ws
        Workspace:  task-write3-ws
      Name:         write4-task
      Task Ref:
        Kind:  Task
        Name:  write4
      Workspaces:
        Name:       write4-ws
        Workspace:  task-write4-ws
      Name:         write5-task
      Task Ref:
        Kind:  Task
        Name:  write5
      Workspaces:
        Name:       write5-ws
        Workspace:  task-write5-ws
      Name:         write6-task
      Task Ref:
        Kind:  Task
        Name:  write6
      Workspaces:
        Name:       write6-ws
        Workspace:  task-write6-ws
      Name:         read1-task
      Run After:
        write1-task
        write2-task
        write3-task
        write4-task
        write5-task
        write6-task
      Task Ref:
        Kind:  Task
        Name:  read1
      Workspaces:
        Name:       read1-ws
        Workspace:  task-read1-ws
    Workspaces:
      Name:    task-write1-ws
      Name:    task-write2-ws
      Name:    task-write3-ws
      Name:    task-write4-ws
      Name:    task-write5-ws
      Name:    task-write6-ws
      Name:    task-read1-ws
  Start Time:  2022-06-29T17:15:24Z
  Task Runs:
    write-read-array-minio-pipeline-run-s5ct2-read1-task-tllfm:
      Pipeline Task Name:  read1-task
      Status:
        Completion Time:  2022-06-29T17:16:09Z
        Conditions:
          Last Transition Time:  2022-06-29T17:16:09Z
          Message:               All Steps have completed executing
          Reason:                Succeeded
          Status:                True
          Type:                  Succeeded
        Pod Name:                write-read-array-minio-pipeline-run-s5ct2-read1-task-tllf-gk9sn
        Start Time:              2022-06-29T17:16:00Z
        Steps:
          Container:  step-read
          Image ID:   docker-pullable://amnestorov/minio@sha256:384d67ba924edbf872ea1c40bac5f0049d5afc6d962e8f83dde8afa622ab1967
          Name:       read
          Terminated:
            Container ID:  docker://7948768a4a8bb1a8cdbc162612886e2cddbe5737bb081cb07c554677933f8470
            Exit Code:     0
            Finished At:   2022-06-29T17:16:09Z
            Reason:        Completed
            Started At:    2022-06-29T17:16:08Z
        Task Spec:
          Steps:
            Image:              amnestorov/minio
            Image Pull Policy:  IfNotPresent
            Name:               read
            Resources:
            Script:  #!/usr/bin/env python3
import time
import os
import subprocess
import sys
import boto3
import io
from botocore.config import Config
# Store initial timestamp
with open("/local/timestamps/shared_minio/6to1/32MB/r1cont_start_ts.txt", 'a+') as fp_rcont_s_ts:
   fp_rcont_s_ts.write("%f\n" % time.time())
session = boto3.session.Session()
config = Config(retries = dict(max_attempts = 50))
s3_client = session.client(
   service_name='s3',
   aws_access_key_id='admin',
   aws_secret_access_key='secretpwd',
   endpoint_url='http://10.0.26.33:9000',
   config=config
)
# Read data object from remote shared storage
data_bin1 = io.BytesIO()
s3_client.download_fileobj(Bucket='data', Key='out1.bin', Fileobj=data_bin1)
data_bin2 = io.BytesIO()
s3_client.download_fileobj(Bucket='data', Key='out2.bin', Fileobj=data_bin2)
data_bin3 = io.BytesIO()
s3_client.download_fileobj(Bucket='data', Key='out3.bin', Fileobj=data_bin3)
data_bin4 = io.BytesIO()
s3_client.download_fileobj(Bucket='data', Key='out4.bin', Fileobj=data_bin4)
data_bin5 = io.BytesIO()
s3_client.download_fileobj(Bucket='data', Key='out5.bin', Fileobj=data_bin5)
data_bin6 = io.BytesIO()
s3_client.download_fileobj(Bucket='data', Key='out6.bin', Fileobj=data_bin6)
# Store final timestamp
with open("/local/timestamps/shared_minio/6to1/32MB/r1cont_end_ts.txt", 'a+') as fp_rcont_e_ts:
   fp_rcont_e_ts.write("%f\n" % time.time())
#print("READER: Read %d x chars" % len(data))

          Workspaces:
            Mount Path:  /local
            Name:        read1-ws
    write-read-array-minio-pipeline-run-s5ct2-write1-task-vb8h2:
      Pipeline Task Name:  write1-task
      Status:
        Completion Time:  2022-06-29T17:15:37Z
        Conditions:
          Last Transition Time:  2022-06-29T17:15:37Z
          Message:               All Steps have completed executing
          Reason:                Succeeded
          Status:                True
          Type:                  Succeeded
        Pod Name:                write-read-array-minio-pipeline-run-s5ct2-write1-task-vb8-899rm
        Start Time:              2022-06-29T17:15:24Z
        Steps:
          Container:  step-write
          Image ID:   docker-pullable://amnestorov/minio@sha256:384d67ba924edbf872ea1c40bac5f0049d5afc6d962e8f83dde8afa622ab1967
          Name:       write
          Terminated:
            Container ID:  docker://ab067511fbe7071eb4f615499dbb18590e0a1e6a9f4d80c8de48309fef84eb36
            Exit Code:     0
            Finished At:   2022-06-29T17:15:36Z
            Reason:        Completed
            Started At:    2022-06-29T17:15:35Z
        Task Spec:
          Steps:
            Image:              amnestorov/minio
            Image Pull Policy:  IfNotPresent
            Name:               write
            Resources:
            Script:  #!/usr/bin/env python3
import time
import os 
import subprocess
import sys
import boto3
import botocore
import io
import boto3.s3.transfer as s3transfer
# Store initial timestamp
with open("/local/timestamps/shared_minio/6to1/32MB/w1cont_start_ts.txt", 'a+') as fp_wcont_s_ts:
   fp_wcont_s_ts.write("%f\n" % time.time())
# Create Boto session and client
session = boto3.session.Session()
botocore_config = botocore.config.Config(
   read_timeout=3600,
   connect_timeout=3600,
   retries={"max_attempts": 0},
   max_pool_connections=20
)
s3_client = session.client(
   service_name='s3',
   aws_access_key_id='admin',
   aws_secret_access_key='secretpwd',
   endpoint_url='http://10.0.26.33:9000',
   config=botocore_config
)
transfer_config = s3transfer.TransferConfig(
   use_threads=True,
   max_concurrency=20
)
s3t = s3transfer.create_transfer_manager(s3_client, transfer_config)
# Create data object
bin_data = bytearray(b'\x01') * 33554432
# Store timestamp after data creation 
with open("/local/timestamps/shared_minio/6to1/32MB/w1cont_data_end_ts.txt", 'a+') as fp_wcont_data_ts:
   fp_wcont_data_ts.write("%f\n" % time.time())
# Write data object on minio storage
#s3_client.put_object(Bucket='data', Key='out1.bin', Body=bin_data)
s3t.upload(io.BytesIO(bin_data), 'data', 'out1.bin')
#s3_client.upload_fileobj(io.BytesIO(bin_data), 'data', 'out1.bin',  Config = config)
# Store final timestamp
with open("/local/timestamps/shared_minio/6to1/32MB/w1cont_end_ts.txt", 'a+') as fp_wcont_e_ts:
   fp_wcont_e_ts.write("%f\n" % time.time())
s3t.shutdown()
#print("WRITER: Written out1!")

          Workspaces:
            Mount Path:  /local
            Name:        write1-ws
    write-read-array-minio-pipeline-run-s5ct2-write2-task-55pvz:
      Pipeline Task Name:  write2-task
      Status:
        Completion Time:  2022-06-29T17:15:38Z
        Conditions:
          Last Transition Time:  2022-06-29T17:15:38Z
          Message:               All Steps have completed executing
          Reason:                Succeeded
          Status:                True
          Type:                  Succeeded
        Pod Name:                write-read-array-minio-pipeline-run-s5ct2-write2-task-55p-tmrr9
        Start Time:              2022-06-29T17:15:24Z
        Steps:
          Container:  step-write
          Image ID:   docker-pullable://amnestorov/minio@sha256:384d67ba924edbf872ea1c40bac5f0049d5afc6d962e8f83dde8afa622ab1967
          Name:       write
          Terminated:
            Container ID:  docker://21e92aaae9fb7e7481960617d7c492d9458f96bc40a339f1b431935550659c9f
            Exit Code:     0
            Finished At:   2022-06-29T17:15:37Z
            Reason:        Completed
            Started At:    2022-06-29T17:15:35Z
        Task Spec:
          Steps:
            Image:              amnestorov/minio
            Image Pull Policy:  IfNotPresent
            Name:               write
            Resources:
            Script:  #!/usr/bin/env python3
import time
import os 
import subprocess
import sys
import boto3
import botocore
import io
import boto3.s3.transfer as s3transfer
# Store initial timestamp
with open("/local/timestamps/shared_minio/6to1/32MB/w2cont_start_ts.txt", 'a+') as fp_wcont_s_ts:
   fp_wcont_s_ts.write("%f\n" % time.time())
# Create Boto session and client
session = boto3.session.Session()
botocore_config = botocore.config.Config(
   read_timeout=3600,
   connect_timeout=3600,
   retries={"max_attempts": 0},
   max_pool_connections=20
)
s3_client = session.client(
   service_name='s3',
   aws_access_key_id='admin',
   aws_secret_access_key='secretpwd',
   endpoint_url='http://10.0.26.33:9000',
   config=botocore_config
)
transfer_config = s3transfer.TransferConfig(
   use_threads=True,
   max_concurrency=20
)
s3t = s3transfer.create_transfer_manager(s3_client, transfer_config)
# Create data object
bin_data = bytearray(b'\x01') * 33554432
# Store timestamp after data creation 
with open("/local/timestamps/shared_minio/6to1/32MB/w2cont_data_end_ts.txt", 'a+') as fp_wcont_data_ts:
   fp_wcont_data_ts.write("%f\n" % time.time())
# Write data object on minio storage
#s3_client.put_object(Bucket='data', Key='out2.bin', Body=bin_data)
s3t.upload(io.BytesIO(bin_data), 'data', 'out2.bin')
#s3_client.upload_fileobj(io.BytesIO(bin_data), 'data', 'out2.bin',  Config = config)
# Store final timestamp
with open("/local/timestamps/shared_minio/6to1/32MB/w2cont_end_ts.txt", 'a+') as fp_wcont_e_ts:
   fp_wcont_e_ts.write("%f\n" % time.time())
s3t.shutdown()
#print("WRITER: Written out1!")

          Workspaces:
            Mount Path:  /local
            Name:        write2-ws
    write-read-array-minio-pipeline-run-s5ct2-write3-task-nxb49:
      Pipeline Task Name:  write3-task
      Status:
        Completion Time:  2022-06-29T17:16:00Z
        Conditions:
          Last Transition Time:  2022-06-29T17:16:00Z
          Message:               All Steps have completed executing
          Reason:                Succeeded
          Status:                True
          Type:                  Succeeded
        Pod Name:                write-read-array-minio-pipeline-run-s5ct2-write3-task-nxb-8nq46
        Start Time:              2022-06-29T17:15:24Z
        Steps:
          Container:  step-write
          Image ID:   docker-pullable://amnestorov/minio@sha256:384d67ba924edbf872ea1c40bac5f0049d5afc6d962e8f83dde8afa622ab1967
          Name:       write
          Terminated:
            Container ID:  docker://ddb912d99e40c21c3ae700e624a3e8f0feba33978052b09582e55f8b99acdaee
            Exit Code:     0
            Finished At:   2022-06-29T17:15:59Z
            Reason:        Completed
            Started At:    2022-06-29T17:15:53Z
        Task Spec:
          Steps:
            Image:              amnestorov/minio
            Image Pull Policy:  IfNotPresent
            Name:               write
            Resources:
            Script:  #!/usr/bin/env python3
import time
import os 
import subprocess
import sys
import boto3
import botocore
import io
import boto3.s3.transfer as s3transfer
# Store initial timestamp
with open("/local/timestamps/shared_minio/6to1/32MB/w3cont_start_ts.txt", 'a+') as fp_wcont_s_ts:
   fp_wcont_s_ts.write("%f\n" % time.time())
# Create Boto session and client
session = boto3.session.Session()
botocore_config = botocore.config.Config(
   read_timeout=3600,
   connect_timeout=3600,
   retries={"max_attempts": 0},
   max_pool_connections=20
)
s3_client = session.client(
   service_name='s3',
   aws_access_key_id='admin',
   aws_secret_access_key='secretpwd',
   endpoint_url='http://10.0.26.33:9000',
   config=botocore_config
)
transfer_config = s3transfer.TransferConfig(
   use_threads=True,
   max_concurrency=20
)
s3t = s3transfer.create_transfer_manager(s3_client, transfer_config)
# Create data object
bin_data = bytearray(b'\x01') * 33554432
# Store timestamp after data creation 
with open("/local/timestamps/shared_minio/6to1/32MB/w3cont_data_end_ts.txt", 'a+') as fp_wcont_data_ts:
   fp_wcont_data_ts.write("%f\n" % time.time())
# Write data object on minio storage
#s3_client.put_object(Bucket='data', Key='out3.bin', Body=bin_data)
s3t.upload(io.BytesIO(bin_data), 'data', 'out3.bin')
#s3_client.upload_fileobj(io.BytesIO(bin_data), 'data', 'out3.bin',  Config = config)
# Store final timestamp
with open("/local/timestamps/shared_minio/6to1/32MB/w3cont_end_ts.txt", 'a+') as fp_wcont_e_ts:
   fp_wcont_e_ts.write("%f\n" % time.time())
s3t.shutdown()
#print("WRITER: Written out1!")

          Workspaces:
            Mount Path:  /local
            Name:        write3-ws
    write-read-array-minio-pipeline-run-s5ct2-write4-task-426pb:
      Pipeline Task Name:  write4-task
      Status:
        Completion Time:  2022-06-29T17:15:34Z
        Conditions:
          Last Transition Time:  2022-06-29T17:15:34Z
          Message:               All Steps have completed executing
          Reason:                Succeeded
          Status:                True
          Type:                  Succeeded
        Pod Name:                write-read-array-minio-pipeline-run-s5ct2-write4-task-426-9fgzn
        Start Time:              2022-06-29T17:15:24Z
        Steps:
          Container:  step-write
          Image ID:   docker-pullable://amnestorov/minio@sha256:384d67ba924edbf872ea1c40bac5f0049d5afc6d962e8f83dde8afa622ab1967
          Name:       write
          Terminated:
            Container ID:  docker://b5d7c6dcdb055faeaa7b6c2e8e642180b1d446eae12b2960e4fa323ce971055c
            Exit Code:     0
            Finished At:   2022-06-29T17:15:33Z
            Reason:        Completed
            Started At:    2022-06-29T17:15:33Z
        Task Spec:
          Steps:
            Image:              amnestorov/minio
            Image Pull Policy:  IfNotPresent
            Name:               write
            Resources:
            Script:  #!/usr/bin/env python3
import time
import os 
import subprocess
import sys
import boto3
import botocore
import io
import boto3.s3.transfer as s3transfer
# Store initial timestamp
with open("/local/timestamps/shared_minio/6to1/32MB/w4cont_start_ts.txt", 'a+') as fp_wcont_s_ts:
   fp_wcont_s_ts.write("%f\n" % time.time())
# Create Boto session and client
session = boto3.session.Session()
botocore_config = botocore.config.Config(
   read_timeout=3600,
   connect_timeout=3600,
   retries={"max_attempts": 0},
   max_pool_connections=20
)
s3_client = session.client(
   service_name='s3',
   aws_access_key_id='admin',
   aws_secret_access_key='secretpwd',
   endpoint_url='http://10.0.26.33:9000',
   config=botocore_config
)
transfer_config = s3transfer.TransferConfig(
   use_threads=True,
   max_concurrency=20
)
s3t = s3transfer.create_transfer_manager(s3_client, transfer_config)
# Create data object
bin_data = bytearray(b'\x01') * 33554432
# Store timestamp after data creation 
with open("/local/timestamps/shared_minio/6to1/32MB/w4cont_data_end_ts.txt", 'a+') as fp_wcont_data_ts:
   fp_wcont_data_ts.write("%f\n" % time.time())
# Write data object on minio storage
#s3_client.put_object(Bucket='data', Key='out4.bin', Body=bin_data)
s3t.upload(io.BytesIO(bin_data), 'data', 'out4.bin')
#s3_client.upload_fileobj(io.BytesIO(bin_data), 'data', 'out4.bin',  Config = config)
# Store final timestamp
with open("/local/timestamps/shared_minio/6to1/32MB/w4cont_end_ts.txt", 'a+') as fp_wcont_e_ts:
   fp_wcont_e_ts.write("%f\n" % time.time())
s3t.shutdown()
#print("WRITER: Written out1!")

          Workspaces:
            Mount Path:  /local
            Name:        write4-ws
    write-read-array-minio-pipeline-run-s5ct2-write5-task-x5kgc:
      Pipeline Task Name:  write5-task
      Status:
        Completion Time:  2022-06-29T17:15:35Z
        Conditions:
          Last Transition Time:  2022-06-29T17:15:35Z
          Message:               All Steps have completed executing
          Reason:                Succeeded
          Status:                True
          Type:                  Succeeded
        Pod Name:                write-read-array-minio-pipeline-run-s5ct2-write5-task-x5k-ljpng
        Start Time:              2022-06-29T17:15:25Z
        Steps:
          Container:  step-write
          Image ID:   docker-pullable://amnestorov/minio@sha256:384d67ba924edbf872ea1c40bac5f0049d5afc6d962e8f83dde8afa622ab1967
          Name:       write
          Terminated:
            Container ID:  docker://2ff6d24c71e71df57e551fbab8c1886f0751e0352f77a2e32375717bb56f4304
            Exit Code:     0
            Finished At:   2022-06-29T17:15:34Z
            Reason:        Completed
            Started At:    2022-06-29T17:15:33Z
        Task Spec:
          Steps:
            Image:              amnestorov/minio
            Image Pull Policy:  IfNotPresent
            Name:               write
            Resources:
            Script:  #!/usr/bin/env python3
import time
import os 
import subprocess
import sys
import boto3
import botocore
import io
import boto3.s3.transfer as s3transfer
# Store initial timestamp
with open("/local/timestamps/shared_minio/6to1/32MB/w5cont_start_ts.txt", 'a+') as fp_wcont_s_ts:
   fp_wcont_s_ts.write("%f\n" % time.time())
# Create Boto session and client
session = boto3.session.Session()
botocore_config = botocore.config.Config(
   read_timeout=3600,
   connect_timeout=3600,
   retries={"max_attempts": 0},
   max_pool_connections=20
)
s3_client = session.client(
   service_name='s3',
   aws_access_key_id='admin',
   aws_secret_access_key='secretpwd',
   endpoint_url='http://10.0.26.33:9000',
   config=botocore_config
)
transfer_config = s3transfer.TransferConfig(
   use_threads=True,
   max_concurrency=20
)
s3t = s3transfer.create_transfer_manager(s3_client, transfer_config)
# Create data object
bin_data = bytearray(b'\x01') * 33554432
# Store timestamp after data creation 
with open("/local/timestamps/shared_minio/6to1/32MB/w5cont_data_end_ts.txt", 'a+') as fp_wcont_data_ts:
   fp_wcont_data_ts.write("%f\n" % time.time())
# Write data object on minio storage
#s3_client.put_object(Bucket='data', Key='out5.bin', Body=bin_data)
s3t.upload(io.BytesIO(bin_data), 'data', 'out5.bin')
#s3_client.upload_fileobj(io.BytesIO(bin_data), 'data', 'out5.bin',  Config = config)
# Store final timestamp
with open("/local/timestamps/shared_minio/6to1/32MB/w5cont_end_ts.txt", 'a+') as fp_wcont_e_ts:
   fp_wcont_e_ts.write("%f\n" % time.time())
s3t.shutdown()
#print("WRITER: Written out1!")

          Workspaces:
            Mount Path:  /local
            Name:        write5-ws
    write-read-array-minio-pipeline-run-s5ct2-write6-task-h2zt5:
      Pipeline Task Name:  write6-task
      Status:
        Completion Time:  2022-06-29T17:15:35Z
        Conditions:
          Last Transition Time:  2022-06-29T17:15:35Z
          Message:               All Steps have completed executing
          Reason:                Succeeded
          Status:                True
          Type:                  Succeeded
        Pod Name:                write-read-array-minio-pipeline-run-s5ct2-write6-task-h2z-g7qhb
        Start Time:              2022-06-29T17:15:25Z
        Steps:
          Container:  step-write
          Image ID:   docker-pullable://amnestorov/minio@sha256:384d67ba924edbf872ea1c40bac5f0049d5afc6d962e8f83dde8afa622ab1967
          Name:       write
          Terminated:
            Container ID:  docker://6af4fca3a16b2efcfd7f8680d9fc8a5f1cfb3d5b7eeb01b85ab29d4ae1f797fd
            Exit Code:     0
            Finished At:   2022-06-29T17:15:34Z
            Reason:        Completed
            Started At:    2022-06-29T17:15:33Z
        Task Spec:
          Steps:
            Image:              amnestorov/minio
            Image Pull Policy:  IfNotPresent
            Name:               write
            Resources:
            Script:  #!/usr/bin/env python3
import time
import os 
import subprocess
import sys
import boto3
import botocore
import io
import boto3.s3.transfer as s3transfer
# Store initial timestamp
with open("/local/timestamps/shared_minio/6to1/32MB/w6cont_start_ts.txt", 'a+') as fp_wcont_s_ts:
   fp_wcont_s_ts.write("%f\n" % time.time())
# Create Boto session and client
session = boto3.session.Session()
botocore_config = botocore.config.Config(
   read_timeout=3600,
   connect_timeout=3600,
   retries={"max_attempts": 0},
   max_pool_connections=20
)
s3_client = session.client(
   service_name='s3',
   aws_access_key_id='admin',
   aws_secret_access_key='secretpwd',
   endpoint_url='http://10.0.26.33:9000',
   config=botocore_config
)
transfer_config = s3transfer.TransferConfig(
   use_threads=True,
   max_concurrency=20
)
s3t = s3transfer.create_transfer_manager(s3_client, transfer_config)
# Create data object
bin_data = bytearray(b'\x01') * 33554432
# Store timestamp after data creation 
with open("/local/timestamps/shared_minio/6to1/32MB/w6cont_data_end_ts.txt", 'a+') as fp_wcont_data_ts:
   fp_wcont_data_ts.write("%f\n" % time.time())
# Write data object on minio storage
#s3_client.put_object(Bucket='data', Key='out6.bin', Body=bin_data)
s3t.upload(io.BytesIO(bin_data), 'data', 'out6.bin')
#s3_client.upload_fileobj(io.BytesIO(bin_data), 'data', 'out6.bin',  Config = config)
# Store final timestamp
with open("/local/timestamps/shared_minio/6to1/32MB/w6cont_end_ts.txt", 'a+') as fp_wcont_e_ts:
   fp_wcont_e_ts.write("%f\n" % time.time())
s3t.shutdown()
#print("WRITER: Written out1!")

          Workspaces:
            Mount Path:  /local
            Name:        write6-ws
Events:
  Type    Reason     Age                From         Message
  ----    ------     ----               ----         -------
  Normal  Started    53s (x2 over 53s)  PipelineRun  
  Normal  Running    52s (x2 over 53s)  PipelineRun  Tasks Completed: 0 (Failed: 0, Cancelled 0), Incomplete: 7, Skipped: 0
  Normal  Running    42s                PipelineRun  Tasks Completed: 1 (Failed: 0, Cancelled 0), Incomplete: 6, Skipped: 0
  Normal  Running    41s                PipelineRun  Tasks Completed: 2 (Failed: 0, Cancelled 0), Incomplete: 5, Skipped: 0
  Normal  Running    41s                PipelineRun  Tasks Completed: 3 (Failed: 0, Cancelled 0), Incomplete: 4, Skipped: 0
  Normal  Running    39s                PipelineRun  Tasks Completed: 4 (Failed: 0, Cancelled 0), Incomplete: 3, Skipped: 0
  Normal  Running    38s                PipelineRun  Tasks Completed: 5 (Failed: 0, Cancelled 0), Incomplete: 2, Skipped: 0
  Normal  Running    16s (x2 over 16s)  PipelineRun  Tasks Completed: 6 (Failed: 0, Cancelled 0), Incomplete: 1, Skipped: 0
  Normal  Succeeded  7s                 PipelineRun  Tasks Completed: 7 (Failed: 0, Cancelled 0), Skipped: 0
