Name:         write-read-array-pipeline-run-q6fkh
Namespace:    default
Labels:       tekton.dev/pipeline=write-read-array-pipeline
Annotations:  <none>
API Version:  tekton.dev/v1beta1
Kind:         PipelineRun
Metadata:
  Creation Timestamp:  2022-03-20T11:37:31Z
  Generate Name:       write-read-array-pipeline-run-
  Generation:          1
  Managed Fields:
    API Version:  tekton.dev/v1beta1
    Fields Type:  FieldsV1
    fieldsV1:
      f:metadata:
        f:generateName:
      f:spec:
        .:
        f:pipelineRef:
          .:
          f:name:
        f:taskRunSpecs:
        f:workspaces:
    Manager:      kubectl-create
    Operation:    Update
    Time:         2022-03-20T11:37:31Z
    API Version:  tekton.dev/v1beta1
    Fields Type:  FieldsV1
    fieldsV1:
      f:metadata:
        f:annotations:
          .:
          f:kubectl.kubernetes.io/last-applied-configuration:
        f:labels:
          .:
          f:tekton.dev/pipeline:
      f:status:
        .:
        f:completionTime:
        f:conditions:
        f:pipelineSpec:
          .:
          f:tasks:
          f:workspaces:
        f:startTime:
        f:taskRuns:
          .:
          f:write-read-array-pipeline-run-q6fkh-read1-task-nkxsr:
            .:
            f:pipelineTaskName:
            f:status:
              .:
              f:completionTime:
              f:conditions:
              f:podName:
              f:startTime:
              f:steps:
              f:taskSpec:
                .:
                f:steps:
                f:workspaces:
          f:write-read-array-pipeline-run-q6fkh-write1-task-78tvg:
            .:
            f:pipelineTaskName:
            f:status:
              .:
              f:completionTime:
              f:conditions:
              f:podName:
              f:startTime:
              f:steps:
              f:taskSpec:
                .:
                f:steps:
                f:workspaces:
    Manager:         controller
    Operation:       Update
    Time:            2022-03-20T11:42:43Z
  Resource Version:  33795264
  Self Link:         /apis/tekton.dev/v1beta1/namespaces/default/pipelineruns/write-read-array-pipeline-run-q6fkh
  UID:               c6984a4d-d322-49be-a7ac-0deab2802eb7
Spec:
  Pipeline Ref:
    Name:                write-read-array-pipeline
  Service Account Name:  default
  Task Run Specs:
    Pipeline Task Name:  write1-task
    Task Pod Template:
      Node Selector:
        kubernetes.io/hostname:  k8s-worker-node1
    Pipeline Task Name:          read1-task
    Task Pod Template:
      Node Selector:
        kubernetes.io/hostname:  k8s-worker-node2
  Timeout:                       1h0m0s
  Workspaces:
    Name:  task-write1-ws
    Persistent Volume Claim:
      Claim Name:  task1-pv-claim
    Name:          task-read1-ws
    Persistent Volume Claim:
      Claim Name:  task2-pv-claim
Status:
  Completion Time:  2022-03-20T11:42:43Z
  Conditions:
    Last Transition Time:  2022-03-20T11:42:43Z
    Message:               Tasks Completed: 2 (Failed: 0, Cancelled 0), Skipped: 0
    Reason:                Succeeded
    Status:                True
    Type:                  Succeeded
  Pipeline Spec:
    Tasks:
      Name:  write1-task
      Task Ref:
        Kind:  Task
        Name:  write1
      Workspaces:
        Name:       write1-ws
        Workspace:  task-write1-ws
      Name:         read1-task
      Run After:
        write1-task
      Task Ref:
        Kind:  Task
        Name:  read1
      Workspaces:
        Name:       read1-ws
        Workspace:  task-read1-ws
    Workspaces:
      Name:    task-write1-ws
      Name:    task-read1-ws
  Start Time:  2022-03-20T11:37:31Z
  Task Runs:
    write-read-array-pipeline-run-q6fkh-read1-task-nkxsr:
      Pipeline Task Name:  read1-task
      Status:
        Completion Time:  2022-03-20T11:42:43Z
        Conditions:
          Last Transition Time:  2022-03-20T11:42:43Z
          Message:               All Steps have completed executing
          Reason:                Succeeded
          Status:                True
          Type:                  Succeeded
        Pod Name:                write-read-array-pipeline-run-q6fkh-read1-task-nkxsr-pod-bprgd
        Start Time:              2022-03-20T11:39:22Z
        Steps:
          Container:  step-s-start
          Image ID:   docker-pullable://python@sha256:c90e15c86e2ebe71244a2a51bc7f094554422c159ce309a6faadb6debd5a6df0
          Name:       s-start
          Terminated:
            Container ID:  docker://ccea2cdd614e5b3ecb27ae229b4060e65e282f3da7ec6c3c47e7ffe9cff9f6f3
            Exit Code:     0
            Finished At:   2022-03-20T11:41:52Z
            Reason:        Completed
            Started At:    2022-03-20T11:39:39Z
          Container:       step-read
          Image ID:        docker-pullable://jupyter/scipy-notebook@sha256:87b339ec6a62b283d0c2aee1446e7bc2e5ad03a80d49d2dfddb031b233aedd29
          Name:            read
          Terminated:
            Container ID:  docker://a80f167376ef57f19eeb76bf5d6c9664e8a2f19a52d03914f580d0b253100e5e
            Exit Code:     0
            Finished At:   2022-03-20T11:42:41Z
            Reason:        Completed
            Started At:    2022-03-20T11:41:52Z
        Task Spec:
          Steps:
            Image:              python
            Image Pull Policy:  IfNotPresent
            Name:               s-start
            Resources:
            Script:  #!/usr/bin/env python3
import time
# Store initial timestamp
with open("/data/timestamps/socket/1to1/16GB/r1sent_start_ts.txt", 'a+') as fp_sent_s_ts:
   fp_sent_s_ts.write("%f/n" % time.time())
# Wait for the ready signal from external process
with open("/data/sync_pipe", "rb") as sync_pipe_file:
   while(int.from_bytes(sync_pipe_file.read(1), "little") != 1):
       continue
# Store final timestamp
with open("/data/timestamps/socket/1to1/16GB/r1sent_end_ts.txt", 'a+') as fp_sent_e_ts:
   fp_sent_e_ts.write("%f/n" % time.time())

            Image:              jupyter/scipy-notebook
            Image Pull Policy:  IfNotPresent
            Name:               read
            Resources:
            Script:  #!/usr/bin/env python3
import time
import gc
# Store initial timestamp
with open("/data/timestamps/socket/1to1/16GB/r1cont_start_ts.txt", 'a+') as fp_rcont_s_ts:
   fp_rcont_s_ts.write("%f/n" % time.time())
# Read data object from remote shared storage
with open("/data/in_data/out1.txt", "r") as fp_data1:
   data = fp_data1.read()
   del data
   gc.collect()
# Store final timestamp
with open("/data/timestamps/socket/1to1/16GB/r1cont_end_ts.txt", 'a+') as fp_rcont_e_ts:
   fp_rcont_e_ts.write("%f/n" % time.time())
#print("READER: Read %d x chars" % len(data))

          Workspaces:
            Mount Path:  /data
            Name:        read1-ws
    write-read-array-pipeline-run-q6fkh-write1-task-78tvg:
      Pipeline Task Name:  write1-task
      Status:
        Completion Time:  2022-03-20T11:39:21Z
        Conditions:
          Last Transition Time:  2022-03-20T11:39:21Z
          Message:               All Steps have completed executing
          Reason:                Succeeded
          Status:                True
          Type:                  Succeeded
        Pod Name:                write-read-array-pipeline-run-q6fkh-write1-task-78tvg-pod-nm8ms
        Start Time:              2022-03-20T11:37:31Z
        Steps:
          Container:  step-write
          Image ID:   docker-pullable://jupyter/scipy-notebook@sha256:87b339ec6a62b283d0c2aee1446e7bc2e5ad03a80d49d2dfddb031b233aedd29
          Name:       write
          Terminated:
            Container ID:  docker://62072bad4a0891e37af053b6b1201b4a3903c14baa6542f31e9bd4dbfc40f575
            Exit Code:     0
            Finished At:   2022-03-20T11:38:55Z
            Reason:        Completed
            Started At:    2022-03-20T11:37:44Z
          Container:       step-s-end
          Image ID:        docker-pullable://python@sha256:c90e15c86e2ebe71244a2a51bc7f094554422c159ce309a6faadb6debd5a6df0
          Name:            s-end
          Terminated:
            Container ID:  docker://837d9e483a415b2f71b406e130d06e9df67119d53ea76909fa42ce52391990dd
            Exit Code:     0
            Finished At:   2022-03-20T11:38:57Z
            Reason:        Completed
            Started At:    2022-03-20T11:38:56Z
        Task Spec:
          Steps:
            Image:              jupyter/scipy-notebook
            Image Pull Policy:  IfNotPresent
            Name:               write
            Resources:
            Script:  #!/usr/bin/env python3
import time
# Store initial timestamp
with open("/data/timestamps/socket/1to1/16GB/w1cont_start_ts.txt", 'a+') as fp_wcont_s_ts:
   fp_wcont_s_ts.write("%f\n" % time.time())
# Create data object
string = 'x' * 17179869184
# Store timestamp after data creation
with open("/data/timestamps/socket/1to1/16GB/w1cont_data_end_ts.txt", 'a+') as fp_wcont_data_ts:
   fp_wcont_data_ts.write("%f\n" % time.time())
# Write data object on the local pv
with open("/data/out_data/out1.txt", 'w') as fp_data:
   fp_data.write("%s" % string)
# Store final timestamp
with open("/data/timestamps/socket/1to1/16GB/w1cont_end_ts.txt", 'a+') as fp_wcont_e_ts:
   fp_wcont_e_ts.write("%f\n" % time.time())
#print("WRITER: Written out1!")

            Image:              python
            Image Pull Policy:  IfNotPresent
            Name:               s-end
            Resources:
            Script:  #!/usr/bin/env python3
import os
import time
# Store initial timestamp
with open("/data/timestamps/socket/1to1/16GB/w1sent_start_ts.txt", 'a+') as fp_sent_s_ts:
   fp_sent_s_ts.write("%f\n" % time.time())
# Writes ready signal to sync pipe
os.system("echo 1 > /data/sync_pipe")
# Store final timestamp
with open("/data/timestamps/socket/1to1/16GB/w1sent_end_ts.txt", 'a+') as fp_sent_e_ts:
   fp_sent_e_ts.write("%f\n" % time.time())
#print("WRITER: Finished!")

          Workspaces:
            Mount Path:  /data
            Name:        write1-ws
Events:
  Type    Reason     Age    From         Message
  ----    ------     ----   ----         -------
  Normal  Started    5m20s  PipelineRun  
  Normal  Running    5m20s  PipelineRun  Tasks Completed: 0 (Failed: 0, Cancelled 0), Incomplete: 2, Skipped: 0
  Normal  Running    3m30s  PipelineRun  Tasks Completed: 1 (Failed: 0, Cancelled 0), Incomplete: 1, Skipped: 0
  Normal  Succeeded  8s     PipelineRun  Tasks Completed: 2 (Failed: 0, Cancelled 0), Skipped: 0
