Name:         write-read-array-pipeline-run-vlfp9
Namespace:    default
Labels:       tekton.dev/pipeline=write-read-array-pipeline
Annotations:  <none>
API Version:  tekton.dev/v1beta1
Kind:         PipelineRun
Metadata:
  Creation Timestamp:  2022-03-16T09:51:16Z
  Generate Name:       write-read-array-pipeline-run-
  Generation:          1
  Managed Fields:
    API Version:  tekton.dev/v1beta1
    Fields Type:  FieldsV1
    fieldsV1:
      f:metadata:
        f:generateName:
      f:spec:
        .:
        f:pipelineRef:
          .:
          f:name:
        f:taskRunSpecs:
        f:workspaces:
    Manager:      kubectl-create
    Operation:    Update
    Time:         2022-03-16T09:51:16Z
    API Version:  tekton.dev/v1beta1
    Fields Type:  FieldsV1
    fieldsV1:
      f:metadata:
        f:annotations:
          .:
          f:kubectl.kubernetes.io/last-applied-configuration:
        f:labels:
          .:
          f:tekton.dev/pipeline:
      f:status:
        .:
        f:completionTime:
        f:conditions:
        f:pipelineSpec:
          .:
          f:tasks:
          f:workspaces:
        f:startTime:
        f:taskRuns:
          .:
          f:write-read-array-pipeline-run-vlfp9-read1-task-f2c2q:
            .:
            f:pipelineTaskName:
            f:status:
              .:
              f:completionTime:
              f:conditions:
              f:podName:
              f:startTime:
              f:steps:
              f:taskSpec:
                .:
                f:steps:
                f:workspaces:
          f:write-read-array-pipeline-run-vlfp9-write1-task-n9f7v:
            .:
            f:pipelineTaskName:
            f:status:
              .:
              f:completionTime:
              f:conditions:
              f:podName:
              f:startTime:
              f:steps:
              f:taskSpec:
                .:
                f:steps:
                f:workspaces:
          f:write-read-array-pipeline-run-vlfp9-write2-task-t52k8:
            .:
            f:pipelineTaskName:
            f:status:
              .:
              f:completionTime:
              f:conditions:
              f:podName:
              f:startTime:
              f:steps:
              f:taskSpec:
                .:
                f:steps:
                f:workspaces:
          f:write-read-array-pipeline-run-vlfp9-write3-task-4hfdg:
            .:
            f:pipelineTaskName:
            f:status:
              .:
              f:completionTime:
              f:conditions:
              f:podName:
              f:startTime:
              f:steps:
              f:taskSpec:
                .:
                f:steps:
                f:workspaces:
          f:write-read-array-pipeline-run-vlfp9-write4-task-z5gdl:
            .:
            f:pipelineTaskName:
            f:status:
              .:
              f:completionTime:
              f:conditions:
              f:podName:
              f:startTime:
              f:steps:
              f:taskSpec:
                .:
                f:steps:
                f:workspaces:
          f:write-read-array-pipeline-run-vlfp9-write5-task-xgxts:
            .:
            f:pipelineTaskName:
            f:status:
              .:
              f:completionTime:
              f:conditions:
              f:podName:
              f:startTime:
              f:steps:
              f:taskSpec:
                .:
                f:steps:
                f:workspaces:
          f:write-read-array-pipeline-run-vlfp9-write6-task-vbkp5:
            .:
            f:pipelineTaskName:
            f:status:
              .:
              f:completionTime:
              f:conditions:
              f:podName:
              f:startTime:
              f:steps:
              f:taskSpec:
                .:
                f:steps:
                f:workspaces:
    Manager:         controller
    Operation:       Update
    Time:            2022-03-16T09:51:44Z
  Resource Version:  24416017
  Self Link:         /apis/tekton.dev/v1beta1/namespaces/default/pipelineruns/write-read-array-pipeline-run-vlfp9
  UID:               ff18f937-d591-46c6-8cd0-d517293b5e94
Spec:
  Pipeline Ref:
    Name:                write-read-array-pipeline
  Service Account Name:  default
  Task Run Specs:
    Pipeline Task Name:  write1-task
    Task Pod Template:
      Node Selector:
        kubernetes.io/hostname:  k8s-worker-node1
    Pipeline Task Name:          write2-task
    Task Pod Template:
      Node Selector:
        kubernetes.io/hostname:  k8s-worker-node2
    Pipeline Task Name:          write3-task
    Task Pod Template:
      Node Selector:
        kubernetes.io/hostname:  k8s-worker-node3
    Pipeline Task Name:          write4-task
    Task Pod Template:
      Node Selector:
        kubernetes.io/hostname:  k8s-worker-node4
    Pipeline Task Name:          write5-task
    Task Pod Template:
      Node Selector:
        kubernetes.io/hostname:  k8s-worker-node5
    Pipeline Task Name:          write6-task
    Task Pod Template:
      Node Selector:
        kubernetes.io/hostname:  k8s-worker-node6
    Pipeline Task Name:          read1-task
    Task Pod Template:
      Node Selector:
        kubernetes.io/hostname:  k8s-worker-node7
  Timeout:                       1h0m0s
  Workspaces:
    Name:  shared-vol-ws
    Volume Claim Template:
      Metadata:
        Creation Timestamp:  <nil>
      Spec:
        Access Modes:
          ReadWriteMany
        Resources:
          Requests:
            Storage:  50Gi
      Status:
    Name:  task-write1-ws
    Persistent Volume Claim:
      Claim Name:  task1-pv-claim
    Name:          task-write2-ws
    Persistent Volume Claim:
      Claim Name:  task2-pv-claim
    Name:          task-write3-ws
    Persistent Volume Claim:
      Claim Name:  task3-pv-claim
    Name:          task-write4-ws
    Persistent Volume Claim:
      Claim Name:  task4-pv-claim
    Name:          task-write5-ws
    Persistent Volume Claim:
      Claim Name:  task5-pv-claim
    Name:          task-write6-ws
    Persistent Volume Claim:
      Claim Name:  task6-pv-claim
    Name:          task-read1-ws
    Persistent Volume Claim:
      Claim Name:  task7-pv-claim
Status:
  Completion Time:  2022-03-16T09:51:44Z
  Conditions:
    Last Transition Time:  2022-03-16T09:51:44Z
    Message:               Tasks Completed: 7 (Failed: 0, Cancelled 0), Skipped: 0
    Reason:                Succeeded
    Status:                True
    Type:                  Succeeded
  Pipeline Spec:
    Tasks:
      Name:  write1-task
      Task Ref:
        Kind:  Task
        Name:  write1
      Workspaces:
        Name:       write1-shared-ws
        Workspace:  shared-vol-ws
        Name:       write1-ws
        Workspace:  task-write1-ws
      Name:         write2-task
      Task Ref:
        Kind:  Task
        Name:  write2
      Workspaces:
        Name:       write2-shared-ws
        Workspace:  shared-vol-ws
        Name:       write2-ws
        Workspace:  task-write2-ws
      Name:         write3-task
      Task Ref:
        Kind:  Task
        Name:  write3
      Workspaces:
        Name:       write3-shared-ws
        Workspace:  shared-vol-ws
        Name:       write3-ws
        Workspace:  task-write3-ws
      Name:         write4-task
      Task Ref:
        Kind:  Task
        Name:  write4
      Workspaces:
        Name:       write4-shared-ws
        Workspace:  shared-vol-ws
        Name:       write4-ws
        Workspace:  task-write4-ws
      Name:         write5-task
      Task Ref:
        Kind:  Task
        Name:  write5
      Workspaces:
        Name:       write5-shared-ws
        Workspace:  shared-vol-ws
        Name:       write5-ws
        Workspace:  task-write5-ws
      Name:         write6-task
      Task Ref:
        Kind:  Task
        Name:  write6
      Workspaces:
        Name:       write6-shared-ws
        Workspace:  shared-vol-ws
        Name:       write6-ws
        Workspace:  task-write6-ws
      Name:         read1-task
      Run After:
        write1-task
        write2-task
        write3-task
        write4-task
        write5-task
        write6-task
      Task Ref:
        Kind:  Task
        Name:  read1
      Workspaces:
        Name:       read1-shared-ws
        Workspace:  shared-vol-ws
        Name:       read1-ws
        Workspace:  task-read1-ws
    Workspaces:
      Name:    shared-vol-ws
      Name:    task-write1-ws
      Name:    task-write2-ws
      Name:    task-write3-ws
      Name:    task-write4-ws
      Name:    task-write5-ws
      Name:    task-write6-ws
      Name:    task-read1-ws
  Start Time:  2022-03-16T09:51:16Z
  Task Runs:
    write-read-array-pipeline-run-vlfp9-read1-task-f2c2q:
      Pipeline Task Name:  read1-task
      Status:
        Completion Time:  2022-03-16T09:51:44Z
        Conditions:
          Last Transition Time:  2022-03-16T09:51:44Z
          Message:               All Steps have completed executing
          Reason:                Succeeded
          Status:                True
          Type:                  Succeeded
        Pod Name:                write-read-array-pipeline-run-vlfp9-read1-task-f2c2q-pod-4l9bb
        Start Time:              2022-03-16T09:51:33Z
        Steps:
          Container:  step-read
          Image ID:   docker-pullable://jupyter/scipy-notebook@sha256:87b339ec6a62b283d0c2aee1446e7bc2e5ad03a80d49d2dfddb031b233aedd29
          Name:       read
          Terminated:
            Container ID:  docker://16a5283faddedfebaf9ff144373637529aaa00e59a668eb2cf8238e3861631c4
            Exit Code:     0
            Finished At:   2022-03-16T09:51:44Z
            Reason:        Completed
            Started At:    2022-03-16T09:51:41Z
        Task Spec:
          Steps:
            Image:              jupyter/scipy-notebook
            Image Pull Policy:  IfNotPresent
            Name:               read
            Resources:
            Script:  #!/usr/bin/env python3
import time
import gc
# Store initial timestamp
with open("/timestamps/shared/6to1/64MB/r1cont_start_ts.txt", 'a+') as fp_rcont_s_ts:
   fp_rcont_s_ts.write("%f\n" % time.time())
# Read data object from remote shared storage
with open("/data/out1.txt", "r") as fp_data:
   data = fp_data.read()
   del data
   gc.collect()
with open("/data/out2.txt", "r") as fp_data:
   data = fp_data.read()
   del data
   gc.collect()
with open("/data/out3.txt", "r") as fp_data:
   data = fp_data.read()
   del data
   gc.collect()
with open("/data/out4.txt", "r") as fp_data:
   data = fp_data.read()
   del data
   gc.collect()
with open("/data/out5.txt", "r") as fp_data:
   data = fp_data.read()
   del data
   gc.collect()
with open("/data/out6.txt", "r") as fp_data:
   data = fp_data.read()
   del data
   gc.collect()
# Store final timestamp
with open("/timestamps/shared/6to1/64MB/r1cont_end_ts.txt", 'a+') as fp_rcont_e_ts:
   fp_rcont_e_ts.write("%f\n" % time.time())
#print("READER: Read %d x chars" % len(data))

          Workspaces:
            Mount Path:  /data
            Name:        read1-shared-ws
            Mount Path:  /timestamps
            Name:        read1-ws
    write-read-array-pipeline-run-vlfp9-write1-task-n9f7v:
      Pipeline Task Name:  write1-task
      Status:
        Completion Time:  2022-03-16T09:51:29Z
        Conditions:
          Last Transition Time:  2022-03-16T09:51:29Z
          Message:               All Steps have completed executing
          Reason:                Succeeded
          Status:                True
          Type:                  Succeeded
        Pod Name:                write-read-array-pipeline-run-vlfp9-write1-task-n9f7v-pod-6brgb
        Start Time:              2022-03-16T09:51:17Z
        Steps:
          Container:  step-write
          Image ID:   docker-pullable://jupyter/scipy-notebook@sha256:87b339ec6a62b283d0c2aee1446e7bc2e5ad03a80d49d2dfddb031b233aedd29
          Name:       write
          Terminated:
            Container ID:  docker://f982dc521513cbcd07a5c9cd79bbeefa8a3867732af772ec03ce94e48875046a
            Exit Code:     0
            Finished At:   2022-03-16T09:51:28Z
            Reason:        Completed
            Started At:    2022-03-16T09:51:27Z
        Task Spec:
          Steps:
            Image:              jupyter/scipy-notebook
            Image Pull Policy:  IfNotPresent
            Name:               write
            Resources:
            Script:  #!/usr/bin/env python3
import time
# Store initial timestamp
with open("/timestamps/shared/6to1/64MB/w1cont_start_ts.txt", 'a+') as fp_wcont_s_ts:
   fp_wcont_s_ts.write("%f\n" % time.time()) 
# Create data object
string = 'x' * 67108864
# Store timestamp after data creation 
with open("/timestamps/shared/6to1/64MB/w1cont_data_end_ts.txt", 'a+') as fp_wcont_data_ts:
   fp_wcont_data_ts.write("%f\n" % time.time())
# Write data object on the remote shared storage
with open("/data/out1.txt", 'w') as fp_data:
   fp_data.write("%s" % string)
# Store final timestamp
with open("/timestamps/shared/6to1/64MB/w1cont_end_ts.txt", 'a+') as fp_wcont_e_ts:
   fp_wcont_e_ts.write("%f\n" % time.time())
#print("WRITER: Written out1!")

          Workspaces:
            Mount Path:  /data
            Name:        write1-shared-ws
            Mount Path:  /timestamps
            Name:        write1-ws
    write-read-array-pipeline-run-vlfp9-write2-task-t52k8:
      Pipeline Task Name:  write2-task
      Status:
        Completion Time:  2022-03-16T09:51:28Z
        Conditions:
          Last Transition Time:  2022-03-16T09:51:28Z
          Message:               All Steps have completed executing
          Reason:                Succeeded
          Status:                True
          Type:                  Succeeded
        Pod Name:                write-read-array-pipeline-run-vlfp9-write2-task-t52k8-pod-bpv25
        Start Time:              2022-03-16T09:51:17Z
        Steps:
          Container:  step-write
          Image ID:   docker-pullable://jupyter/scipy-notebook@sha256:87b339ec6a62b283d0c2aee1446e7bc2e5ad03a80d49d2dfddb031b233aedd29
          Name:       write
          Terminated:
            Container ID:  docker://910e2af36133e36fb87a5416c0244365c2bf53c43ea3460f27b25f219270cc69
            Exit Code:     0
            Finished At:   2022-03-16T09:51:27Z
            Reason:        Completed
            Started At:    2022-03-16T09:51:26Z
        Task Spec:
          Steps:
            Image:              jupyter/scipy-notebook
            Image Pull Policy:  IfNotPresent
            Name:               write
            Resources:
            Script:  #!/usr/bin/env python3
import time
# Store initial timestamp
with open("/timestamps/shared/6to1/64MB/w2cont_start_ts.txt", 'a+') as fp_wcont_s_ts:
   fp_wcont_s_ts.write("%f\n" % time.time()) 
# Create data object
string = 'x' * 67108864
# Store timestamp after data creation 
with open("/timestamps/shared/6to1/64MB/w2cont_data_end_ts.txt", 'a+') as fp_wcont_data_ts:
   fp_wcont_data_ts.write("%f\n" % time.time())
# Write data object on the remote shared storage
with open("/data/out2.txt", 'w') as fp_data:
   fp_data.write("%s" % string)
# Store final timestamp
with open("/timestamps/shared/6to1/64MB/w2cont_end_ts.txt", 'a+') as fp_wcont_e_ts:
   fp_wcont_e_ts.write("%f\n" % time.time())
#print("WRITER: Written out1!")

          Workspaces:
            Mount Path:  /data
            Name:        write2-shared-ws
            Mount Path:  /timestamps
            Name:        write2-ws
    write-read-array-pipeline-run-vlfp9-write3-task-4hfdg:
      Pipeline Task Name:  write3-task
      Status:
        Completion Time:  2022-03-16T09:51:33Z
        Conditions:
          Last Transition Time:  2022-03-16T09:51:33Z
          Message:               All Steps have completed executing
          Reason:                Succeeded
          Status:                True
          Type:                  Succeeded
        Pod Name:                write-read-array-pipeline-run-vlfp9-write3-task-4hfdg-pod-v8sx4
        Start Time:              2022-03-16T09:51:17Z
        Steps:
          Container:  step-write
          Image ID:   docker-pullable://jupyter/scipy-notebook@sha256:87b339ec6a62b283d0c2aee1446e7bc2e5ad03a80d49d2dfddb031b233aedd29
          Name:       write
          Terminated:
            Container ID:  docker://d2e83c0e149f1f30b1f9fc3c8b45946bb5f5611226eda65d4cde585f87003d74
            Exit Code:     0
            Finished At:   2022-03-16T09:51:32Z
            Reason:        Completed
            Started At:    2022-03-16T09:51:31Z
        Task Spec:
          Steps:
            Image:              jupyter/scipy-notebook
            Image Pull Policy:  IfNotPresent
            Name:               write
            Resources:
            Script:  #!/usr/bin/env python3
import time
# Store initial timestamp
with open("/timestamps/shared/6to1/64MB/w3cont_start_ts.txt", 'a+') as fp_wcont_s_ts:
   fp_wcont_s_ts.write("%f\n" % time.time()) 
# Create data object
string = 'x' * 67108864
# Store timestamp after data creation 
with open("/timestamps/shared/6to1/64MB/w3cont_data_end_ts.txt", 'a+') as fp_wcont_data_ts:
   fp_wcont_data_ts.write("%f\n" % time.time())
# Write data object on the remote shared storage
with open("/data/out3.txt", 'w') as fp_data:
   fp_data.write("%s" % string)
# Store final timestamp
with open("/timestamps/shared/6to1/64MB/w3cont_end_ts.txt", 'a+') as fp_wcont_e_ts:
   fp_wcont_e_ts.write("%f\n" % time.time())
#print("WRITER: Written out1!")

          Workspaces:
            Mount Path:  /data
            Name:        write3-shared-ws
            Mount Path:  /timestamps
            Name:        write3-ws
    write-read-array-pipeline-run-vlfp9-write4-task-z5gdl:
      Pipeline Task Name:  write4-task
      Status:
        Completion Time:  2022-03-16T09:51:28Z
        Conditions:
          Last Transition Time:  2022-03-16T09:51:28Z
          Message:               All Steps have completed executing
          Reason:                Succeeded
          Status:                True
          Type:                  Succeeded
        Pod Name:                write-read-array-pipeline-run-vlfp9-write4-task-z5gdl-pod-jrh5n
        Start Time:              2022-03-16T09:51:17Z
        Steps:
          Container:  step-write
          Image ID:   docker-pullable://jupyter/scipy-notebook@sha256:87b339ec6a62b283d0c2aee1446e7bc2e5ad03a80d49d2dfddb031b233aedd29
          Name:       write
          Terminated:
            Container ID:  docker://79c017091ffd6f38d4a5b557c51f5ad37f297d2ae6c263cf68f9abe05c15ac6b
            Exit Code:     0
            Finished At:   2022-03-16T09:51:28Z
            Reason:        Completed
            Started At:    2022-03-16T09:51:26Z
        Task Spec:
          Steps:
            Image:              jupyter/scipy-notebook
            Image Pull Policy:  IfNotPresent
            Name:               write
            Resources:
            Script:  #!/usr/bin/env python3
import time
# Store initial timestamp
with open("/timestamps/shared/6to1/64MB/w4cont_start_ts.txt", 'a+') as fp_wcont_s_ts:
   fp_wcont_s_ts.write("%f\n" % time.time()) 
# Create data object
string = 'x' * 67108864
# Store timestamp after data creation 
with open("/timestamps/shared/6to1/64MB/w4cont_data_end_ts.txt", 'a+') as fp_wcont_data_ts:
   fp_wcont_data_ts.write("%f\n" % time.time())
# Write data object on the remote shared storage
with open("/data/out4.txt", 'w') as fp_data:
   fp_data.write("%s" % string)
# Store final timestamp
with open("/timestamps/shared/6to1/64MB/w4cont_end_ts.txt", 'a+') as fp_wcont_e_ts:
   fp_wcont_e_ts.write("%f\n" % time.time())
#print("WRITER: Written out1!")

          Workspaces:
            Mount Path:  /data
            Name:        write4-shared-ws
            Mount Path:  /timestamps
            Name:        write4-ws
    write-read-array-pipeline-run-vlfp9-write5-task-xgxts:
      Pipeline Task Name:  write5-task
      Status:
        Completion Time:  2022-03-16T09:51:28Z
        Conditions:
          Last Transition Time:  2022-03-16T09:51:28Z
          Message:               All Steps have completed executing
          Reason:                Succeeded
          Status:                True
          Type:                  Succeeded
        Pod Name:                write-read-array-pipeline-run-vlfp9-write5-task-xgxts-pod-wtbm2
        Start Time:              2022-03-16T09:51:17Z
        Steps:
          Container:  step-write
          Image ID:   docker-pullable://jupyter/scipy-notebook@sha256:87b339ec6a62b283d0c2aee1446e7bc2e5ad03a80d49d2dfddb031b233aedd29
          Name:       write
          Terminated:
            Container ID:  docker://bd32217c1acb052cecfdb12f7cb10261a9654d696a45ebca4de9c9d68bc898c7
            Exit Code:     0
            Finished At:   2022-03-16T09:51:27Z
            Reason:        Completed
            Started At:    2022-03-16T09:51:26Z
        Task Spec:
          Steps:
            Image:              jupyter/scipy-notebook
            Image Pull Policy:  IfNotPresent
            Name:               write
            Resources:
            Script:  #!/usr/bin/env python3
import time
# Store initial timestamp
with open("/timestamps/shared/6to1/64MB/w5cont_start_ts.txt", 'a+') as fp_wcont_s_ts:
   fp_wcont_s_ts.write("%f\n" % time.time()) 
# Create data object
string = 'x' * 67108864
# Store timestamp after data creation 
with open("/timestamps/shared/6to1/64MB/w5cont_data_end_ts.txt", 'a+') as fp_wcont_data_ts:
   fp_wcont_data_ts.write("%f\n" % time.time())
# Write data object on the remote shared storage
with open("/data/out5.txt", 'w') as fp_data:
   fp_data.write("%s" % string)
# Store final timestamp
with open("/timestamps/shared/6to1/64MB/w5cont_end_ts.txt", 'a+') as fp_wcont_e_ts:
   fp_wcont_e_ts.write("%f\n" % time.time())
#print("WRITER: Written out1!")

          Workspaces:
            Mount Path:  /data
            Name:        write5-shared-ws
            Mount Path:  /timestamps
            Name:        write5-ws
    write-read-array-pipeline-run-vlfp9-write6-task-vbkp5:
      Pipeline Task Name:  write6-task
      Status:
        Completion Time:  2022-03-16T09:51:28Z
        Conditions:
          Last Transition Time:  2022-03-16T09:51:28Z
          Message:               All Steps have completed executing
          Reason:                Succeeded
          Status:                True
          Type:                  Succeeded
        Pod Name:                write-read-array-pipeline-run-vlfp9-write6-task-vbkp5-pod-d86ln
        Start Time:              2022-03-16T09:51:18Z
        Steps:
          Container:  step-write
          Image ID:   docker-pullable://jupyter/scipy-notebook@sha256:87b339ec6a62b283d0c2aee1446e7bc2e5ad03a80d49d2dfddb031b233aedd29
          Name:       write
          Terminated:
            Container ID:  docker://6f4ee902d288d0ab0f8f0a1dd87e3a41ad7349fad3a6e51999e4f24584cc7ea1
            Exit Code:     0
            Finished At:   2022-03-16T09:51:28Z
            Reason:        Completed
            Started At:    2022-03-16T09:51:26Z
        Task Spec:
          Steps:
            Image:              jupyter/scipy-notebook
            Image Pull Policy:  IfNotPresent
            Name:               write
            Resources:
            Script:  #!/usr/bin/env python3
import time
# Store initial timestamp
with open("/timestamps/shared/6to1/64MB/w6cont_start_ts.txt", 'a+') as fp_wcont_s_ts:
   fp_wcont_s_ts.write("%f\n" % time.time()) 
# Create data object
string = 'x' * 67108864
# Store timestamp after data creation 
with open("/timestamps/shared/6to1/64MB/w6cont_data_end_ts.txt", 'a+') as fp_wcont_data_ts:
   fp_wcont_data_ts.write("%f\n" % time.time())
# Write data object on the remote shared storage
with open("/data/out6.txt", 'w') as fp_data:
   fp_data.write("%s" % string)
# Store final timestamp
with open("/timestamps/shared/6to1/64MB/w6cont_end_ts.txt", 'a+') as fp_wcont_e_ts:
   fp_wcont_e_ts.write("%f\n" % time.time())
#print("WRITER: Written out1!")

          Workspaces:
            Mount Path:  /data
            Name:        write6-shared-ws
            Mount Path:  /timestamps
            Name:        write6-ws
Events:
  Type    Reason     Age                From         Message
  ----    ------     ----               ----         -------
  Normal  Started    36s (x2 over 36s)  PipelineRun  
  Normal  Running    35s (x2 over 36s)  PipelineRun  Tasks Completed: 0 (Failed: 0, Cancelled 0), Incomplete: 7, Skipped: 0
  Normal  Running    24s                PipelineRun  Tasks Completed: 1 (Failed: 0, Cancelled 0), Incomplete: 6, Skipped: 0
  Normal  Running    24s                PipelineRun  Tasks Completed: 2 (Failed: 0, Cancelled 0), Incomplete: 5, Skipped: 0
  Normal  Running    24s                PipelineRun  Tasks Completed: 3 (Failed: 0, Cancelled 0), Incomplete: 4, Skipped: 0
  Normal  Running    24s                PipelineRun  Tasks Completed: 4 (Failed: 0, Cancelled 0), Incomplete: 3, Skipped: 0
  Normal  Running    23s                PipelineRun  Tasks Completed: 5 (Failed: 0, Cancelled 0), Incomplete: 2, Skipped: 0
  Normal  Running    19s                PipelineRun  Tasks Completed: 6 (Failed: 0, Cancelled 0), Incomplete: 1, Skipped: 0
  Normal  Succeeded  8s                 PipelineRun  Tasks Completed: 7 (Failed: 0, Cancelled 0), Skipped: 0
