Name:         write-read-array-pipeline-run-t6gnk
Namespace:    default
Labels:       tekton.dev/pipeline=write-read-array-pipeline
Annotations:  <none>
API Version:  tekton.dev/v1beta1
Kind:         PipelineRun
Metadata:
  Creation Timestamp:  2022-02-25T15:32:17Z
  Generate Name:       write-read-array-pipeline-run-
  Generation:          1
  Managed Fields:
    API Version:  tekton.dev/v1beta1
    Fields Type:  FieldsV1
    fieldsV1:
      f:metadata:
        f:generateName:
      f:spec:
        .:
        f:pipelineRef:
          .:
          f:name:
        f:taskRunSpecs:
        f:workspaces:
    Manager:      kubectl-create
    Operation:    Update
    Time:         2022-02-25T15:32:17Z
    API Version:  tekton.dev/v1beta1
    Fields Type:  FieldsV1
    fieldsV1:
      f:metadata:
        f:annotations:
          .:
          f:kubectl.kubernetes.io/last-applied-configuration:
        f:labels:
          .:
          f:tekton.dev/pipeline:
      f:status:
        .:
        f:completionTime:
        f:conditions:
        f:pipelineSpec:
          .:
          f:tasks:
          f:workspaces:
        f:startTime:
        f:taskRuns:
          .:
          f:write-read-array-pipeline-run-t6gnk-read1-task-glb26:
            .:
            f:pipelineTaskName:
            f:status:
              .:
              f:completionTime:
              f:conditions:
              f:podName:
              f:startTime:
              f:steps:
              f:taskSpec:
                .:
                f:steps:
                f:workspaces:
          f:write-read-array-pipeline-run-t6gnk-write1-task-qtk6n:
            .:
            f:pipelineTaskName:
            f:status:
              .:
              f:completionTime:
              f:conditions:
              f:podName:
              f:startTime:
              f:steps:
              f:taskSpec:
                .:
                f:steps:
                f:workspaces:
    Manager:         controller
    Operation:       Update
    Time:            2022-02-25T15:33:16Z
  Resource Version:  1790971
  Self Link:         /apis/tekton.dev/v1beta1/namespaces/default/pipelineruns/write-read-array-pipeline-run-t6gnk
  UID:               b69a2dd5-3cf6-4a87-b3ff-9906b508a791
Spec:
  Pipeline Ref:
    Name:                write-read-array-pipeline
  Service Account Name:  default
  Task Run Specs:
    Pipeline Task Name:  write1-task
    Task Pod Template:
      Node Selector:
        kubernetes.io/hostname:  k8s-worker-node1
    Pipeline Task Name:          read1-task
    Task Pod Template:
      Node Selector:
        kubernetes.io/hostname:  k8s-worker-node2
  Timeout:                       1h0m0s
  Workspaces:
    Name:  task-write1-ws
    Persistent Volume Claim:
      Claim Name:  task1-pv-claim
    Name:          task-read1-ws
    Persistent Volume Claim:
      Claim Name:  task2-pv-claim
Status:
  Completion Time:  2022-02-25T15:33:16Z
  Conditions:
    Last Transition Time:  2022-02-25T15:33:16Z
    Message:               Tasks Completed: 2 (Failed: 0, Cancelled 0), Skipped: 0
    Reason:                Succeeded
    Status:                True
    Type:                  Succeeded
  Pipeline Spec:
    Tasks:
      Name:  write1-task
      Task Ref:
        Kind:  Task
        Name:  write1
      Workspaces:
        Name:       write1-ws
        Workspace:  task-write1-ws
      Name:         read1-task
      Run After:
        write1-task
      Task Ref:
        Kind:  Task
        Name:  read1
      Workspaces:
        Name:       read1-ws
        Workspace:  task-read1-ws
    Workspaces:
      Name:    task-write1-ws
      Name:    task-read1-ws
  Start Time:  2022-02-25T15:32:17Z
  Task Runs:
    write-read-array-pipeline-run-t6gnk-read1-task-glb26:
      Pipeline Task Name:  read1-task
      Status:
        Completion Time:  2022-02-25T15:33:16Z
        Conditions:
          Last Transition Time:  2022-02-25T15:33:16Z
          Message:               All Steps have completed executing
          Reason:                Succeeded
          Status:                True
          Type:                  Succeeded
        Pod Name:                write-read-array-pipeline-run-t6gnk-read1-task-glb26-pod-4jmmv
        Start Time:              2022-02-25T15:32:51Z
        Steps:
          Container:  step-s-start
          Image ID:   docker-pullable://python@sha256:ee0b617025e112b6ad7a4c76758e4a02f1c429e1b6c44410d95b024304698ff2
          Name:       s-start
          Terminated:
            Container ID:  docker://eb9899e814a2beb4c7be57168b49a365dcdecc8ba594e7ee46ec7db02c3132ff
            Exit Code:     0
            Finished At:   2022-02-25T15:33:08Z
            Reason:        Completed
            Started At:    2022-02-25T15:33:08Z
          Container:       step-read
          Image ID:        docker-pullable://jupyter/scipy-notebook@sha256:3eedd144be95a195a1ae2d60a3b1cb4edac47333986b519b636abe3242de7d2a
          Name:            read
          Terminated:
            Container ID:  docker://8f5fcd739395c56b5808a771d8989458865e6955c209ababc744a5745e59fa86
            Exit Code:     0
            Finished At:   2022-02-25T15:33:15Z
            Reason:        Completed
            Started At:    2022-02-25T15:33:08Z
        Task Spec:
          Steps:
            Image:              python
            Image Pull Policy:  IfNotPresent
            Name:               s-start
            Resources:
            Script:  #!/usr/bin/env python3
import time
# Store initial timestamp
with open("/data/timestamps/socket/1to1/4GB/r1sent_start_ts.txt", 'a+') as fp_sent_s_ts:
   fp_sent_s_ts.write("%f\n" % time.time())
# Wait for the ready signal from external process
with open("/data/sync_pipe", "rb") as sync_pipe_file:
   while(int.from_bytes(sync_pipe_file.read(1), "little") != 1):
       continue
# Store final timestamp
with open("/data/timestamps/socket/1to1/4GB/r1sent_end_ts.txt", 'a+') as fp_sent_e_ts:
   fp_sent_e_ts.write("%f\n" % time.time())

            Image:              jupyter/scipy-notebook
            Image Pull Policy:  IfNotPresent
            Name:               read
            Resources:
            Script:  #!/usr/bin/env python3
import time
# Store initial timestamp
with open("/data/timestamps/socket/1to1/4GB/r1cont_start_ts.txt", 'a+') as fp_rcont_s_ts:
   fp_rcont_s_ts.write("%f\n" % time.time())
# Read data object from remote shared storage
with open("/data/in_data/out1.txt", "r") as fp_data:
   data = fp_data.read()
# Store final timestamp
with open("/data/timestamps/socket/1to1/4GB/r1cont_end_ts.txt", 'a+') as fp_rcont_e_ts:
   fp_rcont_e_ts.write("%f\n" % time.time())
#print("READER: Read %d x chars" % len(data))

          Workspaces:
            Mount Path:  /data
            Name:        read1-ws
    write-read-array-pipeline-run-t6gnk-write1-task-qtk6n:
      Pipeline Task Name:  write1-task
      Status:
        Completion Time:  2022-02-25T15:32:50Z
        Conditions:
          Last Transition Time:  2022-02-25T15:32:50Z
          Message:               All Steps have completed executing
          Reason:                Succeeded
          Status:                True
          Type:                  Succeeded
        Pod Name:                write-read-array-pipeline-run-t6gnk-write1-task-qtk6n-pod-9thmr
        Start Time:              2022-02-25T15:32:18Z
        Steps:
          Container:  step-write
          Image ID:   docker-pullable://jupyter/scipy-notebook@sha256:3eedd144be95a195a1ae2d60a3b1cb4edac47333986b519b636abe3242de7d2a
          Name:       write
          Terminated:
            Container ID:  docker://35d247e86686f5c0f58e9ea896a32d9dd5a0ffb8d30913091e248fa46f5b0fed
            Exit Code:     0
            Finished At:   2022-02-25T15:32:40Z
            Reason:        Completed
            Started At:    2022-02-25T15:32:28Z
          Container:       step-s-end
          Image ID:        docker-pullable://python@sha256:ee0b617025e112b6ad7a4c76758e4a02f1c429e1b6c44410d95b024304698ff2
          Name:            s-end
          Terminated:
            Container ID:  docker://657f5c782158b0d6412ef712fa22e24762434b9ec59ac497dfd0100bd176864d
            Exit Code:     0
            Finished At:   2022-02-25T15:32:40Z
            Reason:        Completed
            Started At:    2022-02-25T15:32:40Z
        Task Spec:
          Steps:
            Image:              jupyter/scipy-notebook
            Image Pull Policy:  IfNotPresent
            Name:               write
            Resources:
            Script:  #!/usr/bin/env python3
import time
# Store initial timestamp
with open("/data/timestamps/socket/1to1/4GB/w1cont_start_ts.txt", 'a+') as fp_wcont_s_ts:
   fp_wcont_s_ts.write("%f\n" % time.time())
# Create data object
string = 'x' * 4294967296
# Store timestamp after data creation
with open("/data/timestamps/socket/1to1/4GB/w1cont_data_end_ts.txt", 'a+') as fp_wcont_data_ts:
   fp_wcont_data_ts.write("%f\n" % time.time())
# Write data object on the local pv
with open("/data/out_data/out1.txt", 'w') as fp_data:
   fp_data.write("%s" % string)
# Store final timestamp
with open("/data/timestamps/socket/1to1/4GB/w1cont_end_ts.txt", 'a+') as fp_wcont_e_ts:
   fp_wcont_e_ts.write("%f\n" % time.time())
#print("WRITER: Written out1!")

            Image:              python
            Image Pull Policy:  IfNotPresent
            Name:               s-end
            Resources:
            Script:  #!/usr/bin/env python3
import os
import time
# Store initial timestamp
with open("/data/timestamps/socket/1to1/4GB/w1sent_start_ts.txt", 'a+') as fp_sent_s_ts:
   fp_sent_s_ts.write("%f\n" % time.time())
# Writes ready signal to sync pipe
os.system("echo 1 > /data/sync_pipe")
# Store final timestamp
with open("/data/timestamps/socket/1to1/4GB/w1sent_end_ts.txt", 'a+') as fp_sent_e_ts:
   fp_sent_e_ts.write("%f\n" % time.time())
#print("WRITER: Finished!")

          Workspaces:
            Mount Path:  /data
            Name:        write1-ws
Events:
  Type    Reason     Age                From         Message
  ----    ------     ----               ----         -------
  Normal  Started    67s (x2 over 67s)  PipelineRun  
  Normal  Running    67s (x2 over 67s)  PipelineRun  Tasks Completed: 0 (Failed: 0, Cancelled 0), Incomplete: 2, Skipped: 0
  Normal  Running    34s                PipelineRun  Tasks Completed: 1 (Failed: 0, Cancelled 0), Incomplete: 1, Skipped: 0
  Normal  Succeeded  8s                 PipelineRun  Tasks Completed: 2 (Failed: 0, Cancelled 0), Skipped: 0
