Name:         write-read-array-minio-pipeline-run-lmscb
Namespace:    default
Labels:       tekton.dev/pipeline=write-read-array-minio-pipeline
Annotations:  <none>
API Version:  tekton.dev/v1beta1
Kind:         PipelineRun
Metadata:
  Creation Timestamp:  2022-06-30T12:52:24Z
  Generate Name:       write-read-array-minio-pipeline-run-
  Generation:          1
  Managed Fields:
    API Version:  tekton.dev/v1beta1
    Fields Type:  FieldsV1
    fieldsV1:
      f:metadata:
        f:generateName:
      f:spec:
        .:
        f:pipelineRef:
          .:
          f:name:
        f:taskRunSpecs:
        f:workspaces:
    Manager:      kubectl-create
    Operation:    Update
    Time:         2022-06-30T12:52:24Z
    API Version:  tekton.dev/v1beta1
    Fields Type:  FieldsV1
    fieldsV1:
      f:metadata:
        f:annotations:
          .:
          f:kubectl.kubernetes.io/last-applied-configuration:
        f:labels:
          .:
          f:tekton.dev/pipeline:
      f:status:
        .:
        f:completionTime:
        f:conditions:
        f:pipelineSpec:
          .:
          f:tasks:
          f:workspaces:
        f:startTime:
        f:taskRuns:
          .:
          f:write-read-array-minio-pipeline-run-lmscb-read1-task-hpczw:
            .:
            f:pipelineTaskName:
            f:status:
              .:
              f:completionTime:
              f:conditions:
              f:podName:
              f:startTime:
              f:steps:
              f:taskSpec:
                .:
                f:steps:
                f:workspaces:
          f:write-read-array-minio-pipeline-run-lmscb-read2-task-lbbm2:
            .:
            f:pipelineTaskName:
            f:status:
              .:
              f:completionTime:
              f:conditions:
              f:podName:
              f:startTime:
              f:steps:
              f:taskSpec:
                .:
                f:steps:
                f:workspaces:
          f:write-read-array-minio-pipeline-run-lmscb-read3-task-vsn42:
            .:
            f:pipelineTaskName:
            f:status:
              .:
              f:completionTime:
              f:conditions:
              f:podName:
              f:startTime:
              f:steps:
              f:taskSpec:
                .:
                f:steps:
                f:workspaces:
          f:write-read-array-minio-pipeline-run-lmscb-write1-task-tzjmv:
            .:
            f:pipelineTaskName:
            f:status:
              .:
              f:completionTime:
              f:conditions:
              f:podName:
              f:startTime:
              f:steps:
              f:taskSpec:
                .:
                f:steps:
                f:workspaces:
          f:write-read-array-minio-pipeline-run-lmscb-write2-task-4mwn8:
            .:
            f:pipelineTaskName:
            f:status:
              .:
              f:completionTime:
              f:conditions:
              f:podName:
              f:startTime:
              f:steps:
              f:taskSpec:
                .:
                f:steps:
                f:workspaces:
          f:write-read-array-minio-pipeline-run-lmscb-write3-task-h724r:
            .:
            f:pipelineTaskName:
            f:status:
              .:
              f:completionTime:
              f:conditions:
              f:podName:
              f:startTime:
              f:steps:
              f:taskSpec:
                .:
                f:steps:
                f:workspaces:
    Manager:         controller
    Operation:       Update
    Time:            2022-06-30T12:53:19Z
  Resource Version:  258959295
  Self Link:         /apis/tekton.dev/v1beta1/namespaces/default/pipelineruns/write-read-array-minio-pipeline-run-lmscb
  UID:               957b2db5-39ac-485d-b160-8da45f877092
Spec:
  Pipeline Ref:
    Name:                write-read-array-minio-pipeline
  Service Account Name:  default
  Task Run Specs:
    Pipeline Task Name:  write1-task
    Task Pod Template:
      Node Selector:
        kubernetes.io/hostname:  k8s-worker-node1
    Pipeline Task Name:          write2-task
    Task Pod Template:
      Node Selector:
        kubernetes.io/hostname:  k8s-worker-node2
    Pipeline Task Name:          write3-task
    Task Pod Template:
      Node Selector:
        kubernetes.io/hostname:  k8s-worker-node3
    Pipeline Task Name:          read1-task
    Task Pod Template:
      Node Selector:
        kubernetes.io/hostname:  k8s-worker-node4
    Pipeline Task Name:          read2-task
    Task Pod Template:
      Node Selector:
        kubernetes.io/hostname:  k8s-worker-node5
    Pipeline Task Name:          read3-task
    Task Pod Template:
      Node Selector:
        kubernetes.io/hostname:  k8s-worker-node6
  Timeout:                       1h0m0s
  Workspaces:
    Name:  task-write1-ws
    Persistent Volume Claim:
      Claim Name:  task1-pv-claim
    Name:          task-write2-ws
    Persistent Volume Claim:
      Claim Name:  task2-pv-claim
    Name:          task-write3-ws
    Persistent Volume Claim:
      Claim Name:  task3-pv-claim
    Name:          task-read1-ws
    Persistent Volume Claim:
      Claim Name:  task4-pv-claim
    Name:          task-read2-ws
    Persistent Volume Claim:
      Claim Name:  task5-pv-claim
    Name:          task-read3-ws
    Persistent Volume Claim:
      Claim Name:  task6-pv-claim
Status:
  Completion Time:  2022-06-30T12:53:19Z
  Conditions:
    Last Transition Time:  2022-06-30T12:53:19Z
    Message:               Tasks Completed: 6 (Failed: 0, Cancelled 0), Skipped: 0
    Reason:                Succeeded
    Status:                True
    Type:                  Succeeded
  Pipeline Spec:
    Tasks:
      Name:  write1-task
      Task Ref:
        Kind:  Task
        Name:  write1
      Workspaces:
        Name:       write1-ws
        Workspace:  task-write1-ws
      Name:         write2-task
      Task Ref:
        Kind:  Task
        Name:  write2
      Workspaces:
        Name:       write2-ws
        Workspace:  task-write2-ws
      Name:         write3-task
      Task Ref:
        Kind:  Task
        Name:  write3
      Workspaces:
        Name:       write3-ws
        Workspace:  task-write3-ws
      Name:         read1-task
      Run After:
        write1-task
        write2-task
        write3-task
      Task Ref:
        Kind:  Task
        Name:  read1
      Workspaces:
        Name:       read1-ws
        Workspace:  task-read1-ws
      Name:         read2-task
      Run After:
        write1-task
        write2-task
        write3-task
      Task Ref:
        Kind:  Task
        Name:  read2
      Workspaces:
        Name:       read2-ws
        Workspace:  task-read2-ws
      Name:         read3-task
      Run After:
        write1-task
        write2-task
        write3-task
      Task Ref:
        Kind:  Task
        Name:  read3
      Workspaces:
        Name:       read3-ws
        Workspace:  task-read3-ws
    Workspaces:
      Name:    task-write1-ws
      Name:    task-write2-ws
      Name:    task-write3-ws
      Name:    task-read1-ws
      Name:    task-read2-ws
      Name:    task-read3-ws
  Start Time:  2022-06-30T12:52:24Z
  Task Runs:
    write-read-array-minio-pipeline-run-lmscb-read1-task-hpczw:
      Pipeline Task Name:  read1-task
      Status:
        Completion Time:  2022-06-30T12:53:17Z
        Conditions:
          Last Transition Time:  2022-06-30T12:53:17Z
          Message:               All Steps have completed executing
          Reason:                Succeeded
          Status:                True
          Type:                  Succeeded
        Pod Name:                write-read-array-minio-pipeline-run-lmscb-read1-task-hpcz-kmxnz
        Start Time:              2022-06-30T12:53:09Z
        Steps:
          Container:  step-read
          Image ID:   docker-pullable://amnestorov/minio@sha256:384d67ba924edbf872ea1c40bac5f0049d5afc6d962e8f83dde8afa622ab1967
          Name:       read
          Terminated:
            Container ID:  docker://c258acf06c7aa9bdcdb5b709bcbeb61d84052c2b3e6085bea7274bb4082b63cb
            Exit Code:     0
            Finished At:   2022-06-30T12:53:16Z
            Reason:        Completed
            Started At:    2022-06-30T12:53:16Z
        Task Spec:
          Steps:
            Image:              amnestorov/minio
            Image Pull Policy:  IfNotPresent
            Name:               read
            Resources:
            Script:  #!/usr/bin/env python3
import time
import os
import subprocess
import sys
import boto3
import io
from botocore.config import Config
# Store initial timestamp
with open("/local/timestamps/shared_minio/3to3/4MB/r1cont_start_ts.txt", 'a+') as fp_rcont_s_ts:
   fp_rcont_s_ts.write("%f\n" % time.time())
session = boto3.session.Session()
config = Config(retries = dict(max_attempts = 50))
s3_client = session.client(
   service_name='s3',
   aws_access_key_id='admin',
   aws_secret_access_key='secretpwd',
   endpoint_url='http://10.0.26.33:9000',
   config=config
)
# Read data object from remote shared storage
data_bin1 = io.BytesIO()
s3_client.download_fileobj(Bucket='data', Key='out1.bin', Fileobj=data_bin1)
data_bin2 = io.BytesIO()
s3_client.download_fileobj(Bucket='data', Key='out2.bin', Fileobj=data_bin2)
data_bin3 = io.BytesIO()
s3_client.download_fileobj(Bucket='data', Key='out3.bin', Fileobj=data_bin3)
# Store final timestamp
with open("/local/timestamps/shared_minio/3to3/4MB/r1cont_end_ts.txt", 'a+') as fp_rcont_e_ts:
   fp_rcont_e_ts.write("%f\n" % time.time())
#print("READER: Read %d x chars" % len(data))

          Workspaces:
            Mount Path:  /local
            Name:        read1-ws
    write-read-array-minio-pipeline-run-lmscb-read2-task-lbbm2:
      Pipeline Task Name:  read2-task
      Status:
        Completion Time:  2022-06-30T12:53:19Z
        Conditions:
          Last Transition Time:  2022-06-30T12:53:19Z
          Message:               All Steps have completed executing
          Reason:                Succeeded
          Status:                True
          Type:                  Succeeded
        Pod Name:                write-read-array-minio-pipeline-run-lmscb-read2-task-lbbm-5rfhp
        Start Time:              2022-06-30T12:53:09Z
        Steps:
          Container:  step-read
          Image ID:   docker-pullable://amnestorov/minio@sha256:384d67ba924edbf872ea1c40bac5f0049d5afc6d962e8f83dde8afa622ab1967
          Name:       read
          Terminated:
            Container ID:  docker://e6cb10bd73b2da159a84668281f2ad0de3bbdeb539f43d64bfc841637a6faa71
            Exit Code:     0
            Finished At:   2022-06-30T12:53:18Z
            Reason:        Completed
            Started At:    2022-06-30T12:53:18Z
        Task Spec:
          Steps:
            Image:              amnestorov/minio
            Image Pull Policy:  IfNotPresent
            Name:               read
            Resources:
            Script:  #!/usr/bin/env python3
import time
import os
import subprocess
import sys
import boto3
import io
from botocore.config import Config
# Store initial timestamp
with open("/local/timestamps/shared_minio/3to3/4MB/r2cont_start_ts.txt", 'a+') as fp_rcont_s_ts:
   fp_rcont_s_ts.write("%f\n" % time.time())
session = boto3.session.Session()
config = Config(retries = dict(max_attempts = 50))
s3_client = session.client(
   service_name='s3',
   aws_access_key_id='admin',
   aws_secret_access_key='secretpwd',
   endpoint_url='http://10.0.26.33:9000',
   config=config
)
# Read data object from remote shared storage
data_bin1 = io.BytesIO()
s3_client.download_fileobj(Bucket='data', Key='out1.bin', Fileobj=data_bin1)
data_bin2 = io.BytesIO()
s3_client.download_fileobj(Bucket='data', Key='out2.bin', Fileobj=data_bin2)
data_bin3 = io.BytesIO()
s3_client.download_fileobj(Bucket='data', Key='out3.bin', Fileobj=data_bin3)
# Store final timestamp
with open("/local/timestamps/shared_minio/3to3/4MB/r2cont_end_ts.txt", 'a+') as fp_rcont_e_ts:
   fp_rcont_e_ts.write("%f\n" % time.time())
#print("READER: Read %d x chars" % len(data))

          Workspaces:
            Mount Path:  /local
            Name:        read2-ws
    write-read-array-minio-pipeline-run-lmscb-read3-task-vsn42:
      Pipeline Task Name:  read3-task
      Status:
        Completion Time:  2022-06-30T12:53:17Z
        Conditions:
          Last Transition Time:  2022-06-30T12:53:17Z
          Message:               All Steps have completed executing
          Reason:                Succeeded
          Status:                True
          Type:                  Succeeded
        Pod Name:                write-read-array-minio-pipeline-run-lmscb-read3-task-vsn4-wdfz7
        Start Time:              2022-06-30T12:53:09Z
        Steps:
          Container:  step-read
          Image ID:   docker-pullable://amnestorov/minio@sha256:384d67ba924edbf872ea1c40bac5f0049d5afc6d962e8f83dde8afa622ab1967
          Name:       read
          Terminated:
            Container ID:  docker://37f83cbea99b0a1848072dc80858ee8d2419c82352e8412f45bb2591a2885f61
            Exit Code:     0
            Finished At:   2022-06-30T12:53:16Z
            Reason:        Completed
            Started At:    2022-06-30T12:53:16Z
        Task Spec:
          Steps:
            Image:              amnestorov/minio
            Image Pull Policy:  IfNotPresent
            Name:               read
            Resources:
            Script:  #!/usr/bin/env python3
import time
import os
import subprocess
import sys
import boto3
import io
from botocore.config import Config
# Store initial timestamp
with open("/local/timestamps/shared_minio/3to3/4MB/r3cont_start_ts.txt", 'a+') as fp_rcont_s_ts:
   fp_rcont_s_ts.write("%f\n" % time.time())
session = boto3.session.Session()
config = Config(retries = dict(max_attempts = 50))
s3_client = session.client(
   service_name='s3',
   aws_access_key_id='admin',
   aws_secret_access_key='secretpwd',
   endpoint_url='http://10.0.26.33:9000',
   config=config
)
# Read data object from remote shared storage
data_bin1 = io.BytesIO()
s3_client.download_fileobj(Bucket='data', Key='out1.bin', Fileobj=data_bin1)
data_bin2 = io.BytesIO()
s3_client.download_fileobj(Bucket='data', Key='out2.bin', Fileobj=data_bin2)
data_bin3 = io.BytesIO()
s3_client.download_fileobj(Bucket='data', Key='out3.bin', Fileobj=data_bin3)
# Store final timestamp
with open("/local/timestamps/shared_minio/3to3/4MB/r3cont_end_ts.txt", 'a+') as fp_rcont_e_ts:
   fp_rcont_e_ts.write("%f\n" % time.time())
#print("READER: Read %d x chars" % len(data))

          Workspaces:
            Mount Path:  /local
            Name:        read3-ws
    write-read-array-minio-pipeline-run-lmscb-write1-task-tzjmv:
      Pipeline Task Name:  write1-task
      Status:
        Completion Time:  2022-06-30T12:52:36Z
        Conditions:
          Last Transition Time:  2022-06-30T12:52:36Z
          Message:               All Steps have completed executing
          Reason:                Succeeded
          Status:                True
          Type:                  Succeeded
        Pod Name:                write-read-array-minio-pipeline-run-lmscb-write1-task-tzj-kl57n
        Start Time:              2022-06-30T12:52:24Z
        Steps:
          Container:  step-write
          Image ID:   docker-pullable://amnestorov/minio@sha256:384d67ba924edbf872ea1c40bac5f0049d5afc6d962e8f83dde8afa622ab1967
          Name:       write
          Terminated:
            Container ID:  docker://5949d7f9983573187a4513d03b13d9c5caa68726070289f7fade64b930c6d846
            Exit Code:     0
            Finished At:   2022-06-30T12:52:35Z
            Reason:        Completed
            Started At:    2022-06-30T12:52:35Z
        Task Spec:
          Steps:
            Image:              amnestorov/minio
            Image Pull Policy:  IfNotPresent
            Name:               write
            Resources:
            Script:  #!/usr/bin/env python3
import time
import os 
import subprocess
import sys
import boto3
import botocore
import io
import boto3.s3.transfer as s3transfer
# Store initial timestamp
with open("/local/timestamps/shared_minio/3to3/4MB/w1cont_start_ts.txt", 'a+') as fp_wcont_s_ts:
   fp_wcont_s_ts.write("%f\n" % time.time())
# Create Boto session and client
session = boto3.session.Session()
botocore_config = botocore.config.Config(
   read_timeout=3600,
   connect_timeout=3600,
   retries={"max_attempts": 0},
   max_pool_connections=20
)
s3_client = session.client(
   service_name='s3',
   aws_access_key_id='admin',
   aws_secret_access_key='secretpwd',
   endpoint_url='http://10.0.26.33:9000',
   config=botocore_config
)
transfer_config = s3transfer.TransferConfig(
   use_threads=True,
   max_concurrency=20
)
s3t = s3transfer.create_transfer_manager(s3_client, transfer_config)
# Create data object
bin_data = bytearray(b'\x01') * 4194304
# Store timestamp after data creation 
with open("/local/timestamps/shared_minio/3to3/4MB/w1cont_data_end_ts.txt", 'a+') as fp_wcont_data_ts:
   fp_wcont_data_ts.write("%f\n" % time.time())
# Write data object on minio storage
#s3_client.put_object(Bucket='data', Key='out1.bin', Body=bin_data)
s3t.upload(io.BytesIO(bin_data), 'data', 'out1.bin')
#s3_client.upload_fileobj(io.BytesIO(bin_data), 'data', 'out1.bin',  Config = config)
# Store final timestamp
with open("/local/timestamps/shared_minio/3to3/4MB/w1cont_end_ts.txt", 'a+') as fp_wcont_e_ts:
   fp_wcont_e_ts.write("%f\n" % time.time())
s3t.shutdown()
#print("WRITER: Written out1!")

          Workspaces:
            Mount Path:  /local
            Name:        write1-ws
    write-read-array-minio-pipeline-run-lmscb-write2-task-4mwn8:
      Pipeline Task Name:  write2-task
      Status:
        Completion Time:  2022-06-30T12:52:36Z
        Conditions:
          Last Transition Time:  2022-06-30T12:52:36Z
          Message:               All Steps have completed executing
          Reason:                Succeeded
          Status:                True
          Type:                  Succeeded
        Pod Name:                write-read-array-minio-pipeline-run-lmscb-write2-task-4mw-mqgzw
        Start Time:              2022-06-30T12:52:24Z
        Steps:
          Container:  step-write
          Image ID:   docker-pullable://amnestorov/minio@sha256:384d67ba924edbf872ea1c40bac5f0049d5afc6d962e8f83dde8afa622ab1967
          Name:       write
          Terminated:
            Container ID:  docker://854a8768b14344cf1fb0d0e6ab89fe671f6754f74ae95387c90de4ccc7740d2d
            Exit Code:     0
            Finished At:   2022-06-30T12:52:36Z
            Reason:        Completed
            Started At:    2022-06-30T12:52:35Z
        Task Spec:
          Steps:
            Image:              amnestorov/minio
            Image Pull Policy:  IfNotPresent
            Name:               write
            Resources:
            Script:  #!/usr/bin/env python3
import time
import os 
import subprocess
import sys
import boto3
import botocore
import io
import boto3.s3.transfer as s3transfer
# Store initial timestamp
with open("/local/timestamps/shared_minio/3to3/4MB/w2cont_start_ts.txt", 'a+') as fp_wcont_s_ts:
   fp_wcont_s_ts.write("%f\n" % time.time())
# Create Boto session and client
session = boto3.session.Session()
botocore_config = botocore.config.Config(
   read_timeout=3600,
   connect_timeout=3600,
   retries={"max_attempts": 0},
   max_pool_connections=20
)
s3_client = session.client(
   service_name='s3',
   aws_access_key_id='admin',
   aws_secret_access_key='secretpwd',
   endpoint_url='http://10.0.26.33:9000',
   config=botocore_config
)
transfer_config = s3transfer.TransferConfig(
   use_threads=True,
   max_concurrency=20
)
s3t = s3transfer.create_transfer_manager(s3_client, transfer_config)
# Create data object
bin_data = bytearray(b'\x01') * 4194304
# Store timestamp after data creation 
with open("/local/timestamps/shared_minio/3to3/4MB/w2cont_data_end_ts.txt", 'a+') as fp_wcont_data_ts:
   fp_wcont_data_ts.write("%f\n" % time.time())
# Write data object on minio storage
#s3_client.put_object(Bucket='data', Key='out2.bin', Body=bin_data)
s3t.upload(io.BytesIO(bin_data), 'data', 'out2.bin')
#s3_client.upload_fileobj(io.BytesIO(bin_data), 'data', 'out2.bin',  Config = config)
# Store final timestamp
with open("/local/timestamps/shared_minio/3to3/4MB/w2cont_end_ts.txt", 'a+') as fp_wcont_e_ts:
   fp_wcont_e_ts.write("%f\n" % time.time())
s3t.shutdown()
#print("WRITER: Written out1!")

          Workspaces:
            Mount Path:  /local
            Name:        write2-ws
    write-read-array-minio-pipeline-run-lmscb-write3-task-h724r:
      Pipeline Task Name:  write3-task
      Status:
        Completion Time:  2022-06-30T12:53:09Z
        Conditions:
          Last Transition Time:  2022-06-30T12:53:09Z
          Message:               All Steps have completed executing
          Reason:                Succeeded
          Status:                True
          Type:                  Succeeded
        Pod Name:                write-read-array-minio-pipeline-run-lmscb-write3-task-h72-vbx79
        Start Time:              2022-06-30T12:52:24Z
        Steps:
          Container:  step-write
          Image ID:   docker-pullable://amnestorov/minio@sha256:384d67ba924edbf872ea1c40bac5f0049d5afc6d962e8f83dde8afa622ab1967
          Name:       write
          Terminated:
            Container ID:  docker://53f7755a298cee8134c3deb5e842368b9717ac0193ff09d804ff04b2ff858870
            Exit Code:     0
            Finished At:   2022-06-30T12:53:01Z
            Reason:        Completed
            Started At:    2022-06-30T12:52:59Z
        Task Spec:
          Steps:
            Image:              amnestorov/minio
            Image Pull Policy:  IfNotPresent
            Name:               write
            Resources:
            Script:  #!/usr/bin/env python3
import time
import os 
import subprocess
import sys
import boto3
import botocore
import io
import boto3.s3.transfer as s3transfer
# Store initial timestamp
with open("/local/timestamps/shared_minio/3to3/4MB/w3cont_start_ts.txt", 'a+') as fp_wcont_s_ts:
   fp_wcont_s_ts.write("%f\n" % time.time())
# Create Boto session and client
session = boto3.session.Session()
botocore_config = botocore.config.Config(
   read_timeout=3600,
   connect_timeout=3600,
   retries={"max_attempts": 0},
   max_pool_connections=20
)
s3_client = session.client(
   service_name='s3',
   aws_access_key_id='admin',
   aws_secret_access_key='secretpwd',
   endpoint_url='http://10.0.26.33:9000',
   config=botocore_config
)
transfer_config = s3transfer.TransferConfig(
   use_threads=True,
   max_concurrency=20
)
s3t = s3transfer.create_transfer_manager(s3_client, transfer_config)
# Create data object
bin_data = bytearray(b'\x01') * 4194304
# Store timestamp after data creation 
with open("/local/timestamps/shared_minio/3to3/4MB/w3cont_data_end_ts.txt", 'a+') as fp_wcont_data_ts:
   fp_wcont_data_ts.write("%f\n" % time.time())
# Write data object on minio storage
#s3_client.put_object(Bucket='data', Key='out3.bin', Body=bin_data)
s3t.upload(io.BytesIO(bin_data), 'data', 'out3.bin')
#s3_client.upload_fileobj(io.BytesIO(bin_data), 'data', 'out3.bin',  Config = config)
# Store final timestamp
with open("/local/timestamps/shared_minio/3to3/4MB/w3cont_end_ts.txt", 'a+') as fp_wcont_e_ts:
   fp_wcont_e_ts.write("%f\n" % time.time())
s3t.shutdown()
#print("WRITER: Written out1!")

          Workspaces:
            Mount Path:  /local
            Name:        write3-ws
Events:
  Type    Reason     Age   From         Message
  ----    ------     ----  ----         -------
  Normal  Started    62s   PipelineRun  
  Normal  Running    62s   PipelineRun  Tasks Completed: 0 (Failed: 0, Cancelled 0), Incomplete: 6, Skipped: 0
  Normal  Running    49s   PipelineRun  Tasks Completed: 1 (Failed: 0, Cancelled 0), Incomplete: 5, Skipped: 0
  Normal  Running    48s   PipelineRun  Tasks Completed: 2 (Failed: 0, Cancelled 0), Incomplete: 4, Skipped: 0
  Normal  Running    16s   PipelineRun  Tasks Completed: 3 (Failed: 0, Cancelled 0), Incomplete: 3, Skipped: 0
  Normal  Running    8s    PipelineRun  Tasks Completed: 4 (Failed: 0, Cancelled 0), Incomplete: 2, Skipped: 0
  Normal  Running    8s    PipelineRun  Tasks Completed: 5 (Failed: 0, Cancelled 0), Incomplete: 1, Skipped: 0
  Normal  Succeeded  6s    PipelineRun  Tasks Completed: 6 (Failed: 0, Cancelled 0), Skipped: 0
