1646354271.520681
1646354278.339198
1646354285.122473
1646354291.946557
1646354298.207985
1646354305.584592
1646354312.112169
1646354319.660600
1646354327.269050
1646354334.010680
1646354342.947043
1646354349.570561
1646354356.210518
1646354362.899458
1646354370.239990
1646354377.448446
1646354384.207541
1646354391.244422
1646354397.974839
1646354405.329000
1646354412.267917
1646354419.231181
1646354425.787475
1646354432.316906
1646354439.919993
1646354446.776520
1646354453.919478
1646354461.661413
1646354469.395032
1646354475.716956
1646354482.990093
1646354489.783502
1646354496.939321
1646354505.000863
1646354512.180468
1646354520.290187
1646354527.122996
1646354534.654478
1646354541.894427
1646354548.726069
1646354555.409235
1646354562.572953
1646354570.029962
1646354577.317439
1646354584.491267
1646354591.270978
1646354598.845710
1646354607.105403
1646354615.685472
1646354622.418896
1646354628.645357
1646354636.104344
1646354642.652389
1646354650.462470
1646354658.324375
1646354666.870744
1646354674.705644
1646354681.990153
1646354688.678103
1646354695.815322
1646354704.044080
1646354711.118530
1646354719.354005
1646354726.701069
1646354734.718179
1646354741.985647
1646354750.654665
1646354757.602025
1646354764.951448
1646354771.698037
1646354778.435420
1646354785.149279
1646354791.951452
1646354799.579090
1646354806.305255
1646354813.047650
1646354819.685705
1646354826.458697
1646354833.724929
1646354840.600157
1646354847.454391
1646354854.255069
1646354862.422808
1646354869.573361
1646354875.978123
1646354882.941040
1646354890.408380
1646354899.320921
1646354906.071667
1646354913.599263
1646354920.831800
1646354928.070906
1646354935.639058
1646354942.905969
1646354950.095234
1646354958.173038
1646354964.950497
1646354972.618774
1646354979.903679
1646354986.750884
