1646354264.335246
1646354271.126628
1646354277.956299
1646354285.405508
1646354292.240534
1646354298.512167
1646354305.191694
1646354311.729599
1646354319.945663
1646354327.566158
1646354334.318626
1646354342.559605
1646354349.849368
1646354356.500080
1646354363.199563
1646354369.842622
1646354377.062539
1646354384.487571
1646354391.536275
1646354398.277681
1646354404.933886
1646354411.883894
1646354419.513591
1646354426.080599
1646354432.620501
1646354439.526177
1646354446.394107
1646354454.203989
1646354461.958126
1646354468.994548
1646354475.327061
1646354483.266479
1646354490.071611
1646354497.238678
1646354504.603779
1646354511.794744
1646354520.578405
1646354527.421904
1646354534.256403
1646354541.508024
1646354549.011102
1646354555.704804
1646354562.879667
1646354569.639166
1646354576.938925
1646354584.779431
1646354591.569913
1646354599.157252
1646354606.720333
1646354615.969609
1646354622.714207
1646354628.950422
1646354635.712335
1646354642.270377
1646354650.747631
1646354658.622961
1646354666.473864
1646354674.321144
1646354682.272647
1646354688.971834
1646354696.120813
1646354703.652581
1646354710.739192
1646354719.642922
1646354727.002048
1646354734.322151
1646354741.601361
1646354750.939522
1646354757.897606
1646354764.550107
1646354771.307828
1646354778.711254
1646354785.436021
1646354792.249128
1646354799.178320
1646354805.916747
1646354813.324792
1646354819.973588
1646354826.757404
1646354833.325694
1646354840.212660
1646354847.732622
1646354854.544889
1646354862.725925
1646354869.178224
1646354875.593475
1646354883.227451
1646354890.706925
1646354898.924851
1646354905.685956
1646354913.886235
1646354921.130310
1646354928.380800
1646354935.251602
1646354943.185046
1646354950.386995
1646354958.478029
1646354964.556759
1646354972.237125
1646354980.189002
