1646392271.283736
1646392281.332702
1646392294.574236
1646392308.812873
1646392320.920386
1646392329.229802
1646392337.055510
1646392346.874895
1646392355.470142
1646392364.026877
1646392373.473115
1646392385.249780
1646392399.780912
1646392409.782239
1646392419.618367
1646392427.843374
1646392436.094813
1646392443.379793
1646392450.166180
1646392459.989467
1646392471.878803
1646392487.467423
1646392497.184599
1646392506.967215
1646392518.776765
1646392528.626995
1646392538.858465
1646392550.215631
1646392559.727560
1646392567.833743
1646392575.946590
1646392586.759890
1646392599.682298
1646392608.659125
1646392621.445419
1646392629.261950
1646392639.702305
1646392649.679400
1646392659.292340
1646392671.601403
1646392682.754652
1646392689.871125
1646392700.637712
1646392713.456827
1646392725.920863
1646392740.878295
1646392752.440625
1646392763.551225
1646392772.558962
1646392783.240301
1646392794.287960
1646392802.324714
1646392812.238474
1646392820.976700
1646392830.391125
1646392839.767325
1646392849.369722
1646392858.196991
1646392867.079401
1646392877.608457
1646392888.385240
1646392897.293738
1646392907.817646
1646392917.604569
1646392925.770554
1646392935.020831
1646392945.463666
1646392956.779642
1646392967.318216
1646392981.322488
1646392991.384018
1646393002.035977
1646393010.997969
1646393021.847577
1646393031.899917
1646393041.962432
1646393053.523966
1646393069.778609
1646393085.628568
1646393097.569716
1646393107.941267
1646393117.869035
1646393130.103150
1646393141.117518
1646393150.806911
1646393163.263477
1646393173.375148
1646393182.349993
1646393190.790772
1646393201.207520
1646393211.748901
1646393221.872122
1646393229.941708
1646393236.026200
1646393244.025433
1646393253.844451
1646393260.836685
1646393270.656280
1646393281.722026
1646393290.328787
