1645913058.523923
1645913062.506277
1645913066.488380
1645913070.447337
1645913074.401469
1645913078.466545
1645913083.121441
1645913087.174519
1645913091.226826
1645913095.340209
1645913099.598291
1645913103.898539
1645913108.038237
1645913112.210814
1645913116.929332
1645913121.022089
1645913125.190607
1645913132.995483
1645913137.206548
1645913141.338729
1645913145.471452
1645913152.197035
1645913156.411794
1645913160.180799
1645913164.644452
1645913169.678947
1645913173.612296
1645913177.616341
1645913182.396029
1645913186.561726
1645913191.130320
1645913195.284984
1645913199.303304
1645913203.314709
1645913207.371746
1645913211.605232
1645913216.435446
1645913220.645543
1645913224.843550
1645913229.051663
1645913233.188451
1645913237.353791
1645913241.566673
1645913246.327200
1645913250.518312
1645913254.571912
1645913258.593850
1645913262.535167
1645913266.601368
1645913270.700643
1645913275.924833
1645913280.776462
1645913284.668542
1645913288.840968
1645913292.887775
1645913296.938218
1645913301.052600
1645913305.335501
1645913309.450272
1645913316.076607
1645913320.249481
1645913324.330906
1645913328.436023
1645913333.170569
1645913337.448862
1645913341.667478
1645913346.574418
1645913351.012889
1645913355.294215
1645913359.283568
1645913363.363097
1645913367.466468
1645913371.504385
1645913375.618025
1645913380.380833
1645913384.423951
1645913388.340969
1645913392.358596
1645913396.480926
1645913400.572325
1645913404.691564
1645913408.607491
1645913413.689124
1645913417.847277
1645913422.502375
1645913426.940641
1645913431.405596
1645913435.718771
1645913440.398332
1645913445.002914
1645913448.996105
1645913453.084415
1645913457.617766
1645913461.512621
1645913465.615228
1645913469.931388
1645913474.178036
1645913479.016878
1645913484.238187
1645913488.232744
