Name:         write-read-array-pipeline-run-qscx8
Namespace:    default
Labels:       tekton.dev/pipeline=write-read-array-pipeline
Annotations:  <none>
API Version:  tekton.dev/v1beta1
Kind:         PipelineRun
Metadata:
  Creation Timestamp:  2022-03-16T09:39:54Z
  Generate Name:       write-read-array-pipeline-run-
  Generation:          1
  Managed Fields:
    API Version:  tekton.dev/v1beta1
    Fields Type:  FieldsV1
    fieldsV1:
      f:metadata:
        f:generateName:
      f:spec:
        .:
        f:pipelineRef:
          .:
          f:name:
        f:taskRunSpecs:
        f:workspaces:
    Manager:      kubectl-create
    Operation:    Update
    Time:         2022-03-16T09:39:54Z
    API Version:  tekton.dev/v1beta1
    Fields Type:  FieldsV1
    fieldsV1:
      f:metadata:
        f:annotations:
          .:
          f:kubectl.kubernetes.io/last-applied-configuration:
        f:labels:
          .:
          f:tekton.dev/pipeline:
      f:status:
        .:
        f:completionTime:
        f:conditions:
        f:pipelineSpec:
          .:
          f:tasks:
          f:workspaces:
        f:startTime:
        f:taskRuns:
          .:
          f:write-read-array-pipeline-run-qscx8-read1-task-qtb5r:
            .:
            f:pipelineTaskName:
            f:status:
              .:
              f:completionTime:
              f:conditions:
              f:podName:
              f:startTime:
              f:steps:
              f:taskSpec:
                .:
                f:steps:
                f:workspaces:
          f:write-read-array-pipeline-run-qscx8-write1-task-mx8jx:
            .:
            f:pipelineTaskName:
            f:status:
              .:
              f:completionTime:
              f:conditions:
              f:podName:
              f:startTime:
              f:steps:
              f:taskSpec:
                .:
                f:steps:
                f:workspaces:
          f:write-read-array-pipeline-run-qscx8-write2-task-88gfl:
            .:
            f:pipelineTaskName:
            f:status:
              .:
              f:completionTime:
              f:conditions:
              f:podName:
              f:startTime:
              f:steps:
              f:taskSpec:
                .:
                f:steps:
                f:workspaces:
          f:write-read-array-pipeline-run-qscx8-write3-task-h7zzx:
            .:
            f:pipelineTaskName:
            f:status:
              .:
              f:completionTime:
              f:conditions:
              f:podName:
              f:startTime:
              f:steps:
              f:taskSpec:
                .:
                f:steps:
                f:workspaces:
          f:write-read-array-pipeline-run-qscx8-write4-task-hb7tf:
            .:
            f:pipelineTaskName:
            f:status:
              .:
              f:completionTime:
              f:conditions:
              f:podName:
              f:startTime:
              f:steps:
              f:taskSpec:
                .:
                f:steps:
                f:workspaces:
          f:write-read-array-pipeline-run-qscx8-write5-task-p7krp:
            .:
            f:pipelineTaskName:
            f:status:
              .:
              f:completionTime:
              f:conditions:
              f:podName:
              f:startTime:
              f:steps:
              f:taskSpec:
                .:
                f:steps:
                f:workspaces:
          f:write-read-array-pipeline-run-qscx8-write6-task-r8vjk:
            .:
            f:pipelineTaskName:
            f:status:
              .:
              f:completionTime:
              f:conditions:
              f:podName:
              f:startTime:
              f:steps:
              f:taskSpec:
                .:
                f:steps:
                f:workspaces:
    Manager:         controller
    Operation:       Update
    Time:            2022-03-16T09:40:16Z
  Resource Version:  24394989
  Self Link:         /apis/tekton.dev/v1beta1/namespaces/default/pipelineruns/write-read-array-pipeline-run-qscx8
  UID:               318b1f4f-8220-4a90-acc7-a747b7527673
Spec:
  Pipeline Ref:
    Name:                write-read-array-pipeline
  Service Account Name:  default
  Task Run Specs:
    Pipeline Task Name:  write1-task
    Task Pod Template:
      Node Selector:
        kubernetes.io/hostname:  k8s-worker-node1
    Pipeline Task Name:          write2-task
    Task Pod Template:
      Node Selector:
        kubernetes.io/hostname:  k8s-worker-node2
    Pipeline Task Name:          write3-task
    Task Pod Template:
      Node Selector:
        kubernetes.io/hostname:  k8s-worker-node3
    Pipeline Task Name:          write4-task
    Task Pod Template:
      Node Selector:
        kubernetes.io/hostname:  k8s-worker-node4
    Pipeline Task Name:          write5-task
    Task Pod Template:
      Node Selector:
        kubernetes.io/hostname:  k8s-worker-node5
    Pipeline Task Name:          write6-task
    Task Pod Template:
      Node Selector:
        kubernetes.io/hostname:  k8s-worker-node6
    Pipeline Task Name:          read1-task
    Task Pod Template:
      Node Selector:
        kubernetes.io/hostname:  k8s-worker-node7
  Timeout:                       1h0m0s
  Workspaces:
    Name:  shared-vol-ws
    Volume Claim Template:
      Metadata:
        Creation Timestamp:  <nil>
      Spec:
        Access Modes:
          ReadWriteMany
        Resources:
          Requests:
            Storage:  50Gi
      Status:
    Name:  task-write1-ws
    Persistent Volume Claim:
      Claim Name:  task1-pv-claim
    Name:          task-write2-ws
    Persistent Volume Claim:
      Claim Name:  task2-pv-claim
    Name:          task-write3-ws
    Persistent Volume Claim:
      Claim Name:  task3-pv-claim
    Name:          task-write4-ws
    Persistent Volume Claim:
      Claim Name:  task4-pv-claim
    Name:          task-write5-ws
    Persistent Volume Claim:
      Claim Name:  task5-pv-claim
    Name:          task-write6-ws
    Persistent Volume Claim:
      Claim Name:  task6-pv-claim
    Name:          task-read1-ws
    Persistent Volume Claim:
      Claim Name:  task7-pv-claim
Status:
  Completion Time:  2022-03-16T09:40:16Z
  Conditions:
    Last Transition Time:  2022-03-16T09:40:16Z
    Message:               Tasks Completed: 7 (Failed: 0, Cancelled 0), Skipped: 0
    Reason:                Succeeded
    Status:                True
    Type:                  Succeeded
  Pipeline Spec:
    Tasks:
      Name:  write1-task
      Task Ref:
        Kind:  Task
        Name:  write1
      Workspaces:
        Name:       write1-shared-ws
        Workspace:  shared-vol-ws
        Name:       write1-ws
        Workspace:  task-write1-ws
      Name:         write2-task
      Task Ref:
        Kind:  Task
        Name:  write2
      Workspaces:
        Name:       write2-shared-ws
        Workspace:  shared-vol-ws
        Name:       write2-ws
        Workspace:  task-write2-ws
      Name:         write3-task
      Task Ref:
        Kind:  Task
        Name:  write3
      Workspaces:
        Name:       write3-shared-ws
        Workspace:  shared-vol-ws
        Name:       write3-ws
        Workspace:  task-write3-ws
      Name:         write4-task
      Task Ref:
        Kind:  Task
        Name:  write4
      Workspaces:
        Name:       write4-shared-ws
        Workspace:  shared-vol-ws
        Name:       write4-ws
        Workspace:  task-write4-ws
      Name:         write5-task
      Task Ref:
        Kind:  Task
        Name:  write5
      Workspaces:
        Name:       write5-shared-ws
        Workspace:  shared-vol-ws
        Name:       write5-ws
        Workspace:  task-write5-ws
      Name:         write6-task
      Task Ref:
        Kind:  Task
        Name:  write6
      Workspaces:
        Name:       write6-shared-ws
        Workspace:  shared-vol-ws
        Name:       write6-ws
        Workspace:  task-write6-ws
      Name:         read1-task
      Run After:
        write1-task
        write2-task
        write3-task
        write4-task
        write5-task
        write6-task
      Task Ref:
        Kind:  Task
        Name:  read1
      Workspaces:
        Name:       read1-shared-ws
        Workspace:  shared-vol-ws
        Name:       read1-ws
        Workspace:  task-read1-ws
    Workspaces:
      Name:    shared-vol-ws
      Name:    task-write1-ws
      Name:    task-write2-ws
      Name:    task-write3-ws
      Name:    task-write4-ws
      Name:    task-write5-ws
      Name:    task-write6-ws
      Name:    task-read1-ws
  Start Time:  2022-03-16T09:39:54Z
  Task Runs:
    write-read-array-pipeline-run-qscx8-read1-task-qtb5r:
      Pipeline Task Name:  read1-task
      Status:
        Completion Time:  2022-03-16T09:40:15Z
        Conditions:
          Last Transition Time:  2022-03-16T09:40:15Z
          Message:               All Steps have completed executing
          Reason:                Succeeded
          Status:                True
          Type:                  Succeeded
        Pod Name:                write-read-array-pipeline-run-qscx8-read1-task-qtb5r-pod-q8jfl
        Start Time:              2022-03-16T09:40:06Z
        Steps:
          Container:  step-read
          Image ID:   docker-pullable://jupyter/scipy-notebook@sha256:87b339ec6a62b283d0c2aee1446e7bc2e5ad03a80d49d2dfddb031b233aedd29
          Name:       read
          Terminated:
            Container ID:  docker://560c320d88b904ba84ba10e19563527a780494017fc3f031408a266d23f65ab6
            Exit Code:     0
            Finished At:   2022-03-16T09:40:14Z
            Reason:        Completed
            Started At:    2022-03-16T09:40:12Z
        Task Spec:
          Steps:
            Image:              jupyter/scipy-notebook
            Image Pull Policy:  IfNotPresent
            Name:               read
            Resources:
            Script:  #!/usr/bin/env python3
import time
import gc
# Store initial timestamp
with open("/timestamps/shared/6to1/32MB/r1cont_start_ts.txt", 'a+') as fp_rcont_s_ts:
   fp_rcont_s_ts.write("%f\n" % time.time())
# Read data object from remote shared storage
with open("/data/out1.txt", "r") as fp_data:
   data = fp_data.read()
   del data
   gc.collect()
with open("/data/out2.txt", "r") as fp_data:
   data = fp_data.read()
   del data
   gc.collect()
with open("/data/out3.txt", "r") as fp_data:
   data = fp_data.read()
   del data
   gc.collect()
with open("/data/out4.txt", "r") as fp_data:
   data = fp_data.read()
   del data
   gc.collect()
with open("/data/out5.txt", "r") as fp_data:
   data = fp_data.read()
   del data
   gc.collect()
with open("/data/out6.txt", "r") as fp_data:
   data = fp_data.read()
   del data
   gc.collect()
# Store final timestamp
with open("/timestamps/shared/6to1/32MB/r1cont_end_ts.txt", 'a+') as fp_rcont_e_ts:
   fp_rcont_e_ts.write("%f\n" % time.time())
#print("READER: Read %d x chars" % len(data))

          Workspaces:
            Mount Path:  /data
            Name:        read1-shared-ws
            Mount Path:  /timestamps
            Name:        read1-ws
    write-read-array-pipeline-run-qscx8-write1-task-mx8jx:
      Pipeline Task Name:  write1-task
      Status:
        Completion Time:  2022-03-16T09:40:05Z
        Conditions:
          Last Transition Time:  2022-03-16T09:40:05Z
          Message:               All Steps have completed executing
          Reason:                Succeeded
          Status:                True
          Type:                  Succeeded
        Pod Name:                write-read-array-pipeline-run-qscx8-write1-task-mx8jx-pod-vzvkv
        Start Time:              2022-03-16T09:39:54Z
        Steps:
          Container:  step-write
          Image ID:   docker-pullable://jupyter/scipy-notebook@sha256:87b339ec6a62b283d0c2aee1446e7bc2e5ad03a80d49d2dfddb031b233aedd29
          Name:       write
          Terminated:
            Container ID:  docker://bddbbd488664fff1a74b8415f256f0830750a67d982ad7b053021f145978883e
            Exit Code:     0
            Finished At:   2022-03-16T09:40:04Z
            Reason:        Completed
            Started At:    2022-03-16T09:40:04Z
        Task Spec:
          Steps:
            Image:              jupyter/scipy-notebook
            Image Pull Policy:  IfNotPresent
            Name:               write
            Resources:
            Script:  #!/usr/bin/env python3
import time
# Store initial timestamp
with open("/timestamps/shared/6to1/32MB/w1cont_start_ts.txt", 'a+') as fp_wcont_s_ts:
   fp_wcont_s_ts.write("%f\n" % time.time()) 
# Create data object
string = 'x' * 33554432
# Store timestamp after data creation 
with open("/timestamps/shared/6to1/32MB/w1cont_data_end_ts.txt", 'a+') as fp_wcont_data_ts:
   fp_wcont_data_ts.write("%f\n" % time.time())
# Write data object on the remote shared storage
with open("/data/out1.txt", 'w') as fp_data:
   fp_data.write("%s" % string)
# Store final timestamp
with open("/timestamps/shared/6to1/32MB/w1cont_end_ts.txt", 'a+') as fp_wcont_e_ts:
   fp_wcont_e_ts.write("%f\n" % time.time())
#print("WRITER: Written out1!")

          Workspaces:
            Mount Path:  /data
            Name:        write1-shared-ws
            Mount Path:  /timestamps
            Name:        write1-ws
    write-read-array-pipeline-run-qscx8-write2-task-88gfl:
      Pipeline Task Name:  write2-task
      Status:
        Completion Time:  2022-03-16T09:40:04Z
        Conditions:
          Last Transition Time:  2022-03-16T09:40:04Z
          Message:               All Steps have completed executing
          Reason:                Succeeded
          Status:                True
          Type:                  Succeeded
        Pod Name:                write-read-array-pipeline-run-qscx8-write2-task-88gfl-pod-rgsvt
        Start Time:              2022-03-16T09:39:54Z
        Steps:
          Container:  step-write
          Image ID:   docker-pullable://jupyter/scipy-notebook@sha256:87b339ec6a62b283d0c2aee1446e7bc2e5ad03a80d49d2dfddb031b233aedd29
          Name:       write
          Terminated:
            Container ID:  docker://6ecd9c13bb9280cd063e8a6473d1e8ea9db7c6042d8c78470a1cefb0bcea2afc
            Exit Code:     0
            Finished At:   2022-03-16T09:40:03Z
            Reason:        Completed
            Started At:    2022-03-16T09:40:02Z
        Task Spec:
          Steps:
            Image:              jupyter/scipy-notebook
            Image Pull Policy:  IfNotPresent
            Name:               write
            Resources:
            Script:  #!/usr/bin/env python3
import time
# Store initial timestamp
with open("/timestamps/shared/6to1/32MB/w2cont_start_ts.txt", 'a+') as fp_wcont_s_ts:
   fp_wcont_s_ts.write("%f\n" % time.time()) 
# Create data object
string = 'x' * 33554432
# Store timestamp after data creation 
with open("/timestamps/shared/6to1/32MB/w2cont_data_end_ts.txt", 'a+') as fp_wcont_data_ts:
   fp_wcont_data_ts.write("%f\n" % time.time())
# Write data object on the remote shared storage
with open("/data/out2.txt", 'w') as fp_data:
   fp_data.write("%s" % string)
# Store final timestamp
with open("/timestamps/shared/6to1/32MB/w2cont_end_ts.txt", 'a+') as fp_wcont_e_ts:
   fp_wcont_e_ts.write("%f\n" % time.time())
#print("WRITER: Written out1!")

          Workspaces:
            Mount Path:  /data
            Name:        write2-shared-ws
            Mount Path:  /timestamps
            Name:        write2-ws
    write-read-array-pipeline-run-qscx8-write3-task-h7zzx:
      Pipeline Task Name:  write3-task
      Status:
        Completion Time:  2022-03-16T09:40:05Z
        Conditions:
          Last Transition Time:  2022-03-16T09:40:05Z
          Message:               All Steps have completed executing
          Reason:                Succeeded
          Status:                True
          Type:                  Succeeded
        Pod Name:                write-read-array-pipeline-run-qscx8-write3-task-h7zzx-pod-wlzfp
        Start Time:              2022-03-16T09:39:54Z
        Steps:
          Container:  step-write
          Image ID:   docker-pullable://jupyter/scipy-notebook@sha256:87b339ec6a62b283d0c2aee1446e7bc2e5ad03a80d49d2dfddb031b233aedd29
          Name:       write
          Terminated:
            Container ID:  docker://06816d1a7bc3fff3bdaeef71eba9064bb86fe1d799d4fb2e466fe16b0a43e7f2
            Exit Code:     0
            Finished At:   2022-03-16T09:40:05Z
            Reason:        Completed
            Started At:    2022-03-16T09:40:04Z
        Task Spec:
          Steps:
            Image:              jupyter/scipy-notebook
            Image Pull Policy:  IfNotPresent
            Name:               write
            Resources:
            Script:  #!/usr/bin/env python3
import time
# Store initial timestamp
with open("/timestamps/shared/6to1/32MB/w3cont_start_ts.txt", 'a+') as fp_wcont_s_ts:
   fp_wcont_s_ts.write("%f\n" % time.time()) 
# Create data object
string = 'x' * 33554432
# Store timestamp after data creation 
with open("/timestamps/shared/6to1/32MB/w3cont_data_end_ts.txt", 'a+') as fp_wcont_data_ts:
   fp_wcont_data_ts.write("%f\n" % time.time())
# Write data object on the remote shared storage
with open("/data/out3.txt", 'w') as fp_data:
   fp_data.write("%s" % string)
# Store final timestamp
with open("/timestamps/shared/6to1/32MB/w3cont_end_ts.txt", 'a+') as fp_wcont_e_ts:
   fp_wcont_e_ts.write("%f\n" % time.time())
#print("WRITER: Written out1!")

          Workspaces:
            Mount Path:  /data
            Name:        write3-shared-ws
            Mount Path:  /timestamps
            Name:        write3-ws
    write-read-array-pipeline-run-qscx8-write4-task-hb7tf:
      Pipeline Task Name:  write4-task
      Status:
        Completion Time:  2022-03-16T09:40:04Z
        Conditions:
          Last Transition Time:  2022-03-16T09:40:04Z
          Message:               All Steps have completed executing
          Reason:                Succeeded
          Status:                True
          Type:                  Succeeded
        Pod Name:                write-read-array-pipeline-run-qscx8-write4-task-hb7tf-pod-7nws7
        Start Time:              2022-03-16T09:39:54Z
        Steps:
          Container:  step-write
          Image ID:   docker-pullable://jupyter/scipy-notebook@sha256:87b339ec6a62b283d0c2aee1446e7bc2e5ad03a80d49d2dfddb031b233aedd29
          Name:       write
          Terminated:
            Container ID:  docker://6b466d03a465732424dbe8b2bec26e32d9df19002ba9f2da27b22b68656fd88b
            Exit Code:     0
            Finished At:   2022-03-16T09:40:04Z
            Reason:        Completed
            Started At:    2022-03-16T09:40:04Z
        Task Spec:
          Steps:
            Image:              jupyter/scipy-notebook
            Image Pull Policy:  IfNotPresent
            Name:               write
            Resources:
            Script:  #!/usr/bin/env python3
import time
# Store initial timestamp
with open("/timestamps/shared/6to1/32MB/w4cont_start_ts.txt", 'a+') as fp_wcont_s_ts:
   fp_wcont_s_ts.write("%f\n" % time.time()) 
# Create data object
string = 'x' * 33554432
# Store timestamp after data creation 
with open("/timestamps/shared/6to1/32MB/w4cont_data_end_ts.txt", 'a+') as fp_wcont_data_ts:
   fp_wcont_data_ts.write("%f\n" % time.time())
# Write data object on the remote shared storage
with open("/data/out4.txt", 'w') as fp_data:
   fp_data.write("%s" % string)
# Store final timestamp
with open("/timestamps/shared/6to1/32MB/w4cont_end_ts.txt", 'a+') as fp_wcont_e_ts:
   fp_wcont_e_ts.write("%f\n" % time.time())
#print("WRITER: Written out1!")

          Workspaces:
            Mount Path:  /data
            Name:        write4-shared-ws
            Mount Path:  /timestamps
            Name:        write4-ws
    write-read-array-pipeline-run-qscx8-write5-task-p7krp:
      Pipeline Task Name:  write5-task
      Status:
        Completion Time:  2022-03-16T09:40:04Z
        Conditions:
          Last Transition Time:  2022-03-16T09:40:04Z
          Message:               All Steps have completed executing
          Reason:                Succeeded
          Status:                True
          Type:                  Succeeded
        Pod Name:                write-read-array-pipeline-run-qscx8-write5-task-p7krp-pod-9vpb5
        Start Time:              2022-03-16T09:39:55Z
        Steps:
          Container:  step-write
          Image ID:   docker-pullable://jupyter/scipy-notebook@sha256:87b339ec6a62b283d0c2aee1446e7bc2e5ad03a80d49d2dfddb031b233aedd29
          Name:       write
          Terminated:
            Container ID:  docker://d263ceb14f267958273c7d28c497e6861f215e32c8d6cfac183424229be228cc
            Exit Code:     0
            Finished At:   2022-03-16T09:40:04Z
            Reason:        Completed
            Started At:    2022-03-16T09:40:03Z
        Task Spec:
          Steps:
            Image:              jupyter/scipy-notebook
            Image Pull Policy:  IfNotPresent
            Name:               write
            Resources:
            Script:  #!/usr/bin/env python3
import time
# Store initial timestamp
with open("/timestamps/shared/6to1/32MB/w5cont_start_ts.txt", 'a+') as fp_wcont_s_ts:
   fp_wcont_s_ts.write("%f\n" % time.time()) 
# Create data object
string = 'x' * 33554432
# Store timestamp after data creation 
with open("/timestamps/shared/6to1/32MB/w5cont_data_end_ts.txt", 'a+') as fp_wcont_data_ts:
   fp_wcont_data_ts.write("%f\n" % time.time())
# Write data object on the remote shared storage
with open("/data/out5.txt", 'w') as fp_data:
   fp_data.write("%s" % string)
# Store final timestamp
with open("/timestamps/shared/6to1/32MB/w5cont_end_ts.txt", 'a+') as fp_wcont_e_ts:
   fp_wcont_e_ts.write("%f\n" % time.time())
#print("WRITER: Written out1!")

          Workspaces:
            Mount Path:  /data
            Name:        write5-shared-ws
            Mount Path:  /timestamps
            Name:        write5-ws
    write-read-array-pipeline-run-qscx8-write6-task-r8vjk:
      Pipeline Task Name:  write6-task
      Status:
        Completion Time:  2022-03-16T09:40:05Z
        Conditions:
          Last Transition Time:  2022-03-16T09:40:05Z
          Message:               All Steps have completed executing
          Reason:                Succeeded
          Status:                True
          Type:                  Succeeded
        Pod Name:                write-read-array-pipeline-run-qscx8-write6-task-r8vjk-pod-trls4
        Start Time:              2022-03-16T09:39:55Z
        Steps:
          Container:  step-write
          Image ID:   docker-pullable://jupyter/scipy-notebook@sha256:87b339ec6a62b283d0c2aee1446e7bc2e5ad03a80d49d2dfddb031b233aedd29
          Name:       write
          Terminated:
            Container ID:  docker://599a2fe91fa4ae2ca845f18421c2f69a32b959391f0fce7a96e38029d4f8d597
            Exit Code:     0
            Finished At:   2022-03-16T09:40:04Z
            Reason:        Completed
            Started At:    2022-03-16T09:40:03Z
        Task Spec:
          Steps:
            Image:              jupyter/scipy-notebook
            Image Pull Policy:  IfNotPresent
            Name:               write
            Resources:
            Script:  #!/usr/bin/env python3
import time
# Store initial timestamp
with open("/timestamps/shared/6to1/32MB/w6cont_start_ts.txt", 'a+') as fp_wcont_s_ts:
   fp_wcont_s_ts.write("%f\n" % time.time()) 
# Create data object
string = 'x' * 33554432
# Store timestamp after data creation 
with open("/timestamps/shared/6to1/32MB/w6cont_data_end_ts.txt", 'a+') as fp_wcont_data_ts:
   fp_wcont_data_ts.write("%f\n" % time.time())
# Write data object on the remote shared storage
with open("/data/out6.txt", 'w') as fp_data:
   fp_data.write("%s" % string)
# Store final timestamp
with open("/timestamps/shared/6to1/32MB/w6cont_end_ts.txt", 'a+') as fp_wcont_e_ts:
   fp_wcont_e_ts.write("%f\n" % time.time())
#print("WRITER: Written out1!")

          Workspaces:
            Mount Path:  /data
            Name:        write6-shared-ws
            Mount Path:  /timestamps
            Name:        write6-ws
Events:
  Type    Reason     Age                From         Message
  ----    ------     ----               ----         -------
  Normal  Started    29s (x2 over 29s)  PipelineRun  
  Normal  Running    28s (x2 over 29s)  PipelineRun  Tasks Completed: 0 (Failed: 0, Cancelled 0), Incomplete: 7, Skipped: 0
  Normal  Running    19s                PipelineRun  Tasks Completed: 1 (Failed: 0, Cancelled 0), Incomplete: 6, Skipped: 0
  Normal  Running    19s                PipelineRun  Tasks Completed: 2 (Failed: 0, Cancelled 0), Incomplete: 5, Skipped: 0
  Normal  Running    19s                PipelineRun  Tasks Completed: 3 (Failed: 0, Cancelled 0), Incomplete: 4, Skipped: 0
  Normal  Running    18s                PipelineRun  Tasks Completed: 4 (Failed: 0, Cancelled 0), Incomplete: 3, Skipped: 0
  Normal  Running    18s                PipelineRun  Tasks Completed: 5 (Failed: 0, Cancelled 0), Incomplete: 2, Skipped: 0
  Normal  Running    18s                PipelineRun  Tasks Completed: 6 (Failed: 0, Cancelled 0), Incomplete: 1, Skipped: 0
  Normal  Succeeded  7s                 PipelineRun  Tasks Completed: 7 (Failed: 0, Cancelled 0), Skipped: 0
