Name:         write-read-array-pipeline-run-9xjvj
Namespace:    default
Labels:       tekton.dev/pipeline=write-read-array-pipeline
Annotations:  <none>
API Version:  tekton.dev/v1beta1
Kind:         PipelineRun
Metadata:
  Creation Timestamp:  2022-03-30T09:59:24Z
  Generate Name:       write-read-array-pipeline-run-
  Generation:          1
  Managed Fields:
    API Version:  tekton.dev/v1beta1
    Fields Type:  FieldsV1
    fieldsV1:
      f:metadata:
        f:generateName:
      f:spec:
        .:
        f:pipelineRef:
          .:
          f:name:
        f:taskRunSpecs:
        f:workspaces:
    Manager:      kubectl-create
    Operation:    Update
    Time:         2022-03-30T09:59:24Z
    API Version:  tekton.dev/v1beta1
    Fields Type:  FieldsV1
    fieldsV1:
      f:metadata:
        f:annotations:
          .:
          f:kubectl.kubernetes.io/last-applied-configuration:
        f:labels:
          .:
          f:tekton.dev/pipeline:
      f:status:
        .:
        f:completionTime:
        f:conditions:
        f:pipelineSpec:
          .:
          f:tasks:
          f:workspaces:
        f:startTime:
        f:taskRuns:
          .:
          f:write-read-array-pipeline-run-9xjvj-read1-task-h46tm:
            .:
            f:pipelineTaskName:
            f:status:
              .:
              f:completionTime:
              f:conditions:
              f:podName:
              f:startTime:
              f:steps:
              f:taskSpec:
                .:
                f:steps:
                f:workspaces:
          f:write-read-array-pipeline-run-9xjvj-read2-task-rmfsp:
            .:
            f:pipelineTaskName:
            f:status:
              .:
              f:completionTime:
              f:conditions:
              f:podName:
              f:startTime:
              f:steps:
              f:taskSpec:
                .:
                f:steps:
                f:workspaces:
          f:write-read-array-pipeline-run-9xjvj-read3-task-bd4f7:
            .:
            f:pipelineTaskName:
            f:status:
              .:
              f:completionTime:
              f:conditions:
              f:podName:
              f:startTime:
              f:steps:
              f:taskSpec:
                .:
                f:steps:
                f:workspaces:
          f:write-read-array-pipeline-run-9xjvj-write1-task-t62t5:
            .:
            f:pipelineTaskName:
            f:status:
              .:
              f:completionTime:
              f:conditions:
              f:podName:
              f:startTime:
              f:steps:
              f:taskSpec:
                .:
                f:steps:
                f:workspaces:
          f:write-read-array-pipeline-run-9xjvj-write2-task-2mkqf:
            .:
            f:pipelineTaskName:
            f:status:
              .:
              f:completionTime:
              f:conditions:
              f:podName:
              f:startTime:
              f:steps:
              f:taskSpec:
                .:
                f:steps:
                f:workspaces:
          f:write-read-array-pipeline-run-9xjvj-write3-task-pcptq:
            .:
            f:pipelineTaskName:
            f:status:
              .:
              f:completionTime:
              f:conditions:
              f:podName:
              f:startTime:
              f:steps:
              f:taskSpec:
                .:
                f:steps:
                f:workspaces:
    Manager:         controller
    Operation:       Update
    Time:            2022-03-30T09:59:45Z
  Resource Version:  56273261
  Self Link:         /apis/tekton.dev/v1beta1/namespaces/default/pipelineruns/write-read-array-pipeline-run-9xjvj
  UID:               78a47b6e-60ea-493a-a8b3-4aff7f4d1d64
Spec:
  Pipeline Ref:
    Name:                write-read-array-pipeline
  Service Account Name:  default
  Task Run Specs:
    Pipeline Task Name:  write1-task
    Task Pod Template:
      Node Selector:
        kubernetes.io/hostname:  k8s-worker-node1
    Pipeline Task Name:          write2-task
    Task Pod Template:
      Node Selector:
        kubernetes.io/hostname:  k8s-worker-node2
    Pipeline Task Name:          write3-task
    Task Pod Template:
      Node Selector:
        kubernetes.io/hostname:  k8s-worker-node3
    Pipeline Task Name:          read1-task
    Task Pod Template:
      Node Selector:
        kubernetes.io/hostname:  k8s-worker-node4
    Pipeline Task Name:          read2-task
    Task Pod Template:
      Node Selector:
        kubernetes.io/hostname:  k8s-worker-node5
    Pipeline Task Name:          read3-task
    Task Pod Template:
      Node Selector:
        kubernetes.io/hostname:  k8s-worker-node6
  Timeout:                       1h0m0s
  Workspaces:
    Name:  task-write1-ws
    Persistent Volume Claim:
      Claim Name:  task1-pv-claim
    Name:          task-write2-ws
    Persistent Volume Claim:
      Claim Name:  task2-pv-claim
    Name:          task-write3-ws
    Persistent Volume Claim:
      Claim Name:  task3-pv-claim
    Name:          task-read1-ws
    Persistent Volume Claim:
      Claim Name:  task4-pv-claim
    Name:          task-read2-ws
    Persistent Volume Claim:
      Claim Name:  task5-pv-claim
    Name:          task-read3-ws
    Persistent Volume Claim:
      Claim Name:  task6-pv-claim
Status:
  Completion Time:  2022-03-30T09:59:45Z
  Conditions:
    Last Transition Time:  2022-03-30T09:59:45Z
    Message:               Tasks Completed: 6 (Failed: 0, Cancelled 0), Skipped: 0
    Reason:                Succeeded
    Status:                True
    Type:                  Succeeded
  Pipeline Spec:
    Tasks:
      Name:  write1-task
      Task Ref:
        Kind:  Task
        Name:  write1
      Workspaces:
        Name:       write1-ws
        Workspace:  task-write1-ws
      Name:         write2-task
      Task Ref:
        Kind:  Task
        Name:  write2
      Workspaces:
        Name:       write2-ws
        Workspace:  task-write2-ws
      Name:         write3-task
      Task Ref:
        Kind:  Task
        Name:  write3
      Workspaces:
        Name:       write3-ws
        Workspace:  task-write3-ws
      Name:         read1-task
      Task Ref:
        Kind:  Task
        Name:  read1
      Workspaces:
        Name:       read1-ws
        Workspace:  task-read1-ws
      Name:         read2-task
      Task Ref:
        Kind:  Task
        Name:  read2
      Workspaces:
        Name:       read2-ws
        Workspace:  task-read2-ws
      Name:         read3-task
      Task Ref:
        Kind:  Task
        Name:  read3
      Workspaces:
        Name:       read3-ws
        Workspace:  task-read3-ws
    Workspaces:
      Name:    task-write1-ws
      Name:    task-write2-ws
      Name:    task-write3-ws
      Name:    task-read1-ws
      Name:    task-read2-ws
      Name:    task-read3-ws
  Start Time:  2022-03-30T09:59:24Z
  Task Runs:
    write-read-array-pipeline-run-9xjvj-read1-task-h46tm:
      Pipeline Task Name:  read1-task
      Status:
        Completion Time:  2022-03-30T09:59:44Z
        Conditions:
          Last Transition Time:  2022-03-30T09:59:44Z
          Message:               All Steps have completed executing
          Reason:                Succeeded
          Status:                True
          Type:                  Succeeded
        Pod Name:                write-read-array-pipeline-run-9xjvj-read1-task-h46tm-pod-nxdz4
        Start Time:              2022-03-30T09:59:25Z
        Steps:
          Container:  step-read
          Image ID:   docker-pullable://jupyter/scipy-notebook@sha256:87b339ec6a62b283d0c2aee1446e7bc2e5ad03a80d49d2dfddb031b233aedd29
          Name:       read
          Terminated:
            Container ID:  docker://a5f208840c84744ff37591db574c3c48c4caeb2eb207cfe0881984ebc454a7f5
            Exit Code:     0
            Finished At:   2022-03-30T09:59:44Z
            Reason:        Completed
            Started At:    2022-03-30T09:59:36Z
        Task Spec:
          Steps:
            Image:              jupyter/scipy-notebook
            Image Pull Policy:  IfNotPresent
            Name:               read
            Resources:
            Script:  #!/usr/bin/env python3
import time
import os
# Store initial timestamp
with open("/data/timestamps/socket_pipe/3to3/1MB/r1cont_start_ts.txt", 'a+') as fp_rcont_s_ts:
   fp_rcont_s_ts.write("%f\n" % time.time())
buf_sz = 65536
ready = b'\x01'
sync_pipe = open("/data/sync_pipe", 'wb')
sync_pipe.write(ready)
sync_pipe.close()
#print("Written ready signal!")
# Read data object from data pipe
data_fifo = open('/data/data_pipe', 'rb')
data_length_bin = data_fifo.read(8)
data_length = int.from_bytes(data_length_bin, "big")
data = bytearray(0)
counter = 0
while counter < data_length:
   buff = data_fifo.read(buf_sz)
   counter += len(buff)
   data.extend(buff)
data_length_bin = data_fifo.read(8)
data_length = int.from_bytes(data_length_bin, "big")
data = bytearray(0)
counter = 0
while counter < data_length:
   buff = data_fifo.read(buf_sz)
   counter += len(buff)
   data.extend(buff)
data_length_bin = data_fifo.read(8)
data_length = int.from_bytes(data_length_bin, "big")
data = bytearray(0)
counter = 0
while counter < data_length:
   buff = data_fifo.read(buf_sz)
   counter += len(buff)
   data.extend(buff)
data_fifo.close()
# Store final timestamp
with open("/data/timestamps/socket_pipe/3to3/1MB/r1cont_end_ts.txt", 'a+') as fp_rcont_e_ts:
   fp_rcont_e_ts.write("%f\n" % time.time())
#print("READER: Read %d x chars" % len(data))

          Workspaces:
            Mount Path:  /data
            Name:        read1-ws
    write-read-array-pipeline-run-9xjvj-read2-task-rmfsp:
      Pipeline Task Name:  read2-task
      Status:
        Completion Time:  2022-03-30T09:59:44Z
        Conditions:
          Last Transition Time:  2022-03-30T09:59:44Z
          Message:               All Steps have completed executing
          Reason:                Succeeded
          Status:                True
          Type:                  Succeeded
        Pod Name:                write-read-array-pipeline-run-9xjvj-read2-task-rmfsp-pod-lkp54
        Start Time:              2022-03-30T09:59:25Z
        Steps:
          Container:  step-read
          Image ID:   docker-pullable://jupyter/scipy-notebook@sha256:af220ba516b0c154461915f76b5b170ff8f4fb35a5c80f7e94577117f39b743c
          Name:       read
          Terminated:
            Container ID:  docker://3906eabfc790273d36f68d0746da7d989b82c9e5556ac65cea75a398f76397f3
            Exit Code:     0
            Finished At:   2022-03-30T09:59:44Z
            Reason:        Completed
            Started At:    2022-03-30T09:59:39Z
        Task Spec:
          Steps:
            Image:              jupyter/scipy-notebook
            Image Pull Policy:  IfNotPresent
            Name:               read
            Resources:
            Script:  #!/usr/bin/env python3
import time
import os
# Store initial timestamp
with open("/data/timestamps/socket_pipe/3to3/1MB/r2cont_start_ts.txt", 'a+') as fp_rcont_s_ts:
   fp_rcont_s_ts.write("%f\n" % time.time())
buf_sz = 65536
ready = b'\x01'
sync_pipe = open("/data/sync_pipe", 'wb')
sync_pipe.write(ready)
sync_pipe.close()
#print("Written ready signal!")
# Read data object from data pipe
data_fifo = open('/data/data_pipe', 'rb')
data_length_bin = data_fifo.read(8)
data_length = int.from_bytes(data_length_bin, "big")
data = bytearray(0)
counter = 0
while counter < data_length:
   buff = data_fifo.read(buf_sz)
   counter += len(buff)
   data.extend(buff)
data_length_bin = data_fifo.read(8)
data_length = int.from_bytes(data_length_bin, "big")
data = bytearray(0)
counter = 0
while counter < data_length:
   buff = data_fifo.read(buf_sz)
   counter += len(buff)
   data.extend(buff)
data_length_bin = data_fifo.read(8)
data_length = int.from_bytes(data_length_bin, "big")
data = bytearray(0)
counter = 0
while counter < data_length:
   buff = data_fifo.read(buf_sz)
   counter += len(buff)
   data.extend(buff)
data_fifo.close()
# Store final timestamp
with open("/data/timestamps/socket_pipe/3to3/1MB/r2cont_end_ts.txt", 'a+') as fp_rcont_e_ts:
   fp_rcont_e_ts.write("%f\n" % time.time())
#print("READER: Read %d x chars" % len(data))

          Workspaces:
            Mount Path:  /data
            Name:        read2-ws
    write-read-array-pipeline-run-9xjvj-read3-task-bd4f7:
      Pipeline Task Name:  read3-task
      Status:
        Completion Time:  2022-03-30T09:59:44Z
        Conditions:
          Last Transition Time:  2022-03-30T09:59:44Z
          Message:               All Steps have completed executing
          Reason:                Succeeded
          Status:                True
          Type:                  Succeeded
        Pod Name:                write-read-array-pipeline-run-9xjvj-read3-task-bd4f7-pod-286jp
        Start Time:              2022-03-30T09:59:25Z
        Steps:
          Container:  step-read
          Image ID:   docker-pullable://jupyter/scipy-notebook@sha256:87b339ec6a62b283d0c2aee1446e7bc2e5ad03a80d49d2dfddb031b233aedd29
          Name:       read
          Terminated:
            Container ID:  docker://02182b8e567d1c8a377a0aa8dbdc8e0469b6b31a3a16a8ff27710de51031e875
            Exit Code:     0
            Finished At:   2022-03-30T09:59:44Z
            Reason:        Completed
            Started At:    2022-03-30T09:59:37Z
        Task Spec:
          Steps:
            Image:              jupyter/scipy-notebook
            Image Pull Policy:  IfNotPresent
            Name:               read
            Resources:
            Script:  #!/usr/bin/env python3
import time
import os
# Store initial timestamp
with open("/data/timestamps/socket_pipe/3to3/1MB/r3cont_start_ts.txt", 'a+') as fp_rcont_s_ts:
   fp_rcont_s_ts.write("%f\n" % time.time())
buf_sz = 65536
ready = b'\x01'
sync_pipe = open("/data/sync_pipe", 'wb')
sync_pipe.write(ready)
sync_pipe.close()
#print("Written ready signal!")
# Read data object from data pipe
data_fifo = open('/data/data_pipe', 'rb')
data_length_bin = data_fifo.read(8)
data_length = int.from_bytes(data_length_bin, "big")
data = bytearray(0)
counter = 0
while counter < data_length:
   buff = data_fifo.read(buf_sz)
   counter += len(buff)
   data.extend(buff)
data_length_bin = data_fifo.read(8)
data_length = int.from_bytes(data_length_bin, "big")
data = bytearray(0)
counter = 0
while counter < data_length:
   buff = data_fifo.read(buf_sz)
   counter += len(buff)
   data.extend(buff)
data_length_bin = data_fifo.read(8)
data_length = int.from_bytes(data_length_bin, "big")
data = bytearray(0)
counter = 0
while counter < data_length:
   buff = data_fifo.read(buf_sz)
   counter += len(buff)
   data.extend(buff)
data_fifo.close()
# Store final timestamp
with open("/data/timestamps/socket_pipe/3to3/1MB/r3cont_end_ts.txt", 'a+') as fp_rcont_e_ts:
   fp_rcont_e_ts.write("%f\n" % time.time())
#print("READER: Read %d x chars" % len(data))

          Workspaces:
            Mount Path:  /data
            Name:        read3-ws
    write-read-array-pipeline-run-9xjvj-write1-task-t62t5:
      Pipeline Task Name:  write1-task
      Status:
        Completion Time:  2022-03-30T09:59:44Z
        Conditions:
          Last Transition Time:  2022-03-30T09:59:44Z
          Message:               All Steps have completed executing
          Reason:                Succeeded
          Status:                True
          Type:                  Succeeded
        Pod Name:                write-read-array-pipeline-run-9xjvj-write1-task-t62t5-pod-npqkl
        Start Time:              2022-03-30T09:59:24Z
        Steps:
          Container:  step-write
          Image ID:   docker-pullable://jupyter/scipy-notebook@sha256:87b339ec6a62b283d0c2aee1446e7bc2e5ad03a80d49d2dfddb031b233aedd29
          Name:       write
          Terminated:
            Container ID:  docker://dacc2848359edf66f683692fee41b3b8307cfad2a36c113bf84eaa6efe1de7b6
            Exit Code:     0
            Finished At:   2022-03-30T09:59:43Z
            Reason:        Completed
            Started At:    2022-03-30T09:59:43Z
        Task Spec:
          Steps:
            Image:              jupyter/scipy-notebook
            Image Pull Policy:  IfNotPresent
            Name:               write
            Resources:
            Script:  #!/usr/bin/env python3
import time
# Store initial timestamp
with open("/data/timestamps/socket_pipe/3to3/1MB/w1cont_start_ts.txt", 'a+') as fp_wcont_s_ts:
   fp_wcont_s_ts.write("%f\n" % time.time())
# Create data object
# string = 'x' * 1048576
data_as_bytes = bytearray(b'\x78') * 1048576
#data_as_bytes = str.encode(string)
data_dim = 1048576
data_dim_bin = data_dim.to_bytes(8, "big")
# Store timestamp after data creation
with open("/data/timestamps/socket_pipe/3to3/1MB/w1cont_data_end_ts.txt", 'a+') as fp_wcont_data_ts:
   fp_wcont_data_ts.write("%f\n" % time.time())
# Write data object on pipe
data_fifo = open('/data/data_pipe', 'wb') 
data_fifo.write(data_dim_bin)
data_fifo.write(data_as_bytes) 
data_fifo.close()
# Store final timestamp
with open("/data/timestamps/socket_pipe/3to3/1MB/w1cont_end_ts.txt", 'a+') as fp_wcont_e_ts:
   fp_wcont_e_ts.write("%f\n" % time.time())

          Workspaces:
            Mount Path:  /data
            Name:        write1-ws
    write-read-array-pipeline-run-9xjvj-write2-task-2mkqf:
      Pipeline Task Name:  write2-task
      Status:
        Completion Time:  2022-03-30T09:59:44Z
        Conditions:
          Last Transition Time:  2022-03-30T09:59:44Z
          Message:               All Steps have completed executing
          Reason:                Succeeded
          Status:                True
          Type:                  Succeeded
        Pod Name:                write-read-array-pipeline-run-9xjvj-write2-task-2mkqf-pod-tmvhm
        Start Time:              2022-03-30T09:59:24Z
        Steps:
          Container:  step-write
          Image ID:   docker-pullable://jupyter/scipy-notebook@sha256:87b339ec6a62b283d0c2aee1446e7bc2e5ad03a80d49d2dfddb031b233aedd29
          Name:       write
          Terminated:
            Container ID:  docker://509eb3c46765a1b8809bbb1be2244045b671705be21b1bb6b79c4fc166fa819c
            Exit Code:     0
            Finished At:   2022-03-30T09:59:43Z
            Reason:        Completed
            Started At:    2022-03-30T09:59:37Z
        Task Spec:
          Steps:
            Image:              jupyter/scipy-notebook
            Image Pull Policy:  IfNotPresent
            Name:               write
            Resources:
            Script:  #!/usr/bin/env python3
import time
# Store initial timestamp
with open("/data/timestamps/socket_pipe/3to3/1MB/w2cont_start_ts.txt", 'a+') as fp_wcont_s_ts:
   fp_wcont_s_ts.write("%f\n" % time.time())
# Create data object
# string = 'x' * 1048576
data_as_bytes = bytearray(b'\x78') * 1048576
#data_as_bytes = str.encode(string)
data_dim = 1048576
data_dim_bin = data_dim.to_bytes(8, "big")
# Store timestamp after data creation
with open("/data/timestamps/socket_pipe/3to3/1MB/w2cont_data_end_ts.txt", 'a+') as fp_wcont_data_ts:
   fp_wcont_data_ts.write("%f\n" % time.time())
# Write data object on pipe
data_fifo = open('/data/data_pipe', 'wb') 
data_fifo.write(data_dim_bin)
data_fifo.write(data_as_bytes) 
data_fifo.close()
# Store final timestamp
with open("/data/timestamps/socket_pipe/3to3/1MB/w2cont_end_ts.txt", 'a+') as fp_wcont_e_ts:
   fp_wcont_e_ts.write("%f\n" % time.time())

          Workspaces:
            Mount Path:  /data
            Name:        write2-ws
    write-read-array-pipeline-run-9xjvj-write3-task-pcptq:
      Pipeline Task Name:  write3-task
      Status:
        Completion Time:  2022-03-30T09:59:45Z
        Conditions:
          Last Transition Time:  2022-03-30T09:59:45Z
          Message:               All Steps have completed executing
          Reason:                Succeeded
          Status:                True
          Type:                  Succeeded
        Pod Name:                write-read-array-pipeline-run-9xjvj-write3-task-pcptq-pod-4b897
        Start Time:              2022-03-30T09:59:24Z
        Steps:
          Container:  step-write
          Image ID:   docker-pullable://jupyter/scipy-notebook@sha256:87b339ec6a62b283d0c2aee1446e7bc2e5ad03a80d49d2dfddb031b233aedd29
          Name:       write
          Terminated:
            Container ID:  docker://458abe636610b2730e06ec3f218a695abf9dfaa7acac8ac9d8939b69707fbc15
            Exit Code:     0
            Finished At:   2022-03-30T09:59:44Z
            Reason:        Completed
            Started At:    2022-03-30T09:59:37Z
        Task Spec:
          Steps:
            Image:              jupyter/scipy-notebook
            Image Pull Policy:  IfNotPresent
            Name:               write
            Resources:
            Script:  #!/usr/bin/env python3
import time
# Store initial timestamp
with open("/data/timestamps/socket_pipe/3to3/1MB/w3cont_start_ts.txt", 'a+') as fp_wcont_s_ts:
   fp_wcont_s_ts.write("%f\n" % time.time())
# Create data object
# string = 'x' * 1048576
data_as_bytes = bytearray(b'\x78') * 1048576
#data_as_bytes = str.encode(string)
data_dim = 1048576
data_dim_bin = data_dim.to_bytes(8, "big")
# Store timestamp after data creation
with open("/data/timestamps/socket_pipe/3to3/1MB/w3cont_data_end_ts.txt", 'a+') as fp_wcont_data_ts:
   fp_wcont_data_ts.write("%f\n" % time.time())
# Write data object on pipe
data_fifo = open('/data/data_pipe', 'wb') 
data_fifo.write(data_dim_bin)
data_fifo.write(data_as_bytes) 
data_fifo.close()
# Store final timestamp
with open("/data/timestamps/socket_pipe/3to3/1MB/w3cont_end_ts.txt", 'a+') as fp_wcont_e_ts:
   fp_wcont_e_ts.write("%f\n" % time.time())

          Workspaces:
            Mount Path:  /data
            Name:        write3-ws
Events:
  Type    Reason     Age   From         Message
  ----    ------     ----  ----         -------
  Normal  Started    29s   PipelineRun  
  Normal  Running    29s   PipelineRun  Tasks Completed: 0 (Failed: 0, Cancelled 0), Incomplete: 6, Skipped: 0
  Normal  Running    9s    PipelineRun  Tasks Completed: 1 (Failed: 0, Cancelled 0), Incomplete: 5, Skipped: 0
  Normal  Running    9s    PipelineRun  Tasks Completed: 2 (Failed: 0, Cancelled 0), Incomplete: 4, Skipped: 0
  Normal  Running    9s    PipelineRun  Tasks Completed: 3 (Failed: 0, Cancelled 0), Incomplete: 3, Skipped: 0
  Normal  Running    9s    PipelineRun  Tasks Completed: 4 (Failed: 0, Cancelled 0), Incomplete: 2, Skipped: 0
  Normal  Running    9s    PipelineRun  Tasks Completed: 5 (Failed: 0, Cancelled 0), Incomplete: 1, Skipped: 0
  Normal  Succeeded  8s    PipelineRun  Tasks Completed: 6 (Failed: 0, Cancelled 0), Skipped: 0
