1645917332.733170
1645917336.754561
1645917341.436841
1645917345.617368
1645917349.659946
1645917353.643850
1645917357.763276
1645917361.824156
1645917365.853347
1645917369.992817
1645917374.699050
1645917378.873009
1645917383.072268
1645917387.291773
1645917391.655762
1645917395.947494
1645917400.257896
1645917404.547040
1645917409.205292
1645917413.280778
1645917417.290790
1645917421.285587
1645917425.149965
1645917428.975371
1645917433.093450
1645917437.325157
1645917442.203519
1645917446.375723
1645917450.355481
1645917454.508516
1645917458.490015
1645917462.630193
1645917466.459259
1645917471.316841
1645917475.425769
1645917479.502348
1645917483.679483
1645917487.766380
1645917491.951322
1645917496.106679
1645917500.068188
1645917505.018249
1645917509.281965
1645917513.564028
1645917517.875124
1645917522.093839
1645917526.957295
1645917531.159509
1645917535.443632
1645917540.322209
1645917544.579323
1645917548.861513
1645917553.028776
1645917557.340320
1645917561.411501
1645917565.429172
1645917570.199252
1645917574.285582
1645917578.391218
1645917582.463321
1645917586.514420
1645917590.515407
1645917594.644089
1645917598.762453
1645917603.472295
1645917607.646129
1645917611.833438
1645917615.907915
1645917620.371416
1645917624.729117
1645917628.987854
1645917633.329226
1645917638.403181
1645917642.793355
1645917647.020539
1645917650.856941
1645917654.819812
1645917658.653235
1645917662.693618
1645917666.432157
1645917671.406193
1645917675.696243
1645917679.807331
1645917683.887602
1645917687.992732
1645917692.044347
1645917696.226786
1645917700.382990
1645917705.189878
1645917709.338988
1645917713.527416
1645917717.703098
1645917721.673354
1645917725.661035
1645917730.041814
1645917735.479209
1645917739.653683
1645917743.958294
1645917748.118896
1645917752.339472
