1646326219.215894
1646326231.424675
1646326242.685431
1646326255.134080
1646326267.304771
1646326283.234766
1646326295.322789
1646326309.096148
1646326323.457683
1646326336.156952
1646326347.597567
1646326364.599518
1646326380.131238
1646326390.936077
1646326407.303101
1646326419.046178
1646326431.038567
1646326453.346064
1646326464.047701
1646326479.563628
1646326495.084747
1646326506.335492
1646326523.021038
1646326537.663259
1646326548.936915
1646326560.222813
1646326574.371945
1646326587.920087
1646326604.865179
1646326616.899938
1646326633.226319
1646326652.212805
1646326668.668269
1646326681.094489
1646326692.636051
1646326711.230788
1646326723.700474
1646326740.777193
1646326754.192036
1646326766.857440
1646326782.941596
1646326796.489502
1646326813.500272
1646326827.496907
1646326838.789712
1646326858.950789
1646326871.690450
1646326886.724751
1646326901.856225
1646326915.934352
1646326927.449808
1646326944.411887
1646326954.919111
1646326969.791556
1646326984.531199
1646326998.696690
1646327013.401915
1646327027.754084
1646327042.104399
1646327058.226309
1646327069.720805
1646327082.583146
1646327094.439491
1646327113.020722
1646327126.647682
1646327137.815389
1646327150.484969
1646327166.259021
1646327185.936524
1646327199.687741
1646327215.616260
1646327232.242546
1646327247.594646
1646327261.455114
1646327273.534140
1646327285.057040
1646327302.872669
1646327314.337874
1646327333.291113
1646327345.395116
1646327358.545799
1646327371.155194
1646327385.008148
1646327398.779114
1646327416.032893
1646327427.156999
1646327442.138707
1646327460.813074
1646327478.830531
1646327493.110077
1646327506.175865
1646327521.381489
1646327535.021140
1646327546.560451
1646327564.123873
1646327575.427577
1646327590.791790
1646327605.205051
1646327619.461838
1646327634.473487
