Name:         write-read-array-pipeline-run-l7xr7
Namespace:    default
Labels:       tekton.dev/pipeline=write-read-array-pipeline
Annotations:  <none>
API Version:  tekton.dev/v1beta1
Kind:         PipelineRun
Metadata:
  Creation Timestamp:  2022-03-24T10:23:43Z
  Generate Name:       write-read-array-pipeline-run-
  Generation:          1
  Managed Fields:
    API Version:  tekton.dev/v1beta1
    Fields Type:  FieldsV1
    fieldsV1:
      f:metadata:
        f:generateName:
      f:spec:
        .:
        f:pipelineRef:
          .:
          f:name:
        f:taskRunSpecs:
        f:workspaces:
    Manager:      kubectl-create
    Operation:    Update
    Time:         2022-03-24T10:23:43Z
    API Version:  tekton.dev/v1beta1
    Fields Type:  FieldsV1
    fieldsV1:
      f:metadata:
        f:annotations:
          .:
          f:kubectl.kubernetes.io/last-applied-configuration:
        f:labels:
          .:
          f:tekton.dev/pipeline:
      f:status:
        .:
        f:completionTime:
        f:conditions:
        f:pipelineSpec:
          .:
          f:tasks:
          f:workspaces:
        f:startTime:
        f:taskRuns:
          .:
          f:write-read-array-pipeline-run-l7xr7-read1-task-vfpwq:
            .:
            f:pipelineTaskName:
            f:status:
              .:
              f:completionTime:
              f:conditions:
              f:podName:
              f:startTime:
              f:steps:
              f:taskSpec:
                .:
                f:steps:
                f:workspaces:
          f:write-read-array-pipeline-run-l7xr7-read2-task-p5zgw:
            .:
            f:pipelineTaskName:
            f:status:
              .:
              f:completionTime:
              f:conditions:
              f:podName:
              f:startTime:
              f:steps:
              f:taskSpec:
                .:
                f:steps:
                f:workspaces:
          f:write-read-array-pipeline-run-l7xr7-write1-task-9mjzk:
            .:
            f:pipelineTaskName:
            f:status:
              .:
              f:completionTime:
              f:conditions:
              f:podName:
              f:startTime:
              f:steps:
              f:taskSpec:
                .:
                f:steps:
                f:workspaces:
          f:write-read-array-pipeline-run-l7xr7-write2-task-6nxgn:
            .:
            f:pipelineTaskName:
            f:status:
              .:
              f:completionTime:
              f:conditions:
              f:podName:
              f:startTime:
              f:steps:
              f:taskSpec:
                .:
                f:steps:
                f:workspaces:
    Manager:         controller
    Operation:       Update
    Time:            2022-03-24T10:24:10Z
  Resource Version:  42585966
  Self Link:         /apis/tekton.dev/v1beta1/namespaces/default/pipelineruns/write-read-array-pipeline-run-l7xr7
  UID:               a07128b1-b20d-40c7-aacc-964afdd02ca6
Spec:
  Pipeline Ref:
    Name:                write-read-array-pipeline
  Service Account Name:  default
  Task Run Specs:
    Pipeline Task Name:  write1-task
    Task Pod Template:
      Node Selector:
        kubernetes.io/hostname:  k8s-worker-node1
    Pipeline Task Name:          write2-task
    Task Pod Template:
      Node Selector:
        kubernetes.io/hostname:  k8s-worker-node2
    Pipeline Task Name:          read1-task
    Task Pod Template:
      Node Selector:
        kubernetes.io/hostname:  k8s-worker-node3
    Pipeline Task Name:          read2-task
    Task Pod Template:
      Node Selector:
        kubernetes.io/hostname:  k8s-worker-node4
  Timeout:                       1h0m0s
  Workspaces:
    Name:  task-write1-ws
    Persistent Volume Claim:
      Claim Name:  task1-pv-claim
    Name:          task-write2-ws
    Persistent Volume Claim:
      Claim Name:  task2-pv-claim
    Name:          task-read1-ws
    Persistent Volume Claim:
      Claim Name:  task3-pv-claim
    Name:          task-read2-ws
    Persistent Volume Claim:
      Claim Name:  task4-pv-claim
Status:
  Completion Time:  2022-03-24T10:24:10Z
  Conditions:
    Last Transition Time:  2022-03-24T10:24:10Z
    Message:               Tasks Completed: 4 (Failed: 0, Cancelled 0), Skipped: 0
    Reason:                Succeeded
    Status:                True
    Type:                  Succeeded
  Pipeline Spec:
    Tasks:
      Name:  write1-task
      Task Ref:
        Kind:  Task
        Name:  write1
      Workspaces:
        Name:       write1-ws
        Workspace:  task-write1-ws
      Name:         write2-task
      Task Ref:
        Kind:  Task
        Name:  write2
      Workspaces:
        Name:       write2-ws
        Workspace:  task-write2-ws
      Name:         read1-task
      Run After:
        write1-task
        write2-task
      Task Ref:
        Kind:  Task
        Name:  read1
      Workspaces:
        Name:       read1-ws
        Workspace:  task-read1-ws
      Name:         read2-task
      Run After:
        write1-task
        write2-task
      Task Ref:
        Kind:  Task
        Name:  read2
      Workspaces:
        Name:       read2-ws
        Workspace:  task-read2-ws
    Workspaces:
      Name:    task-write1-ws
      Name:    task-write2-ws
      Name:    task-read1-ws
      Name:    task-read2-ws
  Start Time:  2022-03-24T10:23:43Z
  Task Runs:
    write-read-array-pipeline-run-l7xr7-read1-task-vfpwq:
      Pipeline Task Name:  read1-task
      Status:
        Completion Time:  2022-03-24T10:24:10Z
        Conditions:
          Last Transition Time:  2022-03-24T10:24:10Z
          Message:               All Steps have completed executing
          Reason:                Succeeded
          Status:                True
          Type:                  Succeeded
        Pod Name:                write-read-array-pipeline-run-l7xr7-read1-task-vfpwq-pod-c6828
        Start Time:              2022-03-24T10:23:59Z
        Steps:
          Container:  step-s-start
          Image ID:   docker-pullable://python@sha256:c90e15c86e2ebe71244a2a51bc7f094554422c159ce309a6faadb6debd5a6df0
          Name:       s-start
          Terminated:
            Container ID:  docker://5013fbdf68c72198feca69e674b18a813662bae11219baec2a35c5e47e5e5959
            Exit Code:     0
            Finished At:   2022-03-24T10:24:09Z
            Reason:        Completed
            Started At:    2022-03-24T10:24:09Z
          Container:       step-read
          Image ID:        docker-pullable://jupyter/scipy-notebook@sha256:87b339ec6a62b283d0c2aee1446e7bc2e5ad03a80d49d2dfddb031b233aedd29
          Name:            read
          Terminated:
            Container ID:  docker://99dfcd274083148a64c6f16049d60ad89193b813b2c2812c47721bad2b2713f7
            Exit Code:     0
            Finished At:   2022-03-24T10:24:09Z
            Reason:        Completed
            Started At:    2022-03-24T10:24:09Z
        Task Spec:
          Steps:
            Image:              python
            Image Pull Policy:  IfNotPresent
            Name:               s-start
            Resources:
            Script:  #!/usr/bin/env python3
import time
# Store initial timestamp
with open("/data/timestamps/socket/2to2/4MB/r1sent_start_ts.txt", 'a+') as fp_sent_s_ts:
   fp_sent_s_ts.write("%f\n" % time.time())
# Wait for the ready signal from external process
with open("/data/sync_pipe", "rb") as sync_pipe_file:
   while(int.from_bytes(sync_pipe_file.read(1), "little") != 1):
       continue
# Store final timestamp
with open("/data/timestamps/socket/2to2/4MB/r1sent_end_ts.txt", 'a+') as fp_sent_e_ts:
   fp_sent_e_ts.write("%f\n" % time.time())

            Image:              jupyter/scipy-notebook
            Image Pull Policy:  IfNotPresent
            Name:               read
            Resources:
            Script:  #!/usr/bin/env python3
import time
import gc
# Store initial timestamp
with open("/data/timestamps/socket/2to2/4MB/r1cont_start_ts.txt", 'a+') as fp_rcont_s_ts:
   fp_rcont_s_ts.write("%f\n" % time.time())
# Read data object from remote shared storage
with open("/data/in_data/out1.txt", "r") as fp_data1:
   data = fp_data1.read()
with open("/data/in_data/out2.txt", "r") as fp_data2:
   data = fp_data2.read()
# Store final timestamp
with open("/data/timestamps/socket/2to2/4MB/r1cont_end_ts.txt", 'a+') as fp_rcont_e_ts:
   fp_rcont_e_ts.write("%f\n" % time.time())
#print("READER: Read %d x chars" % len(data))

          Workspaces:
            Mount Path:  /data
            Name:        read1-ws
    write-read-array-pipeline-run-l7xr7-read2-task-p5zgw:
      Pipeline Task Name:  read2-task
      Status:
        Completion Time:  2022-03-24T10:24:07Z
        Conditions:
          Last Transition Time:  2022-03-24T10:24:07Z
          Message:               All Steps have completed executing
          Reason:                Succeeded
          Status:                True
          Type:                  Succeeded
        Pod Name:                write-read-array-pipeline-run-l7xr7-read2-task-p5zgw-pod-8sbpw
        Start Time:              2022-03-24T10:23:59Z
        Steps:
          Container:  step-s-start
          Image ID:   docker-pullable://python@sha256:c90e15c86e2ebe71244a2a51bc7f094554422c159ce309a6faadb6debd5a6df0
          Name:       s-start
          Terminated:
            Container ID:  docker://74e7224cc0244d30c86d18d9bd58ceaac1d12cceb3c3964a9a2d1ebf8436ccac
            Exit Code:     0
            Finished At:   2022-03-24T10:24:07Z
            Reason:        Completed
            Started At:    2022-03-24T10:24:07Z
          Container:       step-read
          Image ID:        docker-pullable://jupyter/scipy-notebook@sha256:87b339ec6a62b283d0c2aee1446e7bc2e5ad03a80d49d2dfddb031b233aedd29
          Name:            read
          Terminated:
            Container ID:  docker://c36ea94cda6407e9bdbb6e2a3dad5c095d5036ba777312decee637cc929ddf1b
            Exit Code:     0
            Finished At:   2022-03-24T10:24:07Z
            Reason:        Completed
            Started At:    2022-03-24T10:24:07Z
        Task Spec:
          Steps:
            Image:              python
            Image Pull Policy:  IfNotPresent
            Name:               s-start
            Resources:
            Script:  #!/usr/bin/env python3
import time
# Store initial timestamp
with open("/data/timestamps/socket/2to2/4MB/r2sent_start_ts.txt", 'a+') as fp_sent_s_ts:
   fp_sent_s_ts.write("%f\n" % time.time())
# Wait for the ready signal from external process
with open("/data/sync_pipe", "rb") as sync_pipe_file:
   while(int.from_bytes(sync_pipe_file.read(1), "little") != 1):
       continue
# Store final timestamp
with open("/data/timestamps/socket/2to2/4MB/r2sent_end_ts.txt", 'a+') as fp_sent_e_ts:
   fp_sent_e_ts.write("%f\n" % time.time())

            Image:              jupyter/scipy-notebook
            Image Pull Policy:  IfNotPresent
            Name:               read
            Resources:
            Script:  #!/usr/bin/env python3
import time
import gc
# Store initial timestamp
with open("/data/timestamps/socket/2to2/4MB/r2cont_start_ts.txt", 'a+') as fp_rcont_s_ts:
   fp_rcont_s_ts.write("%f\n" % time.time())
# Read data object from remote shared storage
with open("/data/in_data/out1.txt", "r") as fp_data1:
   data = fp_data1.read()
with open("/data/in_data/out2.txt", "r") as fp_data2:
   data = fp_data2.read()
# Store final timestamp
with open("/data/timestamps/socket/2to2/4MB/r2cont_end_ts.txt", 'a+') as fp_rcont_e_ts:
   fp_rcont_e_ts.write("%f\n" % time.time())
#print("READER: Read %d x chars" % len(data))

          Workspaces:
            Mount Path:  /data
            Name:        read2-ws
    write-read-array-pipeline-run-l7xr7-write1-task-9mjzk:
      Pipeline Task Name:  write1-task
      Status:
        Completion Time:  2022-03-24T10:23:59Z
        Conditions:
          Last Transition Time:  2022-03-24T10:23:59Z
          Message:               All Steps have completed executing
          Reason:                Succeeded
          Status:                True
          Type:                  Succeeded
        Pod Name:                write-read-array-pipeline-run-l7xr7-write1-task-9mjzk-pod-9m7h5
        Start Time:              2022-03-24T10:23:43Z
        Steps:
          Container:  step-write
          Image ID:   docker-pullable://jupyter/scipy-notebook@sha256:87b339ec6a62b283d0c2aee1446e7bc2e5ad03a80d49d2dfddb031b233aedd29
          Name:       write
          Terminated:
            Container ID:  docker://9a02cea6e63f283c5b0d996ff8f1dcac7a8efdd3ab0726386910f4d74bfe31d1
            Exit Code:     0
            Finished At:   2022-03-24T10:23:57Z
            Reason:        Completed
            Started At:    2022-03-24T10:23:57Z
          Container:       step-s-end
          Image ID:        docker-pullable://python@sha256:c90e15c86e2ebe71244a2a51bc7f094554422c159ce309a6faadb6debd5a6df0
          Name:            s-end
          Terminated:
            Container ID:  docker://e3acf5310515c93514d9a274ff132286ddc57981aa1d2de6ff9bdd938dbff241
            Exit Code:     0
            Finished At:   2022-03-24T10:23:58Z
            Reason:        Completed
            Started At:    2022-03-24T10:23:57Z
        Task Spec:
          Steps:
            Image:              jupyter/scipy-notebook
            Image Pull Policy:  IfNotPresent
            Name:               write
            Resources:
            Script:  #!/usr/bin/env python3
import time
# Store initial timestamp
with open("/data/timestamps/socket/2to2/4MB/w1cont_start_ts.txt", 'a+') as fp_wcont_s_ts:
   fp_wcont_s_ts.write("%f\n" % time.time())
# Create data object
string = 'x' * 4194304
# Store timestamp after data creation
with open("/data/timestamps/socket/2to2/4MB/w1cont_data_end_ts.txt", 'a+') as fp_wcont_data_ts:
   fp_wcont_data_ts.write("%f\n" % time.time())
# Write data object on the local pv
with open("/data/out_data/out1.txt", 'w') as fp_data:
   fp_data.write("%s" % string)
# Store final timestamp
with open("/data/timestamps/socket/2to2/4MB/w1cont_end_ts.txt", 'a+') as fp_wcont_e_ts:
   fp_wcont_e_ts.write("%f\n" % time.time())
#print("WRITER: Written out1!")

            Image:              python
            Image Pull Policy:  IfNotPresent
            Name:               s-end
            Resources:
            Script:  #!/usr/bin/env python3
import os
import time
# Store initial timestamp
with open("/data/timestamps/socket/2to2/4MB/w1sent_start_ts.txt", 'a+') as fp_sent_s_ts:
   fp_sent_s_ts.write("%f\n" % time.time())
# Writes ready signal to sync pipe
os.system("echo 1 > /data/sync_pipe")
# Store final timestamp
with open("/data/timestamps/socket/2to2/4MB/w1sent_end_ts.txt", 'a+') as fp_sent_e_ts:
   fp_sent_e_ts.write("%f\n" % time.time())
#print("WRITER: Finished!")

          Workspaces:
            Mount Path:  /data
            Name:        write1-ws
    write-read-array-pipeline-run-l7xr7-write2-task-6nxgn:
      Pipeline Task Name:  write2-task
      Status:
        Completion Time:  2022-03-24T10:23:54Z
        Conditions:
          Last Transition Time:  2022-03-24T10:23:54Z
          Message:               All Steps have completed executing
          Reason:                Succeeded
          Status:                True
          Type:                  Succeeded
        Pod Name:                write-read-array-pipeline-run-l7xr7-write2-task-6nxgn-pod-fdqb5
        Start Time:              2022-03-24T10:23:43Z
        Steps:
          Container:  step-write
          Image ID:   docker-pullable://jupyter/scipy-notebook@sha256:87b339ec6a62b283d0c2aee1446e7bc2e5ad03a80d49d2dfddb031b233aedd29
          Name:       write
          Terminated:
            Container ID:  docker://344a64151b4fae5fba21560b23c805e07a0ad86bb1d1dd83ecc54949c37bf03a
            Exit Code:     0
            Finished At:   2022-03-24T10:23:52Z
            Reason:        Completed
            Started At:    2022-03-24T10:23:52Z
          Container:       step-s-end
          Image ID:        docker-pullable://python@sha256:c90e15c86e2ebe71244a2a51bc7f094554422c159ce309a6faadb6debd5a6df0
          Name:            s-end
          Terminated:
            Container ID:  docker://c15e483d293d3c71dc3dd4de4c5d46478f64914557114bf77600d6623a44667a
            Exit Code:     0
            Finished At:   2022-03-24T10:23:52Z
            Reason:        Completed
            Started At:    2022-03-24T10:23:52Z
        Task Spec:
          Steps:
            Image:              jupyter/scipy-notebook
            Image Pull Policy:  IfNotPresent
            Name:               write
            Resources:
            Script:  #!/usr/bin/env python3
import time
# Store initial timestamp
with open("/data/timestamps/socket/2to2/4MB/w2cont_start_ts.txt", 'a+') as fp_wcont_s_ts:
   fp_wcont_s_ts.write("%f\n" % time.time())
# Create data object
string = 'x' * 4194304
# Store timestamp after data creation
with open("/data/timestamps/socket/2to2/4MB/w2cont_data_end_ts.txt", 'a+') as fp_wcont_data_ts:
   fp_wcont_data_ts.write("%f\n" % time.time())
# Write data object on the local pv
with open("/data/out_data/out2.txt", 'w') as fp_data:
   fp_data.write("%s" % string)
# Store final timestamp
with open("/data/timestamps/socket/2to2/4MB/w2cont_end_ts.txt", 'a+') as fp_wcont_e_ts:
   fp_wcont_e_ts.write("%f\n" % time.time())
#print("WRITER: Written out1!")

            Image:              python
            Image Pull Policy:  IfNotPresent
            Name:               s-end
            Resources:
            Script:  #!/usr/bin/env python3
import os
import time
# Store initial timestamp
with open("/data/timestamps/socket/2to2/4MB/w2sent_start_ts.txt", 'a+') as fp_sent_s_ts:
   fp_sent_s_ts.write("%f\n" % time.time())
# Writes ready signal to sync pipe
os.system("echo 1 > /data/sync_pipe")
# Store final timestamp
with open("/data/timestamps/socket/2to2/4MB/w2sent_end_ts.txt", 'a+') as fp_sent_e_ts:
   fp_sent_e_ts.write("%f\n" % time.time())
#print("WRITER: Finished!")

          Workspaces:
            Mount Path:  /data
            Name:        write2-ws
Events:
  Type    Reason     Age                From         Message
  ----    ------     ----               ----         -------
  Normal  Started    35s                PipelineRun  
  Normal  Running    35s                PipelineRun  Tasks Completed: 0 (Failed: 0, Cancelled 0), Incomplete: 4, Skipped: 0
  Normal  Running    24s                PipelineRun  Tasks Completed: 1 (Failed: 0, Cancelled 0), Incomplete: 3, Skipped: 0
  Normal  Running    19s (x2 over 19s)  PipelineRun  Tasks Completed: 2 (Failed: 0, Cancelled 0), Incomplete: 2, Skipped: 0
  Normal  Running    11s                PipelineRun  Tasks Completed: 3 (Failed: 0, Cancelled 0), Incomplete: 1, Skipped: 0
  Normal  Succeeded  8s                 PipelineRun  Tasks Completed: 4 (Failed: 0, Cancelled 0), Skipped: 0
