Name:         write-read-array-pipeline-run-v55ww
Namespace:    default
Labels:       tekton.dev/pipeline=write-read-array-pipeline
Annotations:  <none>
API Version:  tekton.dev/v1beta1
Kind:         PipelineRun
Metadata:
  Creation Timestamp:  2022-03-12T22:12:07Z
  Generate Name:       write-read-array-pipeline-run-
  Generation:          1
  Managed Fields:
    API Version:  tekton.dev/v1beta1
    Fields Type:  FieldsV1
    fieldsV1:
      f:metadata:
        f:generateName:
      f:spec:
        .:
        f:pipelineRef:
          .:
          f:name:
        f:taskRunSpecs:
        f:workspaces:
    Manager:      kubectl-create
    Operation:    Update
    Time:         2022-03-12T22:12:07Z
    API Version:  tekton.dev/v1beta1
    Fields Type:  FieldsV1
    fieldsV1:
      f:metadata:
        f:annotations:
          .:
          f:kubectl.kubernetes.io/last-applied-configuration:
        f:labels:
          .:
          f:tekton.dev/pipeline:
      f:status:
        .:
        f:completionTime:
        f:conditions:
        f:pipelineSpec:
          .:
          f:tasks:
          f:workspaces:
        f:startTime:
        f:taskRuns:
          .:
          f:write-read-array-pipeline-run-v55ww-read1-task-l4jwk:
            .:
            f:pipelineTaskName:
            f:status:
              .:
              f:completionTime:
              f:conditions:
              f:podName:
              f:startTime:
              f:steps:
              f:taskSpec:
                .:
                f:steps:
                f:workspaces:
          f:write-read-array-pipeline-run-v55ww-write1-task-dlhs8:
            .:
            f:pipelineTaskName:
            f:status:
              .:
              f:completionTime:
              f:conditions:
              f:podName:
              f:startTime:
              f:steps:
              f:taskSpec:
                .:
                f:steps:
                f:workspaces:
          f:write-read-array-pipeline-run-v55ww-write2-task-9k67s:
            .:
            f:pipelineTaskName:
            f:status:
              .:
              f:completionTime:
              f:conditions:
              f:podName:
              f:startTime:
              f:steps:
              f:taskSpec:
                .:
                f:steps:
                f:workspaces:
    Manager:         controller
    Operation:       Update
    Time:            2022-03-12T22:12:41Z
  Resource Version:  16379911
  Self Link:         /apis/tekton.dev/v1beta1/namespaces/default/pipelineruns/write-read-array-pipeline-run-v55ww
  UID:               1b852db5-745a-4431-92f1-563fb8e12f55
Spec:
  Pipeline Ref:
    Name:                write-read-array-pipeline
  Service Account Name:  default
  Task Run Specs:
    Pipeline Task Name:  write1-task
    Task Pod Template:
      Node Selector:
        kubernetes.io/hostname:  k8s-worker-node1
    Pipeline Task Name:          write2-task
    Task Pod Template:
      Node Selector:
        kubernetes.io/hostname:  k8s-worker-node2
    Pipeline Task Name:          read1-task
    Task Pod Template:
      Node Selector:
        kubernetes.io/hostname:  k8s-worker-node3
  Timeout:                       1h0m0s
  Workspaces:
    Name:  task-write1-ws
    Persistent Volume Claim:
      Claim Name:  task1-pv-claim
    Name:          task-write2-ws
    Persistent Volume Claim:
      Claim Name:  task2-pv-claim
    Name:          task-read1-ws
    Persistent Volume Claim:
      Claim Name:  task3-pv-claim
Status:
  Completion Time:  2022-03-12T22:12:41Z
  Conditions:
    Last Transition Time:  2022-03-12T22:12:41Z
    Message:               Tasks Completed: 3 (Failed: 0, Cancelled 0), Skipped: 0
    Reason:                Succeeded
    Status:                True
    Type:                  Succeeded
  Pipeline Spec:
    Tasks:
      Name:  write1-task
      Task Ref:
        Kind:  Task
        Name:  write1
      Workspaces:
        Name:       write1-ws
        Workspace:  task-write1-ws
      Name:         write2-task
      Task Ref:
        Kind:  Task
        Name:  write2
      Workspaces:
        Name:       write2-ws
        Workspace:  task-write2-ws
      Name:         read1-task
      Run After:
        write1-task
        write2-task
      Task Ref:
        Kind:  Task
        Name:  read1
      Workspaces:
        Name:       read1-ws
        Workspace:  task-read1-ws
    Workspaces:
      Name:    task-write1-ws
      Name:    task-write2-ws
      Name:    task-read1-ws
  Start Time:  2022-03-12T22:12:07Z
  Task Runs:
    write-read-array-pipeline-run-v55ww-read1-task-l4jwk:
      Pipeline Task Name:  read1-task
      Status:
        Completion Time:  2022-03-12T22:12:41Z
        Conditions:
          Last Transition Time:  2022-03-12T22:12:41Z
          Message:               All Steps have completed executing
          Reason:                Succeeded
          Status:                True
          Type:                  Succeeded
        Pod Name:                write-read-array-pipeline-run-v55ww-read1-task-l4jwk-pod-jt6ng
        Start Time:              2022-03-12T22:12:25Z
        Steps:
          Container:  step-s-start
          Image ID:   docker-pullable://python@sha256:c90e15c86e2ebe71244a2a51bc7f094554422c159ce309a6faadb6debd5a6df0
          Name:       s-start
          Terminated:
            Container ID:  docker://fe53d64ecb9c3c81b8a906d1a3ee5e8b39cbbc19055f56f5c66872aae6d740cd
            Exit Code:     0
            Finished At:   2022-03-12T22:12:35Z
            Reason:        Completed
            Started At:    2022-03-12T22:12:35Z
          Container:       step-read
          Image ID:        docker-pullable://jupyter/scipy-notebook@sha256:87b339ec6a62b283d0c2aee1446e7bc2e5ad03a80d49d2dfddb031b233aedd29
          Name:            read
          Terminated:
            Container ID:  docker://5f6cee5fe1d163498f0782a7525c682aac07f4d6fad352127ffbabee1f55a432
            Exit Code:     0
            Finished At:   2022-03-12T22:12:40Z
            Reason:        Completed
            Started At:    2022-03-12T22:12:36Z
        Task Spec:
          Steps:
            Image:              python
            Image Pull Policy:  IfNotPresent
            Name:               s-start
            Resources:
            Script:  #!/usr/bin/env python3
import time
# Store initial timestamp
with open("/data/timestamps/socket/2to1/1GB/r1sent_start_ts.txt", 'a+') as fp_sent_s_ts:
   fp_sent_s_ts.write("%f" % time.time())
# Wait for the ready signal from external process
with open("/data/sync_pipe", "rb") as sync_pipe_file:
   while(int.from_bytes(sync_pipe_file.read(1), "little") != 1):
       continue
# Store final timestamp
with open("/data/timestamps/socket/2to1/1GB/r1sent_end_ts.txt", 'a+') as fp_sent_e_ts:
   fp_sent_e_ts.write("%f" % time.time())

            Image:              jupyter/scipy-notebook
            Image Pull Policy:  IfNotPresent
            Name:               read
            Resources:
            Script:  #!/usr/bin/env python3
import time
# Store initial timestamp
with open("/data/timestamps/socket/2to1/1GB/r1cont_start_ts.txt", 'a+') as fp_rcont_s_ts:
   fp_rcont_s_ts.write("%f" % time.time())
# Read data object from remote shared storage
with open("/data/in_data/out1.txt", "r") as fp_data1:
   data = fp_data1.read()
   del data
with open("/data/in_data/out2.txt", "r") as fp_data2:
   data = fp_data2.read()
   del data
# Store final timestamp
with open("/data/timestamps/socket/2to1/1GB/r1cont_end_ts.txt", 'a+') as fp_rcont_e_ts:
   fp_rcont_e_ts.write("%f" % time.time())
#print("READER: Read %d x chars" % len(data))

          Workspaces:
            Mount Path:  /data
            Name:        read1-ws
    write-read-array-pipeline-run-v55ww-write1-task-dlhs8:
      Pipeline Task Name:  write1-task
      Status:
        Completion Time:  2022-03-12T22:12:24Z
        Conditions:
          Last Transition Time:  2022-03-12T22:12:24Z
          Message:               All Steps have completed executing
          Reason:                Succeeded
          Status:                True
          Type:                  Succeeded
        Pod Name:                write-read-array-pipeline-run-v55ww-write1-task-dlhs8-pod-sb2z8
        Start Time:              2022-03-12T22:12:07Z
        Steps:
          Container:  step-write
          Image ID:   docker-pullable://jupyter/scipy-notebook@sha256:87b339ec6a62b283d0c2aee1446e7bc2e5ad03a80d49d2dfddb031b233aedd29
          Name:       write
          Terminated:
            Container ID:  docker://44475b5fa09ded7cec850ce11968b2406cc102d53b5bef09cc0cb1dbcccd6e4d
            Exit Code:     0
            Finished At:   2022-03-12T22:12:23Z
            Reason:        Completed
            Started At:    2022-03-12T22:12:20Z
          Container:       step-s-end
          Image ID:        docker-pullable://python@sha256:c90e15c86e2ebe71244a2a51bc7f094554422c159ce309a6faadb6debd5a6df0
          Name:            s-end
          Terminated:
            Container ID:  docker://17064e044a5ffb9364727f5d90bf6ee48d283caca3045f59a19b0ce7f6ba221a
            Exit Code:     0
            Finished At:   2022-03-12T22:12:24Z
            Reason:        Completed
            Started At:    2022-03-12T22:12:23Z
        Task Spec:
          Steps:
            Image:              jupyter/scipy-notebook
            Image Pull Policy:  IfNotPresent
            Name:               write
            Resources:
            Script:  #!/usr/bin/env python3
import time
# Store initial timestamp
with open("/data/timestamps/socket/2to1/1GB/w1cont_start_ts.txt", 'a+') as fp_wcont_s_ts:
   fp_wcont_s_ts.write("%f" % time.time())
# Create data object
string = 'x' * 1073741824
# Store timestamp after data creation
with open("/data/timestamps/socket/2to1/1GB/w1cont_data_end_ts.txt", 'a+') as fp_wcont_data_ts:
   fp_wcont_data_ts.write("%f" % time.time())
# Write data object on the local pv
with open("/data/out_data/out1.txt", 'w') as fp_data:
   fp_data.write("%s" % string)
# Store final timestamp
with open("/data/timestamps/socket/2to1/1GB/w1cont_end_ts.txt", 'a+') as fp_wcont_e_ts:
   fp_wcont_e_ts.write("%f" % time.time())
#print("WRITER: Written out1!")

            Image:              python
            Image Pull Policy:  IfNotPresent
            Name:               s-end
            Resources:
            Script:  #!/usr/bin/env python3
import os
import time
# Store initial timestamp
with open("/data/timestamps/socket/2to1/1GB/w1sent_start_ts.txt", 'a+') as fp_sent_s_ts:
   fp_sent_s_ts.write("%f" % time.time())
# Writes ready signal to sync pipe
os.system("echo 1 > /data/sync_pipe")
# Store final timestamp
with open("/data/timestamps/socket/2to1/1GB/w1sent_end_ts.txt", 'a+') as fp_sent_e_ts:
   fp_sent_e_ts.write("%f" % time.time())
#print("WRITER: Finished!")

          Workspaces:
            Mount Path:  /data
            Name:        write1-ws
    write-read-array-pipeline-run-v55ww-write2-task-9k67s:
      Pipeline Task Name:  write2-task
      Status:
        Completion Time:  2022-03-12T22:12:22Z
        Conditions:
          Last Transition Time:  2022-03-12T22:12:22Z
          Message:               All Steps have completed executing
          Reason:                Succeeded
          Status:                True
          Type:                  Succeeded
        Pod Name:                write-read-array-pipeline-run-v55ww-write2-task-9k67s-pod-gtl4k
        Start Time:              2022-03-12T22:12:07Z
        Steps:
          Container:  step-write
          Image ID:   docker-pullable://jupyter/scipy-notebook@sha256:87b339ec6a62b283d0c2aee1446e7bc2e5ad03a80d49d2dfddb031b233aedd29
          Name:       write
          Terminated:
            Container ID:  docker://ed2c66d4f682264a7955fd065c08a741cd425cff0aa77b280960a6298067019f
            Exit Code:     0
            Finished At:   2022-03-12T22:12:20Z
            Reason:        Completed
            Started At:    2022-03-12T22:12:18Z
          Container:       step-s-end
          Image ID:        docker-pullable://python@sha256:c90e15c86e2ebe71244a2a51bc7f094554422c159ce309a6faadb6debd5a6df0
          Name:            s-end
          Terminated:
            Container ID:  docker://819cf73015e52931725ac735b0ef123947877e96a0183fd0c1d623e1d93804d4
            Exit Code:     0
            Finished At:   2022-03-12T22:12:20Z
            Reason:        Completed
            Started At:    2022-03-12T22:12:20Z
        Task Spec:
          Steps:
            Image:              jupyter/scipy-notebook
            Image Pull Policy:  IfNotPresent
            Name:               write
            Resources:
            Script:  #!/usr/bin/env python3
import time
# Store initial timestamp
with open("/data/timestamps/socket/2to1/1GB/w2cont_start_ts.txt", 'a+') as fp_wcont_s_ts:
   fp_wcont_s_ts.write("%f" % time.time())
# Create data object
string = 'x' * 1073741824
# Store timestamp after data creation
with open("/data/timestamps/socket/2to1/1GB/w2cont_data_end_ts.txt", 'a+') as fp_wcont_data_ts:
   fp_wcont_data_ts.write("%f" % time.time())
# Write data object on the local pv
with open("/data/out_data/out2.txt", 'w') as fp_data:
   fp_data.write("%s" % string)
# Store final timestamp
with open("/data/timestamps/socket/2to1/1GB/w2cont_end_ts.txt", 'a+') as fp_wcont_e_ts:
   fp_wcont_e_ts.write("%f" % time.time())
#print("WRITER: Written out1!")

            Image:              python
            Image Pull Policy:  IfNotPresent
            Name:               s-end
            Resources:
            Script:  #!/usr/bin/env python3
import os
import time
# Store initial timestamp
with open("/data/timestamps/socket/2to1/1GB/w2sent_start_ts.txt", 'a+') as fp_sent_s_ts:
   fp_sent_s_ts.write("%f" % time.time())
# Writes ready signal to sync pipe
os.system("echo 1 > /data/sync_pipe")
# Store final timestamp
with open("/data/timestamps/socket/2to1/1GB/w2sent_end_ts.txt", 'a+') as fp_sent_e_ts:
   fp_sent_e_ts.write("%f" % time.time())
#print("WRITER: Finished!")

          Workspaces:
            Mount Path:  /data
            Name:        write2-ws
Events:
  Type    Reason     Age                From         Message
  ----    ------     ----               ----         -------
  Normal  Started    41s (x2 over 41s)  PipelineRun  
  Normal  Running    41s (x2 over 41s)  PipelineRun  Tasks Completed: 0 (Failed: 0, Cancelled 0), Incomplete: 3, Skipped: 0
  Normal  Running    26s                PipelineRun  Tasks Completed: 1 (Failed: 0, Cancelled 0), Incomplete: 2, Skipped: 0
  Normal  Running    24s (x2 over 24s)  PipelineRun  Tasks Completed: 2 (Failed: 0, Cancelled 0), Incomplete: 1, Skipped: 0
  Normal  Succeeded  7s                 PipelineRun  Tasks Completed: 3 (Failed: 0, Cancelled 0), Skipped: 0
