Name:         write-read-array-pipeline-run-qst46
Namespace:    default
Labels:       tekton.dev/pipeline=write-read-array-pipeline
Annotations:  <none>
API Version:  tekton.dev/v1beta1
Kind:         PipelineRun
Metadata:
  Creation Timestamp:  2022-03-12T02:25:27Z
  Generate Name:       write-read-array-pipeline-run-
  Generation:          1
  Managed Fields:
    API Version:  tekton.dev/v1beta1
    Fields Type:  FieldsV1
    fieldsV1:
      f:metadata:
        f:generateName:
      f:spec:
        .:
        f:pipelineRef:
          .:
          f:name:
        f:taskRunSpecs:
        f:workspaces:
    Manager:      kubectl-create
    Operation:    Update
    Time:         2022-03-12T02:25:27Z
    API Version:  tekton.dev/v1beta1
    Fields Type:  FieldsV1
    fieldsV1:
      f:metadata:
        f:annotations:
          .:
          f:kubectl.kubernetes.io/last-applied-configuration:
        f:labels:
          .:
          f:tekton.dev/pipeline:
      f:status:
        .:
        f:completionTime:
        f:conditions:
        f:pipelineSpec:
          .:
          f:tasks:
          f:workspaces:
        f:startTime:
        f:taskRuns:
          .:
          f:write-read-array-pipeline-run-qst46-read1-task-dnn9q:
            .:
            f:pipelineTaskName:
            f:status:
              .:
              f:completionTime:
              f:conditions:
              f:podName:
              f:startTime:
              f:steps:
              f:taskSpec:
                .:
                f:steps:
                f:workspaces:
          f:write-read-array-pipeline-run-qst46-read2-task-xc7pr:
            .:
            f:pipelineTaskName:
            f:status:
              .:
              f:completionTime:
              f:conditions:
              f:podName:
              f:startTime:
              f:steps:
              f:taskSpec:
                .:
                f:steps:
                f:workspaces:
          f:write-read-array-pipeline-run-qst46-read3-task-q5vr4:
            .:
            f:pipelineTaskName:
            f:status:
              .:
              f:completionTime:
              f:conditions:
              f:podName:
              f:startTime:
              f:steps:
              f:taskSpec:
                .:
                f:steps:
                f:workspaces:
          f:write-read-array-pipeline-run-qst46-read4-task-vrhwk:
            .:
            f:pipelineTaskName:
            f:status:
              .:
              f:completionTime:
              f:conditions:
              f:podName:
              f:startTime:
              f:steps:
              f:taskSpec:
                .:
                f:steps:
                f:workspaces:
          f:write-read-array-pipeline-run-qst46-write1-task-mmm9w:
            .:
            f:pipelineTaskName:
            f:status:
              .:
              f:completionTime:
              f:conditions:
              f:podName:
              f:startTime:
              f:steps:
              f:taskSpec:
                .:
                f:steps:
                f:workspaces:
    Manager:         controller
    Operation:       Update
    Time:            2022-03-12T02:29:02Z
  Resource Version:  14371102
  Self Link:         /apis/tekton.dev/v1beta1/namespaces/default/pipelineruns/write-read-array-pipeline-run-qst46
  UID:               20f5bf3a-d176-44b7-a2b6-f7ec73fd6542
Spec:
  Pipeline Ref:
    Name:                write-read-array-pipeline
  Service Account Name:  default
  Task Run Specs:
    Pipeline Task Name:  write1-task
    Task Pod Template:
      Node Selector:
        kubernetes.io/hostname:  k8s-worker-node1
    Pipeline Task Name:          read1-task
    Task Pod Template:
      Node Selector:
        kubernetes.io/hostname:  k8s-worker-node2
    Pipeline Task Name:          read2-task
    Task Pod Template:
      Node Selector:
        kubernetes.io/hostname:  k8s-worker-node3
    Pipeline Task Name:          read3-task
    Task Pod Template:
      Node Selector:
        kubernetes.io/hostname:  k8s-worker-node4
    Pipeline Task Name:          read4-task
    Task Pod Template:
      Node Selector:
        kubernetes.io/hostname:  k8s-worker-node5
  Timeout:                       1h0m0s
  Workspaces:
    Name:  task-write1-ws
    Persistent Volume Claim:
      Claim Name:  task1-pv-claim
    Name:          task-read1-ws
    Persistent Volume Claim:
      Claim Name:  task2-pv-claim
    Name:          task-read2-ws
    Persistent Volume Claim:
      Claim Name:  task3-pv-claim
    Name:          task-read3-ws
    Persistent Volume Claim:
      Claim Name:  task4-pv-claim
    Name:          task-read4-ws
    Persistent Volume Claim:
      Claim Name:  task5-pv-claim
Status:
  Completion Time:  2022-03-12T02:29:02Z
  Conditions:
    Last Transition Time:  2022-03-12T02:29:02Z
    Message:               Tasks Completed: 5 (Failed: 0, Cancelled 0), Skipped: 0
    Reason:                Succeeded
    Status:                True
    Type:                  Succeeded
  Pipeline Spec:
    Tasks:
      Name:  write1-task
      Task Ref:
        Kind:  Task
        Name:  write1
      Workspaces:
        Name:       write1-ws
        Workspace:  task-write1-ws
      Name:         read1-task
      Task Ref:
        Kind:  Task
        Name:  read1
      Workspaces:
        Name:       read1-ws
        Workspace:  task-read1-ws
      Name:         read2-task
      Task Ref:
        Kind:  Task
        Name:  read2
      Workspaces:
        Name:       read2-ws
        Workspace:  task-read2-ws
      Name:         read3-task
      Task Ref:
        Kind:  Task
        Name:  read3
      Workspaces:
        Name:       read3-ws
        Workspace:  task-read3-ws
      Name:         read4-task
      Task Ref:
        Kind:  Task
        Name:  read4
      Workspaces:
        Name:       read4-ws
        Workspace:  task-read4-ws
    Workspaces:
      Name:    task-write1-ws
      Name:    task-read1-ws
      Name:    task-read2-ws
      Name:    task-read3-ws
      Name:    task-read4-ws
  Start Time:  2022-03-12T02:25:27Z
  Task Runs:
    write-read-array-pipeline-run-qst46-read1-task-dnn9q:
      Pipeline Task Name:  read1-task
      Status:
        Completion Time:  2022-03-12T02:29:02Z
        Conditions:
          Last Transition Time:  2022-03-12T02:29:02Z
          Message:               All Steps have completed executing
          Reason:                Succeeded
          Status:                True
          Type:                  Succeeded
        Pod Name:                write-read-array-pipeline-run-qst46-read1-task-dnn9q-pod-2hb77
        Start Time:              2022-03-12T02:25:27Z
        Steps:
          Container:  step-read
          Image ID:   docker-pullable://jupyter/scipy-notebook@sha256:87b339ec6a62b283d0c2aee1446e7bc2e5ad03a80d49d2dfddb031b233aedd29
          Name:       read
          Terminated:
            Container ID:  docker://9c2825e748daf77512ec040272c88d55c066d4a6ada24904c00977f4c8c0429b
            Exit Code:     0
            Finished At:   2022-03-12T02:29:01Z
            Reason:        Completed
            Started At:    2022-03-12T02:25:35Z
        Task Spec:
          Steps:
            Image:              jupyter/scipy-notebook
            Image Pull Policy:  IfNotPresent
            Name:               read
            Resources:
            Script:  #!/usr/bin/env python3
import time
import os
# Store initial timestamp
with open("/data/timestamps/socket_pipe/1to4/16GB/r1cont_start_ts.txt", 'a+') as fp_rcont_s_ts:
   fp_rcont_s_ts.write("%f\n" % time.time())
buf_sz = 65536
ready = b'\x01'
sync_pipe = open("/data/sync_pipe", 'wb')
sync_pipe.write(ready)
sync_pipe.close()
#print("Written ready signal!")
# Read data object from data pipe
data_fifo = open('/data/data_pipe', 'rb')
data_length_bin = data_fifo.read(8)
data_length = int.from_bytes(data_length_bin, "big")
data = bytearray(0)
counter = 0
while counter < data_length:
   buff = data_fifo.read(buf_sz)
   counter += len(buff)
   data.extend(buff)
data_fifo.close()
# Store final timestamp
with open("/data/timestamps/socket_pipe/1to4/16GB/r1cont_end_ts.txt", 'a+') as fp_rcont_e_ts:
   fp_rcont_e_ts.write("%f\n" % time.time())
#print("READER: Read %d x chars" % len(data))

          Workspaces:
            Mount Path:  /data
            Name:        read1-ws
    write-read-array-pipeline-run-qst46-read2-task-xc7pr:
      Pipeline Task Name:  read2-task
      Status:
        Completion Time:  2022-03-12T02:29:02Z
        Conditions:
          Last Transition Time:  2022-03-12T02:29:02Z
          Message:               All Steps have completed executing
          Reason:                Succeeded
          Status:                True
          Type:                  Succeeded
        Pod Name:                write-read-array-pipeline-run-qst46-read2-task-xc7pr-pod-7m25d
        Start Time:              2022-03-12T02:25:27Z
        Steps:
          Container:  step-read
          Image ID:   docker-pullable://jupyter/scipy-notebook@sha256:87b339ec6a62b283d0c2aee1446e7bc2e5ad03a80d49d2dfddb031b233aedd29
          Name:       read
          Terminated:
            Container ID:  docker://d02c7132f11845c276a818273ca894fb43a05dfa27e7457d579e9da04aa2c8b7
            Exit Code:     0
            Finished At:   2022-03-12T02:29:01Z
            Reason:        Completed
            Started At:    2022-03-12T02:25:35Z
        Task Spec:
          Steps:
            Image:              jupyter/scipy-notebook
            Image Pull Policy:  IfNotPresent
            Name:               read
            Resources:
            Script:  #!/usr/bin/env python3
import time
import os
# Store initial timestamp
with open("/data/timestamps/socket_pipe/1to4/16GB/r2cont_start_ts.txt", 'a+') as fp_rcont_s_ts:
   fp_rcont_s_ts.write("%f\n" % time.time())
buf_sz = 65536
ready = b'\x01'
sync_pipe = open("/data/sync_pipe", 'wb')
sync_pipe.write(ready)
sync_pipe.close()
#print("Written ready signal!")
# Read data object from data pipe
data_fifo = open('/data/data_pipe', 'rb')
data_length_bin = data_fifo.read(8)
data_length = int.from_bytes(data_length_bin, "big")
data = bytearray(0)
counter = 0
while counter < data_length:
   buff = data_fifo.read(buf_sz)
   counter += len(buff)
   data.extend(buff)
data_fifo.close()
# Store final timestamp
with open("/data/timestamps/socket_pipe/1to4/16GB/r2cont_end_ts.txt", 'a+') as fp_rcont_e_ts:
   fp_rcont_e_ts.write("%f\n" % time.time())
#print("READER: Read %d x chars" % len(data))

          Workspaces:
            Mount Path:  /data
            Name:        read2-ws
    write-read-array-pipeline-run-qst46-read3-task-q5vr4:
      Pipeline Task Name:  read3-task
      Status:
        Completion Time:  2022-03-12T02:29:02Z
        Conditions:
          Last Transition Time:  2022-03-12T02:29:02Z
          Message:               All Steps have completed executing
          Reason:                Succeeded
          Status:                True
          Type:                  Succeeded
        Pod Name:                write-read-array-pipeline-run-qst46-read3-task-q5vr4-pod-ldbvs
        Start Time:              2022-03-12T02:25:27Z
        Steps:
          Container:  step-read
          Image ID:   docker-pullable://jupyter/scipy-notebook@sha256:87b339ec6a62b283d0c2aee1446e7bc2e5ad03a80d49d2dfddb031b233aedd29
          Name:       read
          Terminated:
            Container ID:  docker://69e4809aac2a621facdca4ad508c20f1706844721884a1cd7cf57db4aec4b967
            Exit Code:     0
            Finished At:   2022-03-12T02:29:01Z
            Reason:        Completed
            Started At:    2022-03-12T02:25:35Z
        Task Spec:
          Steps:
            Image:              jupyter/scipy-notebook
            Image Pull Policy:  IfNotPresent
            Name:               read
            Resources:
            Script:  #!/usr/bin/env python3
import time
import os
# Store initial timestamp
with open("/data/timestamps/socket_pipe/1to4/16GB/r3cont_start_ts.txt", 'a+') as fp_rcont_s_ts:
   fp_rcont_s_ts.write("%f\n" % time.time())
buf_sz = 65536
ready = b'\x01'
sync_pipe = open("/data/sync_pipe", 'wb')
sync_pipe.write(ready)
sync_pipe.close()
#print("Written ready signal!")
# Read data object from data pipe
data_fifo = open('/data/data_pipe', 'rb')
data_length_bin = data_fifo.read(8)
data_length = int.from_bytes(data_length_bin, "big")
data = bytearray(0)
counter = 0
while counter < data_length:
   buff = data_fifo.read(buf_sz)
   counter += len(buff)
   data.extend(buff)
data_fifo.close()
# Store final timestamp
with open("/data/timestamps/socket_pipe/1to4/16GB/r3cont_end_ts.txt", 'a+') as fp_rcont_e_ts:
   fp_rcont_e_ts.write("%f\n" % time.time())
#print("READER: Read %d x chars" % len(data))

          Workspaces:
            Mount Path:  /data
            Name:        read3-ws
    write-read-array-pipeline-run-qst46-read4-task-vrhwk:
      Pipeline Task Name:  read4-task
      Status:
        Completion Time:  2022-03-12T02:29:02Z
        Conditions:
          Last Transition Time:  2022-03-12T02:29:02Z
          Message:               All Steps have completed executing
          Reason:                Succeeded
          Status:                True
          Type:                  Succeeded
        Pod Name:                write-read-array-pipeline-run-qst46-read4-task-vrhwk-pod-xvpz5
        Start Time:              2022-03-12T02:25:29Z
        Steps:
          Container:  step-read
          Image ID:   docker-pullable://jupyter/scipy-notebook@sha256:87b339ec6a62b283d0c2aee1446e7bc2e5ad03a80d49d2dfddb031b233aedd29
          Name:       read
          Terminated:
            Container ID:  docker://20f4adb9ee273fbb15a9a8713d4c484d7a13185d92f16185e2bfea65885944d7
            Exit Code:     0
            Finished At:   2022-03-12T02:29:01Z
            Reason:        Completed
            Started At:    2022-03-12T02:25:36Z
        Task Spec:
          Steps:
            Image:              jupyter/scipy-notebook
            Image Pull Policy:  IfNotPresent
            Name:               read
            Resources:
            Script:  #!/usr/bin/env python3
import time
import os
# Store initial timestamp
with open("/data/timestamps/socket_pipe/1to4/16GB/r4cont_start_ts.txt", 'a+') as fp_rcont_s_ts:
   fp_rcont_s_ts.write("%f\n" % time.time())
buf_sz = 65536
ready = b'\x01'
sync_pipe = open("/data/sync_pipe", 'wb')
sync_pipe.write(ready)
sync_pipe.close()
#print("Written ready signal!")
# Read data object from data pipe
data_fifo = open('/data/data_pipe', 'rb')
data_length_bin = data_fifo.read(8)
data_length = int.from_bytes(data_length_bin, "big")
data = bytearray(0)
counter = 0
while counter < data_length:
   buff = data_fifo.read(buf_sz)
   counter += len(buff)
   data.extend(buff)
data_fifo.close()
# Store final timestamp
with open("/data/timestamps/socket_pipe/1to4/16GB/r4cont_end_ts.txt", 'a+') as fp_rcont_e_ts:
   fp_rcont_e_ts.write("%f\n" % time.time())
#print("READER: Read %d x chars" % len(data))

          Workspaces:
            Mount Path:  /data
            Name:        read4-ws
    write-read-array-pipeline-run-qst46-write1-task-mmm9w:
      Pipeline Task Name:  write1-task
      Status:
        Completion Time:  2022-03-12T02:29:01Z
        Conditions:
          Last Transition Time:  2022-03-12T02:29:01Z
          Message:               All Steps have completed executing
          Reason:                Succeeded
          Status:                True
          Type:                  Succeeded
        Pod Name:                write-read-array-pipeline-run-qst46-write1-task-mmm9w-pod-wjs7g
        Start Time:              2022-03-12T02:25:27Z
        Steps:
          Container:  step-write
          Image ID:   docker-pullable://jupyter/scipy-notebook@sha256:87b339ec6a62b283d0c2aee1446e7bc2e5ad03a80d49d2dfddb031b233aedd29
          Name:       write
          Terminated:
            Container ID:  docker://193b27c90c18d4414a913f07c157d374707431594134a900afbd2cd3861b9693
            Exit Code:     0
            Finished At:   2022-03-12T02:29:01Z
            Reason:        Completed
            Started At:    2022-03-12T02:25:36Z
        Task Spec:
          Steps:
            Image:              jupyter/scipy-notebook
            Image Pull Policy:  IfNotPresent
            Name:               write
            Resources:
            Script:  #!/usr/bin/env python3
import time
# Store initial timestamp
with open("/data/timestamps/socket_pipe/1to4/16GB/w1cont_start_ts.txt", 'a+') as fp_wcont_s_ts:
   fp_wcont_s_ts.write("%f\n" % time.time())
# Create data object
# string = 'x' * 17179869184
data_as_bytes = bytearray(b'\x78') * 17179869184
#data_as_bytes = str.encode(string)
data_dim = 17179869184
data_dim_bin = data_dim.to_bytes(8, "big")
# Store timestamp after data creation
with open("/data/timestamps/socket_pipe/1to4/16GB/w1cont_data_end_ts.txt", 'a+') as fp_wcont_data_ts:
   fp_wcont_data_ts.write("%f\n" % time.time())
# Write data object on pipe
data_fifo = open('/data/data_pipe', 'wb') 
data_fifo.write(data_dim_bin)
data_fifo.write(data_as_bytes) 
data_fifo.close()
# Store final timestamp
with open("/data/timestamps/socket_pipe/1to4/16GB/w1cont_end_ts.txt", 'a+') as fp_wcont_e_ts:
   fp_wcont_e_ts.write("%f\n" % time.time())

          Workspaces:
            Mount Path:  /data
            Name:        write1-ws
Events:
  Type    Reason     Age                    From         Message
  ----    ------     ----                   ----         -------
  Normal  Started    3m41s (x2 over 3m41s)  PipelineRun  
  Normal  Running    3m41s (x2 over 3m41s)  PipelineRun  Tasks Completed: 0 (Failed: 0, Cancelled 0), Incomplete: 5, Skipped: 0
  Normal  Running    7s                     PipelineRun  Tasks Completed: 1 (Failed: 0, Cancelled 0), Incomplete: 4, Skipped: 0
  Normal  Running    6s                     PipelineRun  Tasks Completed: 2 (Failed: 0, Cancelled 0), Incomplete: 3, Skipped: 0
  Normal  Running    6s                     PipelineRun  Tasks Completed: 3 (Failed: 0, Cancelled 0), Incomplete: 2, Skipped: 0
  Normal  Running    6s                     PipelineRun  Tasks Completed: 4 (Failed: 0, Cancelled 0), Incomplete: 1, Skipped: 0
  Normal  Succeeded  6s (x2 over 6s)        PipelineRun  Tasks Completed: 5 (Failed: 0, Cancelled 0), Skipped: 0
