Name:         write-read-array-minio-pipeline-run-rf2z2
Namespace:    default
Labels:       tekton.dev/pipeline=write-read-array-minio-pipeline
Annotations:  <none>
API Version:  tekton.dev/v1beta1
Kind:         PipelineRun
Metadata:
  Creation Timestamp:  2022-06-29T06:38:07Z
  Generate Name:       write-read-array-minio-pipeline-run-
  Generation:          1
  Managed Fields:
    API Version:  tekton.dev/v1beta1
    Fields Type:  FieldsV1
    fieldsV1:
      f:metadata:
        f:generateName:
      f:spec:
        .:
        f:pipelineRef:
          .:
          f:name:
        f:taskRunSpecs:
        f:workspaces:
    Manager:      kubectl-create
    Operation:    Update
    Time:         2022-06-29T06:38:07Z
    API Version:  tekton.dev/v1beta1
    Fields Type:  FieldsV1
    fieldsV1:
      f:metadata:
        f:annotations:
          .:
          f:kubectl.kubernetes.io/last-applied-configuration:
        f:labels:
          .:
          f:tekton.dev/pipeline:
      f:status:
        .:
        f:completionTime:
        f:conditions:
        f:pipelineSpec:
          .:
          f:tasks:
          f:workspaces:
        f:startTime:
        f:taskRuns:
          .:
          f:write-read-array-minio-pipeline-run-rf2z2-read1-task-np8jh:
            .:
            f:pipelineTaskName:
            f:status:
              .:
              f:completionTime:
              f:conditions:
              f:podName:
              f:startTime:
              f:steps:
              f:taskSpec:
                .:
                f:steps:
                f:workspaces:
          f:write-read-array-minio-pipeline-run-rf2z2-write1-task-gbk6g:
            .:
            f:pipelineTaskName:
            f:status:
              .:
              f:completionTime:
              f:conditions:
              f:podName:
              f:startTime:
              f:steps:
              f:taskSpec:
                .:
                f:steps:
                f:workspaces:
          f:write-read-array-minio-pipeline-run-rf2z2-write2-task-dqsxq:
            .:
            f:pipelineTaskName:
            f:status:
              .:
              f:completionTime:
              f:conditions:
              f:podName:
              f:startTime:
              f:steps:
              f:taskSpec:
                .:
                f:steps:
                f:workspaces:
          f:write-read-array-minio-pipeline-run-rf2z2-write3-task-twhjc:
            .:
            f:pipelineTaskName:
            f:status:
              .:
              f:completionTime:
              f:conditions:
              f:podName:
              f:startTime:
              f:steps:
              f:taskSpec:
                .:
                f:steps:
                f:workspaces:
          f:write-read-array-minio-pipeline-run-rf2z2-write4-task-77x4b:
            .:
            f:pipelineTaskName:
            f:status:
              .:
              f:completionTime:
              f:conditions:
              f:podName:
              f:startTime:
              f:steps:
              f:taskSpec:
                .:
                f:steps:
                f:workspaces:
    Manager:         controller
    Operation:       Update
    Time:            2022-06-29T06:38:50Z
  Resource Version:  256020403
  Self Link:         /apis/tekton.dev/v1beta1/namespaces/default/pipelineruns/write-read-array-minio-pipeline-run-rf2z2
  UID:               b80ce2c2-5c20-422b-8947-411db5def147
Spec:
  Pipeline Ref:
    Name:                write-read-array-minio-pipeline
  Service Account Name:  default
  Task Run Specs:
    Pipeline Task Name:  write1-task
    Task Pod Template:
      Node Selector:
        kubernetes.io/hostname:  k8s-worker-node1
    Pipeline Task Name:          write2-task
    Task Pod Template:
      Node Selector:
        kubernetes.io/hostname:  k8s-worker-node2
    Pipeline Task Name:          write3-task
    Task Pod Template:
      Node Selector:
        kubernetes.io/hostname:  k8s-worker-node3
    Pipeline Task Name:          write4-task
    Task Pod Template:
      Node Selector:
        kubernetes.io/hostname:  k8s-worker-node4
    Pipeline Task Name:          read1-task
    Task Pod Template:
      Node Selector:
        kubernetes.io/hostname:  k8s-worker-node5
  Timeout:                       1h0m0s
  Workspaces:
    Name:  task-write1-ws
    Persistent Volume Claim:
      Claim Name:  task1-pv-claim
    Name:          task-write2-ws
    Persistent Volume Claim:
      Claim Name:  task2-pv-claim
    Name:          task-write3-ws
    Persistent Volume Claim:
      Claim Name:  task3-pv-claim
    Name:          task-write4-ws
    Persistent Volume Claim:
      Claim Name:  task4-pv-claim
    Name:          task-read1-ws
    Persistent Volume Claim:
      Claim Name:  task5-pv-claim
Status:
  Completion Time:  2022-06-29T06:38:50Z
  Conditions:
    Last Transition Time:  2022-06-29T06:38:50Z
    Message:               Tasks Completed: 5 (Failed: 0, Cancelled 0), Skipped: 0
    Reason:                Succeeded
    Status:                True
    Type:                  Succeeded
  Pipeline Spec:
    Tasks:
      Name:  write1-task
      Task Ref:
        Kind:  Task
        Name:  write1
      Workspaces:
        Name:       write1-ws
        Workspace:  task-write1-ws
      Name:         write2-task
      Task Ref:
        Kind:  Task
        Name:  write2
      Workspaces:
        Name:       write2-ws
        Workspace:  task-write2-ws
      Name:         write3-task
      Task Ref:
        Kind:  Task
        Name:  write3
      Workspaces:
        Name:       write3-ws
        Workspace:  task-write3-ws
      Name:         write4-task
      Task Ref:
        Kind:  Task
        Name:  write4
      Workspaces:
        Name:       write4-ws
        Workspace:  task-write4-ws
      Name:         read1-task
      Run After:
        write1-task
        write2-task
        write3-task
        write4-task
      Task Ref:
        Kind:  Task
        Name:  read1
      Workspaces:
        Name:       read1-ws
        Workspace:  task-read1-ws
    Workspaces:
      Name:    task-write1-ws
      Name:    task-write2-ws
      Name:    task-write3-ws
      Name:    task-write4-ws
      Name:    task-read1-ws
  Start Time:  2022-06-29T06:38:07Z
  Task Runs:
    write-read-array-minio-pipeline-run-rf2z2-read1-task-np8jh:
      Pipeline Task Name:  read1-task
      Status:
        Completion Time:  2022-06-29T06:38:50Z
        Conditions:
          Last Transition Time:  2022-06-29T06:38:50Z
          Message:               All Steps have completed executing
          Reason:                Succeeded
          Status:                True
          Type:                  Succeeded
        Pod Name:                write-read-array-minio-pipeline-run-rf2z2-read1-task-np8j-m7lqf
        Start Time:              2022-06-29T06:38:43Z
        Steps:
          Container:  step-read
          Image ID:   docker-pullable://amnestorov/minio@sha256:384d67ba924edbf872ea1c40bac5f0049d5afc6d962e8f83dde8afa622ab1967
          Name:       read
          Terminated:
            Container ID:  docker://7f2f497696e0e10930654ad4b9d09e620e90ddaf02ccecf718e64955a6272ed1
            Exit Code:     0
            Finished At:   2022-06-29T06:38:50Z
            Reason:        Completed
            Started At:    2022-06-29T06:38:49Z
        Task Spec:
          Steps:
            Image:              amnestorov/minio
            Image Pull Policy:  IfNotPresent
            Name:               read
            Resources:
            Script:  #!/usr/bin/env python3
import time
import os
import subprocess
import sys
import boto3
import io
from botocore.config import Config
# Store initial timestamp
with open("/local/timestamps/shared_minio/4to1/8MB/r1cont_start_ts.txt", 'a+') as fp_rcont_s_ts:
   fp_rcont_s_ts.write("%f\n" % time.time())
session = boto3.session.Session()
config = Config(retries = dict(max_attempts = 50))
s3_client = session.client(
   service_name='s3',
   aws_access_key_id='admin',
   aws_secret_access_key='secretpwd',
   endpoint_url='http://10.0.26.33:9000',
   config=config
)
# Read data object from remote shared storage
data_bin1 = io.BytesIO()
s3_client.download_fileobj(Bucket='data', Key='out1.bin', Fileobj=data_bin1)
data_bin2 = io.BytesIO()
s3_client.download_fileobj(Bucket='data', Key='out2.bin', Fileobj=data_bin2)
data_bin3 = io.BytesIO()
s3_client.download_fileobj(Bucket='data', Key='out3.bin', Fileobj=data_bin3)
data_bin4 = io.BytesIO()
s3_client.download_fileobj(Bucket='data', Key='out4.bin', Fileobj=data_bin4)
# Store final timestamp
with open("/local/timestamps/shared_minio/4to1/8MB/r1cont_end_ts.txt", 'a+') as fp_rcont_e_ts:
   fp_rcont_e_ts.write("%f\n" % time.time())
#print("READER: Read %d x chars" % len(data))

          Workspaces:
            Mount Path:  /local
            Name:        read1-ws
    write-read-array-minio-pipeline-run-rf2z2-write1-task-gbk6g:
      Pipeline Task Name:  write1-task
      Status:
        Completion Time:  2022-06-29T06:38:21Z
        Conditions:
          Last Transition Time:  2022-06-29T06:38:21Z
          Message:               All Steps have completed executing
          Reason:                Succeeded
          Status:                True
          Type:                  Succeeded
        Pod Name:                write-read-array-minio-pipeline-run-rf2z2-write1-task-gbk-nxr72
        Start Time:              2022-06-29T06:38:08Z
        Steps:
          Container:  step-write
          Image ID:   docker-pullable://amnestorov/minio@sha256:384d67ba924edbf872ea1c40bac5f0049d5afc6d962e8f83dde8afa622ab1967
          Name:       write
          Terminated:
            Container ID:  docker://5dd4d448529b2b71742bf99a5884bebcc90f82e7887a6264be0e1f64d8304bd4
            Exit Code:     0
            Finished At:   2022-06-29T06:38:20Z
            Reason:        Completed
            Started At:    2022-06-29T06:38:19Z
        Task Spec:
          Steps:
            Image:              amnestorov/minio
            Image Pull Policy:  IfNotPresent
            Name:               write
            Resources:
            Script:  #!/usr/bin/env python3
import time
import os 
import subprocess
import sys
import boto3
import botocore
import io
import boto3.s3.transfer as s3transfer
# Store initial timestamp
with open("/local/timestamps/shared_minio/4to1/8MB/w1cont_start_ts.txt", 'a+') as fp_wcont_s_ts:
   fp_wcont_s_ts.write("%f\n" % time.time())
# Create Boto session and client
session = boto3.session.Session()
botocore_config = botocore.config.Config(
   read_timeout=3600,
   connect_timeout=3600,
   retries={"max_attempts": 0},
   max_pool_connections=20
)
s3_client = session.client(
   service_name='s3',
   aws_access_key_id='admin',
   aws_secret_access_key='secretpwd',
   endpoint_url='http://10.0.26.33:9000',
   config=botocore_config
)
transfer_config = s3transfer.TransferConfig(
   use_threads=True,
   max_concurrency=20
)
s3t = s3transfer.create_transfer_manager(s3_client, transfer_config)
# Create data object
bin_data = bytearray(b'\x01') * 8388608
# Store timestamp after data creation 
with open("/local/timestamps/shared_minio/4to1/8MB/w1cont_data_end_ts.txt", 'a+') as fp_wcont_data_ts:
   fp_wcont_data_ts.write("%f\n" % time.time())
# Write data object on minio storage
#s3_client.put_object(Bucket='data', Key='out1.bin', Body=bin_data)
s3t.upload(io.BytesIO(bin_data), 'data', 'out1.bin')
#s3_client.upload_fileobj(io.BytesIO(bin_data), 'data', 'out1.bin',  Config = config)
# Store final timestamp
with open("/local/timestamps/shared_minio/4to1/8MB/w1cont_end_ts.txt", 'a+') as fp_wcont_e_ts:
   fp_wcont_e_ts.write("%f\n" % time.time())
s3t.shutdown()
#print("WRITER: Written out1!")

          Workspaces:
            Mount Path:  /local
            Name:        write1-ws
    write-read-array-minio-pipeline-run-rf2z2-write2-task-dqsxq:
      Pipeline Task Name:  write2-task
      Status:
        Completion Time:  2022-06-29T06:38:21Z
        Conditions:
          Last Transition Time:  2022-06-29T06:38:21Z
          Message:               All Steps have completed executing
          Reason:                Succeeded
          Status:                True
          Type:                  Succeeded
        Pod Name:                write-read-array-minio-pipeline-run-rf2z2-write2-task-dqs-fsvkg
        Start Time:              2022-06-29T06:38:08Z
        Steps:
          Container:  step-write
          Image ID:   docker-pullable://amnestorov/minio@sha256:384d67ba924edbf872ea1c40bac5f0049d5afc6d962e8f83dde8afa622ab1967
          Name:       write
          Terminated:
            Container ID:  docker://63978d83e8302d2fa2e0e7dbdb136f76ea415caaba41d0d5cfe4e9eaf13b3587
            Exit Code:     0
            Finished At:   2022-06-29T06:38:20Z
            Reason:        Completed
            Started At:    2022-06-29T06:38:19Z
        Task Spec:
          Steps:
            Image:              amnestorov/minio
            Image Pull Policy:  IfNotPresent
            Name:               write
            Resources:
            Script:  #!/usr/bin/env python3
import time
import os 
import subprocess
import sys
import boto3
import botocore
import io
import boto3.s3.transfer as s3transfer
# Store initial timestamp
with open("/local/timestamps/shared_minio/4to1/8MB/w2cont_start_ts.txt", 'a+') as fp_wcont_s_ts:
   fp_wcont_s_ts.write("%f\n" % time.time())
# Create Boto session and client
session = boto3.session.Session()
botocore_config = botocore.config.Config(
   read_timeout=3600,
   connect_timeout=3600,
   retries={"max_attempts": 0},
   max_pool_connections=20
)
s3_client = session.client(
   service_name='s3',
   aws_access_key_id='admin',
   aws_secret_access_key='secretpwd',
   endpoint_url='http://10.0.26.33:9000',
   config=botocore_config
)
transfer_config = s3transfer.TransferConfig(
   use_threads=True,
   max_concurrency=20
)
s3t = s3transfer.create_transfer_manager(s3_client, transfer_config)
# Create data object
bin_data = bytearray(b'\x01') * 8388608
# Store timestamp after data creation 
with open("/local/timestamps/shared_minio/4to1/8MB/w2cont_data_end_ts.txt", 'a+') as fp_wcont_data_ts:
   fp_wcont_data_ts.write("%f\n" % time.time())
# Write data object on minio storage
#s3_client.put_object(Bucket='data', Key='out2.bin', Body=bin_data)
s3t.upload(io.BytesIO(bin_data), 'data', 'out2.bin')
#s3_client.upload_fileobj(io.BytesIO(bin_data), 'data', 'out2.bin',  Config = config)
# Store final timestamp
with open("/local/timestamps/shared_minio/4to1/8MB/w2cont_end_ts.txt", 'a+') as fp_wcont_e_ts:
   fp_wcont_e_ts.write("%f\n" % time.time())
s3t.shutdown()
#print("WRITER: Written out1!")

          Workspaces:
            Mount Path:  /local
            Name:        write2-ws
    write-read-array-minio-pipeline-run-rf2z2-write3-task-twhjc:
      Pipeline Task Name:  write3-task
      Status:
        Completion Time:  2022-06-29T06:38:42Z
        Conditions:
          Last Transition Time:  2022-06-29T06:38:42Z
          Message:               All Steps have completed executing
          Reason:                Succeeded
          Status:                True
          Type:                  Succeeded
        Pod Name:                write-read-array-minio-pipeline-run-rf2z2-write3-task-twh-kdjhj
        Start Time:              2022-06-29T06:38:08Z
        Steps:
          Container:  step-write
          Image ID:   docker-pullable://amnestorov/minio@sha256:384d67ba924edbf872ea1c40bac5f0049d5afc6d962e8f83dde8afa622ab1967
          Name:       write
          Terminated:
            Container ID:  docker://b3a2405b269a2d255429a82856e396717e6b4aad0bf5b8b9cbc18b92b34dcbb8
            Exit Code:     0
            Finished At:   2022-06-29T06:38:38Z
            Reason:        Completed
            Started At:    2022-06-29T06:38:36Z
        Task Spec:
          Steps:
            Image:              amnestorov/minio
            Image Pull Policy:  IfNotPresent
            Name:               write
            Resources:
            Script:  #!/usr/bin/env python3
import time
import os 
import subprocess
import sys
import boto3
import botocore
import io
import boto3.s3.transfer as s3transfer
# Store initial timestamp
with open("/local/timestamps/shared_minio/4to1/8MB/w3cont_start_ts.txt", 'a+') as fp_wcont_s_ts:
   fp_wcont_s_ts.write("%f\n" % time.time())
# Create Boto session and client
session = boto3.session.Session()
botocore_config = botocore.config.Config(
   read_timeout=3600,
   connect_timeout=3600,
   retries={"max_attempts": 0},
   max_pool_connections=20
)
s3_client = session.client(
   service_name='s3',
   aws_access_key_id='admin',
   aws_secret_access_key='secretpwd',
   endpoint_url='http://10.0.26.33:9000',
   config=botocore_config
)
transfer_config = s3transfer.TransferConfig(
   use_threads=True,
   max_concurrency=20
)
s3t = s3transfer.create_transfer_manager(s3_client, transfer_config)
# Create data object
bin_data = bytearray(b'\x01') * 8388608
# Store timestamp after data creation 
with open("/local/timestamps/shared_minio/4to1/8MB/w3cont_data_end_ts.txt", 'a+') as fp_wcont_data_ts:
   fp_wcont_data_ts.write("%f\n" % time.time())
# Write data object on minio storage
#s3_client.put_object(Bucket='data', Key='out3.bin', Body=bin_data)
s3t.upload(io.BytesIO(bin_data), 'data', 'out3.bin')
#s3_client.upload_fileobj(io.BytesIO(bin_data), 'data', 'out3.bin',  Config = config)
# Store final timestamp
with open("/local/timestamps/shared_minio/4to1/8MB/w3cont_end_ts.txt", 'a+') as fp_wcont_e_ts:
   fp_wcont_e_ts.write("%f\n" % time.time())
s3t.shutdown()
#print("WRITER: Written out1!")

          Workspaces:
            Mount Path:  /local
            Name:        write3-ws
    write-read-array-minio-pipeline-run-rf2z2-write4-task-77x4b:
      Pipeline Task Name:  write4-task
      Status:
        Completion Time:  2022-06-29T06:38:16Z
        Conditions:
          Last Transition Time:  2022-06-29T06:38:16Z
          Message:               All Steps have completed executing
          Reason:                Succeeded
          Status:                True
          Type:                  Succeeded
        Pod Name:                write-read-array-minio-pipeline-run-rf2z2-write4-task-77x-tl9qq
        Start Time:              2022-06-29T06:38:08Z
        Steps:
          Container:  step-write
          Image ID:   docker-pullable://amnestorov/minio@sha256:384d67ba924edbf872ea1c40bac5f0049d5afc6d962e8f83dde8afa622ab1967
          Name:       write
          Terminated:
            Container ID:  docker://383a9f9b8d903c45def7fc937e5c3a32d39ab46f73a6b9c1b721e2de15a886b1
            Exit Code:     0
            Finished At:   2022-06-29T06:38:16Z
            Reason:        Completed
            Started At:    2022-06-29T06:38:15Z
        Task Spec:
          Steps:
            Image:              amnestorov/minio
            Image Pull Policy:  IfNotPresent
            Name:               write
            Resources:
            Script:  #!/usr/bin/env python3
import time
import os 
import subprocess
import sys
import boto3
import botocore
import io
import boto3.s3.transfer as s3transfer
# Store initial timestamp
with open("/local/timestamps/shared_minio/4to1/8MB/w4cont_start_ts.txt", 'a+') as fp_wcont_s_ts:
   fp_wcont_s_ts.write("%f\n" % time.time())
# Create Boto session and client
session = boto3.session.Session()
botocore_config = botocore.config.Config(
   read_timeout=3600,
   connect_timeout=3600,
   retries={"max_attempts": 0},
   max_pool_connections=20
)
s3_client = session.client(
   service_name='s3',
   aws_access_key_id='admin',
   aws_secret_access_key='secretpwd',
   endpoint_url='http://10.0.26.33:9000',
   config=botocore_config
)
transfer_config = s3transfer.TransferConfig(
   use_threads=True,
   max_concurrency=20
)
s3t = s3transfer.create_transfer_manager(s3_client, transfer_config)
# Create data object
bin_data = bytearray(b'\x01') * 8388608
# Store timestamp after data creation 
with open("/local/timestamps/shared_minio/4to1/8MB/w4cont_data_end_ts.txt", 'a+') as fp_wcont_data_ts:
   fp_wcont_data_ts.write("%f\n" % time.time())
# Write data object on minio storage
#s3_client.put_object(Bucket='data', Key='out4.bin', Body=bin_data)
s3t.upload(io.BytesIO(bin_data), 'data', 'out4.bin')
#s3_client.upload_fileobj(io.BytesIO(bin_data), 'data', 'out4.bin',  Config = config)
# Store final timestamp
with open("/local/timestamps/shared_minio/4to1/8MB/w4cont_end_ts.txt", 'a+') as fp_wcont_e_ts:
   fp_wcont_e_ts.write("%f\n" % time.time())
s3t.shutdown()
#print("WRITER: Written out1!")

          Workspaces:
            Mount Path:  /local
            Name:        write4-ws
Events:
  Type    Reason     Age                From         Message
  ----    ------     ----               ----         -------
  Normal  Started    50s                PipelineRun  
  Normal  Running    50s                PipelineRun  Tasks Completed: 0 (Failed: 0, Cancelled 0), Incomplete: 5, Skipped: 0
  Normal  Running    41s                PipelineRun  Tasks Completed: 1 (Failed: 0, Cancelled 0), Incomplete: 4, Skipped: 0
  Normal  Running    36s                PipelineRun  Tasks Completed: 2 (Failed: 0, Cancelled 0), Incomplete: 3, Skipped: 0
  Normal  Running    36s                PipelineRun  Tasks Completed: 3 (Failed: 0, Cancelled 0), Incomplete: 2, Skipped: 0
  Normal  Running    15s (x2 over 15s)  PipelineRun  Tasks Completed: 4 (Failed: 0, Cancelled 0), Incomplete: 1, Skipped: 0
  Normal  Succeeded  7s                 PipelineRun  Tasks Completed: 5 (Failed: 0, Cancelled 0), Skipped: 0
