1645918180.516737
1645918185.298030
1645918190.388823
1645918194.454040
1645918198.409036
1645918202.174725
1645918206.496285
1645918210.538240
1645918214.450634
1645918219.697020
1645918223.703339
1645918227.808565
1645918233.018982
1645918237.314284
1645918241.306972
1645918245.469186
1645918250.178705
1645918254.441953
1645918258.589960
1645918262.970705
1645918267.386563
1645918272.283748
1645918276.723871
1645918280.963015
1645918285.825189
1645918290.158218
1645918294.215035
1645918298.551312
1645918302.796668
1645918307.030048
1645918311.341532
1645918316.373799
1645918320.756857
1645918325.024352
1645918329.478353
1645918333.840736
1645918337.925509
1645918342.081707
1645918345.965176
1645918350.792868
1645918354.951618
1645918358.991411
1645918363.260405
1645918367.678152
1645918372.139487
1645918376.506255
1645918381.200663
1645918385.380860
1645918389.657093
1645918393.778258
1645918397.656613
1645918401.676363
1645918405.904244
1645918409.965058
1645918415.127857
1645918419.320496
1645918423.851927
1645918428.069674
1645918432.264451
1645918436.390664
1645918440.583496
1645918444.803064
1645918449.710312
1645918453.901105
1645918458.156889
1645918462.572177
1645918466.922132
1645918471.403442
1645918475.641248
1645918480.425950
1645918484.681429
1645918488.802952
1645918492.849589
1645918497.010723
1645918501.653939
1645918505.584186
1645918509.552726
1645918514.052968
1645918517.877114
1645918522.027792
1645918526.307316
1645918530.618192
1645918534.756335
1645918538.580991
1645918542.292687
1645918547.057053
1645918551.315399
1645918555.569189
1645918559.963945
1645918564.280889
1645918568.582984
1645918572.905963
1645918577.118644
1645918581.921429
1645918586.128181
1645918591.005799
1645918595.356392
1645918599.712801
1645918603.884226
1645918607.988998
