Name:         write-read-array-pipeline-run-7nwfz
Namespace:    default
Labels:       tekton.dev/pipeline=write-read-array-pipeline
Annotations:  <none>
API Version:  tekton.dev/v1beta1
Kind:         PipelineRun
Metadata:
  Creation Timestamp:  2022-03-10T19:27:40Z
  Generate Name:       write-read-array-pipeline-run-
  Generation:          1
  Managed Fields:
    API Version:  tekton.dev/v1beta1
    Fields Type:  FieldsV1
    fieldsV1:
      f:metadata:
        f:generateName:
      f:spec:
        .:
        f:pipelineRef:
          .:
          f:name:
        f:taskRunSpecs:
        f:workspaces:
    Manager:      kubectl-create
    Operation:    Update
    Time:         2022-03-10T19:27:40Z
    API Version:  tekton.dev/v1beta1
    Fields Type:  FieldsV1
    fieldsV1:
      f:metadata:
        f:annotations:
          .:
          f:kubectl.kubernetes.io/last-applied-configuration:
        f:labels:
          .:
          f:tekton.dev/pipeline:
      f:status:
        .:
        f:completionTime:
        f:conditions:
        f:pipelineSpec:
          .:
          f:tasks:
          f:workspaces:
        f:startTime:
        f:taskRuns:
          .:
          f:write-read-array-pipeline-run-7nwfz-read1-task-t6zqd:
            .:
            f:pipelineTaskName:
            f:status:
              .:
              f:completionTime:
              f:conditions:
              f:podName:
              f:startTime:
              f:steps:
              f:taskSpec:
                .:
                f:steps:
                f:workspaces:
          f:write-read-array-pipeline-run-7nwfz-write1-task-kdcgs:
            .:
            f:pipelineTaskName:
            f:status:
              .:
              f:completionTime:
              f:conditions:
              f:podName:
              f:startTime:
              f:steps:
              f:taskSpec:
                .:
                f:steps:
                f:workspaces:
          f:write-read-array-pipeline-run-7nwfz-write2-task-tpcwf:
            .:
            f:pipelineTaskName:
            f:status:
              .:
              f:completionTime:
              f:conditions:
              f:podName:
              f:startTime:
              f:steps:
              f:taskSpec:
                .:
                f:steps:
                f:workspaces:
    Manager:         controller
    Operation:       Update
    Time:            2022-03-10T19:28:04Z
  Resource Version:  11390559
  Self Link:         /apis/tekton.dev/v1beta1/namespaces/default/pipelineruns/write-read-array-pipeline-run-7nwfz
  UID:               dbb4a000-e003-42fa-b70b-8ea00c6d8770
Spec:
  Pipeline Ref:
    Name:                write-read-array-pipeline
  Service Account Name:  default
  Task Run Specs:
    Pipeline Task Name:  write1-task
    Task Pod Template:
      Node Selector:
        kubernetes.io/hostname:  k8s-worker-node1
    Pipeline Task Name:          write2-task
    Task Pod Template:
      Node Selector:
        kubernetes.io/hostname:  k8s-worker-node2
    Pipeline Task Name:          read1-task
    Task Pod Template:
      Node Selector:
        kubernetes.io/hostname:  k8s-worker-node3
  Timeout:                       1h0m0s
  Workspaces:
    Name:  task-write1-ws
    Persistent Volume Claim:
      Claim Name:  task1-pv-claim
    Name:          task-write2-ws
    Persistent Volume Claim:
      Claim Name:  task2-pv-claim
    Name:          task-read1-ws
    Persistent Volume Claim:
      Claim Name:  task3-pv-claim
Status:
  Completion Time:  2022-03-10T19:28:04Z
  Conditions:
    Last Transition Time:  2022-03-10T19:28:04Z
    Message:               Tasks Completed: 3 (Failed: 0, Cancelled 0), Skipped: 0
    Reason:                Succeeded
    Status:                True
    Type:                  Succeeded
  Pipeline Spec:
    Tasks:
      Name:  write1-task
      Task Ref:
        Kind:  Task
        Name:  write1
      Workspaces:
        Name:       write1-ws
        Workspace:  task-write1-ws
      Name:         write2-task
      Task Ref:
        Kind:  Task
        Name:  write2
      Workspaces:
        Name:       write2-ws
        Workspace:  task-write2-ws
      Name:         read1-task
      Run After:
        write1-task
        write2-task
      Task Ref:
        Kind:  Task
        Name:  read1
      Workspaces:
        Name:       read1-ws
        Workspace:  task-read1-ws
    Workspaces:
      Name:    task-write1-ws
      Name:    task-write2-ws
      Name:    task-read1-ws
  Start Time:  2022-03-10T19:27:40Z
  Task Runs:
    write-read-array-pipeline-run-7nwfz-read1-task-t6zqd:
      Pipeline Task Name:  read1-task
      Status:
        Completion Time:  2022-03-10T19:28:04Z
        Conditions:
          Last Transition Time:  2022-03-10T19:28:04Z
          Message:               All Steps have completed executing
          Reason:                Succeeded
          Status:                True
          Type:                  Succeeded
        Pod Name:                write-read-array-pipeline-run-7nwfz-read1-task-t6zqd-pod-dxg27
        Start Time:              2022-03-10T19:27:52Z
        Steps:
          Container:  step-s-start
          Image ID:   docker-pullable://python@sha256:c90e15c86e2ebe71244a2a51bc7f094554422c159ce309a6faadb6debd5a6df0
          Name:       s-start
          Terminated:
            Container ID:  docker://c68e816c360079c6aed4037626793201c3d4ab7fdd3ef8aa138c9b660f4c8689
            Exit Code:     0
            Finished At:   2022-03-10T19:28:03Z
            Reason:        Completed
            Started At:    2022-03-10T19:28:02Z
          Container:       step-read
          Image ID:        docker-pullable://jupyter/scipy-notebook@sha256:87b339ec6a62b283d0c2aee1446e7bc2e5ad03a80d49d2dfddb031b233aedd29
          Name:            read
          Terminated:
            Container ID:  docker://df3c7a621341f21644206a4e866429d6ef741a0b8aa77d56857cf7951d4508fd
            Exit Code:     0
            Finished At:   2022-03-10T19:28:03Z
            Reason:        Completed
            Started At:    2022-03-10T19:28:03Z
        Task Spec:
          Steps:
            Image:              python
            Image Pull Policy:  IfNotPresent
            Name:               s-start
            Resources:
            Script:  #!/usr/bin/env python3
import time
# Store initial timestamp
with open("/data/timestamps/socket/2to1/64MB/r1sent_start_ts.txt", 'a+') as fp_sent_s_ts:
   fp_sent_s_ts.write("%f\n" % time.time())
# Wait for the ready signal from external process
with open("/data/sync_pipe", "rb") as sync_pipe_file:
   while(int.from_bytes(sync_pipe_file.read(1), "little") != 1):
       continue
# Store final timestamp
with open("/data/timestamps/socket/2to1/64MB/r1sent_end_ts.txt", 'a+') as fp_sent_e_ts:
   fp_sent_e_ts.write("%f\n" % time.time())

            Image:              jupyter/scipy-notebook
            Image Pull Policy:  IfNotPresent
            Name:               read
            Resources:
            Script:  #!/usr/bin/env python3
import time
# Store initial timestamp
with open("/data/timestamps/socket/2to1/64MB/r1cont_start_ts.txt", 'a+') as fp_rcont_s_ts:
   fp_rcont_s_ts.write("%f\n" % time.time())
# Read data object from remote shared storage
with open("/data/in_data/out1.txt", "r") as fp_data1:
   data = fp_data1.read()
   del data
with open("/data/in_data/out2.txt", "r") as fp_data2:
   data = fp_data2.read()
   del data
# Store final timestamp
with open("/data/timestamps/socket/2to1/64MB/r1cont_end_ts.txt", 'a+') as fp_rcont_e_ts:
   fp_rcont_e_ts.write("%f\n" % time.time())
#print("READER: Read %d x chars" % len(data))

          Workspaces:
            Mount Path:  /data
            Name:        read1-ws
    write-read-array-pipeline-run-7nwfz-write1-task-kdcgs:
      Pipeline Task Name:  write1-task
      Status:
        Completion Time:  2022-03-10T19:27:52Z
        Conditions:
          Last Transition Time:  2022-03-10T19:27:52Z
          Message:               All Steps have completed executing
          Reason:                Succeeded
          Status:                True
          Type:                  Succeeded
        Pod Name:                write-read-array-pipeline-run-7nwfz-write1-task-kdcgs-pod-qv7rq
        Start Time:              2022-03-10T19:27:40Z
        Steps:
          Container:  step-write
          Image ID:   docker-pullable://jupyter/scipy-notebook@sha256:87b339ec6a62b283d0c2aee1446e7bc2e5ad03a80d49d2dfddb031b233aedd29
          Name:       write
          Terminated:
            Container ID:  docker://2eadb981353115f5a81da660e5b9979eb1e311cfc8c5aef709fba3172e9519ee
            Exit Code:     0
            Finished At:   2022-03-10T19:27:51Z
            Reason:        Completed
            Started At:    2022-03-10T19:27:50Z
          Container:       step-s-end
          Image ID:        docker-pullable://python@sha256:c90e15c86e2ebe71244a2a51bc7f094554422c159ce309a6faadb6debd5a6df0
          Name:            s-end
          Terminated:
            Container ID:  docker://1de3ef5552a6fb668810b33de2d39e24df6aa9db1776cff6a30b7e70a73bfee6
            Exit Code:     0
            Finished At:   2022-03-10T19:27:52Z
            Reason:        Completed
            Started At:    2022-03-10T19:27:51Z
        Task Spec:
          Steps:
            Image:              jupyter/scipy-notebook
            Image Pull Policy:  IfNotPresent
            Name:               write
            Resources:
            Script:  #!/usr/bin/env python3
import time
# Store initial timestamp
with open("/data/timestamps/socket/2to1/64MB/w1cont_start_ts.txt", 'a+') as fp_wcont_s_ts:
   fp_wcont_s_ts.write("%f\n" % time.time())
# Create data object
string = 'x' * 67108864
# Store timestamp after data creation
with open("/data/timestamps/socket/2to1/64MB/w1cont_data_end_ts.txt", 'a+') as fp_wcont_data_ts:
   fp_wcont_data_ts.write("%f\n" % time.time())
# Write data object on the local pv
with open("/data/out_data/out1.txt", 'w') as fp_data:
   fp_data.write("%s" % string)
# Store final timestamp
with open("/data/timestamps/socket/2to1/64MB/w1cont_end_ts.txt", 'a+') as fp_wcont_e_ts:
   fp_wcont_e_ts.write("%f\n" % time.time())
#print("WRITER: Written out1!")

            Image:              python
            Image Pull Policy:  IfNotPresent
            Name:               s-end
            Resources:
            Script:  #!/usr/bin/env python3
import os
import time
# Store initial timestamp
with open("/data/timestamps/socket/2to1/64MB/w1sent_start_ts.txt", 'a+') as fp_sent_s_ts:
   fp_sent_s_ts.write("%f\n" % time.time())
# Writes ready signal to sync pipe
os.system("echo 1 > /data/sync_pipe")
# Store final timestamp
with open("/data/timestamps/socket/2to1/64MB/w1sent_end_ts.txt", 'a+') as fp_sent_e_ts:
   fp_sent_e_ts.write("%f\n" % time.time())
#print("WRITER: Finished!")

          Workspaces:
            Mount Path:  /data
            Name:        write1-ws
    write-read-array-pipeline-run-7nwfz-write2-task-tpcwf:
      Pipeline Task Name:  write2-task
      Status:
        Completion Time:  2022-03-10T19:27:51Z
        Conditions:
          Last Transition Time:  2022-03-10T19:27:51Z
          Message:               All Steps have completed executing
          Reason:                Succeeded
          Status:                True
          Type:                  Succeeded
        Pod Name:                write-read-array-pipeline-run-7nwfz-write2-task-tpcwf-pod-qps7n
        Start Time:              2022-03-10T19:27:41Z
        Steps:
          Container:  step-write
          Image ID:   docker-pullable://jupyter/scipy-notebook@sha256:87b339ec6a62b283d0c2aee1446e7bc2e5ad03a80d49d2dfddb031b233aedd29
          Name:       write
          Terminated:
            Container ID:  docker://080c19bbcfaa5ec6bbf6dc1a21db5de64329d1663acc1843c76282cce0737a68
            Exit Code:     0
            Finished At:   2022-03-10T19:27:51Z
            Reason:        Completed
            Started At:    2022-03-10T19:27:50Z
          Container:       step-s-end
          Image ID:        docker-pullable://python@sha256:c90e15c86e2ebe71244a2a51bc7f094554422c159ce309a6faadb6debd5a6df0
          Name:            s-end
          Terminated:
            Container ID:  docker://6d8c1e1594fa740730f69765d312be9cc02a6ea1c6d9105bf07a614700488754
            Exit Code:     0
            Finished At:   2022-03-10T19:27:51Z
            Reason:        Completed
            Started At:    2022-03-10T19:27:51Z
        Task Spec:
          Steps:
            Image:              jupyter/scipy-notebook
            Image Pull Policy:  IfNotPresent
            Name:               write
            Resources:
            Script:  #!/usr/bin/env python3
import time
# Store initial timestamp
with open("/data/timestamps/socket/2to1/64MB/w2cont_start_ts.txt", 'a+') as fp_wcont_s_ts:
   fp_wcont_s_ts.write("%f\n" % time.time())
# Create data object
string = 'x' * 67108864
# Store timestamp after data creation
with open("/data/timestamps/socket/2to1/64MB/w2cont_data_end_ts.txt", 'a+') as fp_wcont_data_ts:
   fp_wcont_data_ts.write("%f\n" % time.time())
# Write data object on the local pv
with open("/data/out_data/out2.txt", 'w') as fp_data:
   fp_data.write("%s" % string)
# Store final timestamp
with open("/data/timestamps/socket/2to1/64MB/w2cont_end_ts.txt", 'a+') as fp_wcont_e_ts:
   fp_wcont_e_ts.write("%f\n" % time.time())
#print("WRITER: Written out1!")

            Image:              python
            Image Pull Policy:  IfNotPresent
            Name:               s-end
            Resources:
            Script:  #!/usr/bin/env python3
import os
import time
# Store initial timestamp
with open("/data/timestamps/socket/2to1/64MB/w2sent_start_ts.txt", 'a+') as fp_sent_s_ts:
   fp_sent_s_ts.write("%f\n" % time.time())
# Writes ready signal to sync pipe
os.system("echo 1 > /data/sync_pipe")
# Store final timestamp
with open("/data/timestamps/socket/2to1/64MB/w2sent_end_ts.txt", 'a+') as fp_sent_e_ts:
   fp_sent_e_ts.write("%f\n" % time.time())
#print("WRITER: Finished!")

          Workspaces:
            Mount Path:  /data
            Name:        write2-ws
Events:
  Type    Reason     Age                From         Message
  ----    ------     ----               ----         -------
  Normal  Started    32s                PipelineRun  
  Normal  Running    32s                PipelineRun  Tasks Completed: 0 (Failed: 0, Cancelled 0), Incomplete: 3, Skipped: 0
  Normal  Running    21s                PipelineRun  Tasks Completed: 1 (Failed: 0, Cancelled 0), Incomplete: 2, Skipped: 0
  Normal  Running    20s (x2 over 20s)  PipelineRun  Tasks Completed: 2 (Failed: 0, Cancelled 0), Incomplete: 1, Skipped: 0
  Normal  Succeeded  8s                 PipelineRun  Tasks Completed: 3 (Failed: 0, Cancelled 0), Skipped: 0
