Name:         write-read-array-pipeline-run-48mbb
Namespace:    default
Labels:       tekton.dev/pipeline=write-read-array-pipeline
Annotations:  <none>
API Version:  tekton.dev/v1beta1
Kind:         PipelineRun
Metadata:
  Creation Timestamp:  2022-03-01T13:41:43Z
  Generate Name:       write-read-array-pipeline-run-
  Generation:          1
  Managed Fields:
    API Version:  tekton.dev/v1beta1
    Fields Type:  FieldsV1
    fieldsV1:
      f:metadata:
        f:generateName:
      f:spec:
        .:
        f:pipelineRef:
          .:
          f:name:
        f:taskRunSpecs:
        f:workspaces:
    Manager:      kubectl-create
    Operation:    Update
    Time:         2022-03-01T13:41:43Z
    API Version:  tekton.dev/v1beta1
    Fields Type:  FieldsV1
    fieldsV1:
      f:metadata:
        f:annotations:
          .:
          f:kubectl.kubernetes.io/last-applied-configuration:
        f:labels:
          .:
          f:tekton.dev/pipeline:
      f:status:
        .:
        f:completionTime:
        f:conditions:
        f:pipelineSpec:
          .:
          f:tasks:
          f:workspaces:
        f:startTime:
        f:taskRuns:
          .:
          f:write-read-array-pipeline-run-48mbb-read1-task-h9c9b:
            .:
            f:pipelineTaskName:
            f:status:
              .:
              f:completionTime:
              f:conditions:
              f:podName:
              f:startTime:
              f:steps:
              f:taskSpec:
                .:
                f:steps:
                f:workspaces:
          f:write-read-array-pipeline-run-48mbb-read2-task-zxbx6:
            .:
            f:pipelineTaskName:
            f:status:
              .:
              f:completionTime:
              f:conditions:
              f:podName:
              f:startTime:
              f:steps:
              f:taskSpec:
                .:
                f:steps:
                f:workspaces:
          f:write-read-array-pipeline-run-48mbb-write1-task-mcrk2:
            .:
            f:pipelineTaskName:
            f:status:
              .:
              f:completionTime:
              f:conditions:
              f:podName:
              f:startTime:
              f:steps:
              f:taskSpec:
                .:
                f:steps:
                f:workspaces:
    Manager:         controller
    Operation:       Update
    Time:            2022-03-01T13:42:17Z
  Resource Version:  341231
  Self Link:         /apis/tekton.dev/v1beta1/namespaces/default/pipelineruns/write-read-array-pipeline-run-48mbb
  UID:               e439e888-ed7e-42e9-b8c3-b314be585b00
Spec:
  Pipeline Ref:
    Name:                write-read-array-pipeline
  Service Account Name:  default
  Task Run Specs:
    Pipeline Task Name:  write1-task
    Task Pod Template:
      Node Selector:
        kubernetes.io/hostname:  k8s-worker-node1
    Pipeline Task Name:          read1-task
    Task Pod Template:
      Node Selector:
        kubernetes.io/hostname:  k8s-worker-node2
    Pipeline Task Name:          read2-task
    Task Pod Template:
      Node Selector:
        kubernetes.io/hostname:  k8s-worker-node3
  Timeout:                       1h0m0s
  Workspaces:
    Name:  shared-vol-ws
    Volume Claim Template:
      Metadata:
        Creation Timestamp:  <nil>
      Spec:
        Access Modes:
          ReadWriteMany
        Resources:
          Requests:
            Storage:  50Gi
      Status:
    Name:  task-write1-ws
    Persistent Volume Claim:
      Claim Name:  task1-pv-claim
    Name:          task-read1-ws
    Persistent Volume Claim:
      Claim Name:  task2-pv-claim
    Name:          task-read2-ws
    Persistent Volume Claim:
      Claim Name:  task3-pv-claim
Status:
  Completion Time:  2022-03-01T13:42:17Z
  Conditions:
    Last Transition Time:  2022-03-01T13:42:17Z
    Message:               Tasks Completed: 3 (Failed: 0, Cancelled 0), Skipped: 0
    Reason:                Succeeded
    Status:                True
    Type:                  Succeeded
  Pipeline Spec:
    Tasks:
      Name:  write1-task
      Task Ref:
        Kind:  Task
        Name:  write1
      Workspaces:
        Name:       write1-shared-ws
        Workspace:  shared-vol-ws
        Name:       write1-ws
        Workspace:  task-write1-ws
      Name:         read1-task
      Run After:
        write1-task
      Task Ref:
        Kind:  Task
        Name:  read1
      Workspaces:
        Name:       read1-shared-ws
        Workspace:  shared-vol-ws
        Name:       read1-ws
        Workspace:  task-read1-ws
      Name:         read2-task
      Run After:
        write1-task
      Task Ref:
        Kind:  Task
        Name:  read2
      Workspaces:
        Name:       read2-shared-ws
        Workspace:  shared-vol-ws
        Name:       read2-ws
        Workspace:  task-read2-ws
    Workspaces:
      Name:    shared-vol-ws
      Name:    task-write1-ws
      Name:    task-read1-ws
      Name:    task-read2-ws
  Start Time:  2022-03-01T13:41:43Z
  Task Runs:
    write-read-array-pipeline-run-48mbb-read1-task-h9c9b:
      Pipeline Task Name:  read1-task
      Status:
        Completion Time:  2022-03-01T13:42:10Z
        Conditions:
          Last Transition Time:  2022-03-01T13:42:10Z
          Message:               All Steps have completed executing
          Reason:                Succeeded
          Status:                True
          Type:                  Succeeded
        Pod Name:                write-read-array-pipeline-run-48mbb-read1-task-h9c9b-pod-kttdr
        Start Time:              2022-03-01T13:42:01Z
        Steps:
          Container:  step-read
          Image ID:   docker-pullable://jupyter/scipy-notebook@sha256:e51cb4700af349c040bbf83c7f7a3c5fb94edb97df3071be48d5eae6c03d2f5b
          Name:       read
          Terminated:
            Container ID:  docker://d9bec8bba6ab70f2a01cea73eb6fb64007567965d2401983b11ccc407c5406bf
            Exit Code:     0
            Finished At:   2022-03-01T13:42:09Z
            Reason:        Completed
            Started At:    2022-03-01T13:42:08Z
        Task Spec:
          Steps:
            Image:              jupyter/scipy-notebook
            Image Pull Policy:  IfNotPresent
            Name:               read
            Resources:
            Script:  #!/usr/bin/env python3
import time
# Store initial timestamp
with open("/timestamps/shared/1to2/128MB/r1cont_start_ts.txt", 'a+') as fp_rcont_s_ts:
   fp_rcont_s_ts.write("%f\n" % time.time())
# Read data object from remote shared storage
with open("/data/out1.txt", "r") as fp_data:
   data = fp_data.read()
# Store final timestamp
with open("/timestamps/shared/1to2/128MB/r1cont_end_ts.txt", 'a+') as fp_rcont_e_ts:
   fp_rcont_e_ts.write("%f\n" % time.time())
#print("READER: Read %d x chars" % len(data))

          Workspaces:
            Mount Path:  /data
            Name:        read1-shared-ws
            Mount Path:  /timestamps
            Name:        read1-ws
    write-read-array-pipeline-run-48mbb-read2-task-zxbx6:
      Pipeline Task Name:  read2-task
      Status:
        Completion Time:  2022-03-01T13:42:17Z
        Conditions:
          Last Transition Time:  2022-03-01T13:42:17Z
          Message:               All Steps have completed executing
          Reason:                Succeeded
          Status:                True
          Type:                  Succeeded
        Pod Name:                write-read-array-pipeline-run-48mbb-read2-task-zxbx6-pod-8gtkj
        Start Time:              2022-03-01T13:42:01Z
        Steps:
          Container:  step-read
          Image ID:   docker-pullable://jupyter/scipy-notebook@sha256:e51cb4700af349c040bbf83c7f7a3c5fb94edb97df3071be48d5eae6c03d2f5b
          Name:       read
          Terminated:
            Container ID:  docker://8d45b53ac6500e4434774f728e3f75ea4f0aeb8040cf6e3510e8e5362637bf62
            Exit Code:     0
            Finished At:   2022-03-01T13:42:16Z
            Reason:        Completed
            Started At:    2022-03-01T13:42:16Z
        Task Spec:
          Steps:
            Image:              jupyter/scipy-notebook
            Image Pull Policy:  IfNotPresent
            Name:               read
            Resources:
            Script:  #!/usr/bin/env python3
import time
# Store initial timestamp
with open("/timestamps/shared/1to2/128MB/r2cont_start_ts.txt", 'a+') as fp_rcont_s_ts:
   fp_rcont_s_ts.write("%f\n" % time.time())
# Read data object from remote shared storage
with open("/data/out1.txt", "r") as fp_data:
   data = fp_data.read()
# Store final timestamp
with open("/timestamps/shared/1to2/128MB/r2cont_end_ts.txt", 'a+') as fp_rcont_e_ts:
   fp_rcont_e_ts.write("%f\n" % time.time())
#print("READER: Read %d x chars" % len(data))

          Workspaces:
            Mount Path:  /data
            Name:        read2-shared-ws
            Mount Path:  /timestamps
            Name:        read2-ws
    write-read-array-pipeline-run-48mbb-write1-task-mcrk2:
      Pipeline Task Name:  write1-task
      Status:
        Completion Time:  2022-03-01T13:42:01Z
        Conditions:
          Last Transition Time:  2022-03-01T13:42:01Z
          Message:               All Steps have completed executing
          Reason:                Succeeded
          Status:                True
          Type:                  Succeeded
        Pod Name:                write-read-array-pipeline-run-48mbb-write1-task-mcrk2-pod-snh5h
        Start Time:              2022-03-01T13:41:43Z
        Steps:
          Container:  step-write
          Image ID:   docker-pullable://jupyter/scipy-notebook@sha256:e51cb4700af349c040bbf83c7f7a3c5fb94edb97df3071be48d5eae6c03d2f5b
          Name:       write
          Terminated:
            Container ID:  docker://a1a989da058646ee800981d2d52334a492d8f673e153bb71336c028232469ed1
            Exit Code:     0
            Finished At:   2022-03-01T13:42:00Z
            Reason:        Completed
            Started At:    2022-03-01T13:41:58Z
        Task Spec:
          Steps:
            Image:              jupyter/scipy-notebook
            Image Pull Policy:  IfNotPresent
            Name:               write
            Resources:
            Script:  #!/usr/bin/env python3
import time
# Store initial timestamp
with open("/timestamps/shared/1to2/128MB/w1cont_start_ts.txt", 'a+') as fp_wcont_s_ts:
   fp_wcont_s_ts.write("%f\n" % time.time()) 
# Create data object
string = 'x' * 134217728
# Store timestamp after data creation 
with open("/timestamps/shared/1to2/128MB/w1cont_data_end_ts.txt", 'a+') as fp_wcont_data_ts:
   fp_wcont_data_ts.write("%f\n" % time.time())
# Write data object on the remote shared storage
with open("/data/out1.txt", 'w') as fp_data:
   fp_data.write("%s" % string)
# Store final timestamp
with open("/timestamps/shared/1to2/128MB/w1cont_end_ts.txt", 'a+') as fp_wcont_e_ts:
   fp_wcont_e_ts.write("%f\n" % time.time())
#print("WRITER: Written out1!")

          Workspaces:
            Mount Path:  /data
            Name:        write1-shared-ws
            Mount Path:  /timestamps
            Name:        write1-ws
Events:
  Type    Reason     Age                From         Message
  ----    ------     ----               ----         -------
  Normal  Started    41s (x2 over 41s)  PipelineRun  
  Normal  Running    41s (x2 over 41s)  PipelineRun  Tasks Completed: 0 (Failed: 0, Cancelled 0), Incomplete: 3, Skipped: 0
  Normal  Running    23s                PipelineRun  Tasks Completed: 1 (Failed: 0, Cancelled 0), Incomplete: 2, Skipped: 0
  Normal  Running    14s                PipelineRun  Tasks Completed: 2 (Failed: 0, Cancelled 0), Incomplete: 1, Skipped: 0
  Normal  Succeeded  7s                 PipelineRun  Tasks Completed: 3 (Failed: 0, Cancelled 0), Skipped: 0
