Name:         write-read-array-pipeline-run-lsmpn
Namespace:    default
Labels:       tekton.dev/pipeline=write-read-array-pipeline
Annotations:  <none>
API Version:  tekton.dev/v1beta1
Kind:         PipelineRun
Metadata:
  Creation Timestamp:  2022-03-09T03:44:29Z
  Generate Name:       write-read-array-pipeline-run-
  Generation:          1
  Managed Fields:
    API Version:  tekton.dev/v1beta1
    Fields Type:  FieldsV1
    fieldsV1:
      f:metadata:
        f:generateName:
      f:spec:
        .:
        f:pipelineRef:
          .:
          f:name:
        f:taskRunSpecs:
        f:workspaces:
    Manager:      kubectl-create
    Operation:    Update
    Time:         2022-03-09T03:44:29Z
    API Version:  tekton.dev/v1beta1
    Fields Type:  FieldsV1
    fieldsV1:
      f:metadata:
        f:annotations:
          .:
          f:kubectl.kubernetes.io/last-applied-configuration:
        f:labels:
          .:
          f:tekton.dev/pipeline:
      f:status:
        .:
        f:completionTime:
        f:conditions:
        f:pipelineSpec:
          .:
          f:tasks:
          f:workspaces:
        f:startTime:
        f:taskRuns:
          .:
          f:write-read-array-pipeline-run-lsmpn-read1-task-ks8nb:
            .:
            f:pipelineTaskName:
            f:status:
              .:
              f:completionTime:
              f:conditions:
              f:podName:
              f:startTime:
              f:steps:
              f:taskSpec:
                .:
                f:steps:
                f:workspaces:
          f:write-read-array-pipeline-run-lsmpn-write1-task-vbghb:
            .:
            f:pipelineTaskName:
            f:status:
              .:
              f:completionTime:
              f:conditions:
              f:podName:
              f:startTime:
              f:steps:
              f:taskSpec:
                .:
                f:steps:
                f:workspaces:
          f:write-read-array-pipeline-run-lsmpn-write2-task-zm96n:
            .:
            f:pipelineTaskName:
            f:status:
              .:
              f:completionTime:
              f:conditions:
              f:podName:
              f:startTime:
              f:steps:
              f:taskSpec:
                .:
                f:steps:
                f:workspaces:
          f:write-read-array-pipeline-run-lsmpn-write3-task-8hfzs:
            .:
            f:pipelineTaskName:
            f:status:
              .:
              f:completionTime:
              f:conditions:
              f:podName:
              f:startTime:
              f:steps:
              f:taskSpec:
                .:
                f:steps:
                f:workspaces:
          f:write-read-array-pipeline-run-lsmpn-write4-task-69qc4:
            .:
            f:pipelineTaskName:
            f:status:
              .:
              f:completionTime:
              f:conditions:
              f:podName:
              f:startTime:
              f:steps:
              f:taskSpec:
                .:
                f:steps:
                f:workspaces:
    Manager:         controller
    Operation:       Update
    Time:            2022-03-09T03:44:54Z
  Resource Version:  7602812
  Self Link:         /apis/tekton.dev/v1beta1/namespaces/default/pipelineruns/write-read-array-pipeline-run-lsmpn
  UID:               35318930-d062-4fe1-bfda-f2c666fc241c
Spec:
  Pipeline Ref:
    Name:                write-read-array-pipeline
  Service Account Name:  default
  Task Run Specs:
    Pipeline Task Name:  write1-task
    Task Pod Template:
      Node Selector:
        kubernetes.io/hostname:  k8s-worker-node1
    Pipeline Task Name:          write2-task
    Task Pod Template:
      Node Selector:
        kubernetes.io/hostname:  k8s-worker-node2
    Pipeline Task Name:          write3-task
    Task Pod Template:
      Node Selector:
        kubernetes.io/hostname:  k8s-worker-node3
    Pipeline Task Name:          write4-task
    Task Pod Template:
      Node Selector:
        kubernetes.io/hostname:  k8s-worker-node4
    Pipeline Task Name:          read1-task
    Task Pod Template:
      Node Selector:
        kubernetes.io/hostname:  k8s-worker-node5
  Timeout:                       1h0m0s
  Workspaces:
    Name:  shared-vol-ws
    Volume Claim Template:
      Metadata:
        Creation Timestamp:  <nil>
      Spec:
        Access Modes:
          ReadWriteMany
        Resources:
          Requests:
            Storage:  50Gi
      Status:
    Name:  task-write1-ws
    Persistent Volume Claim:
      Claim Name:  task1-pv-claim
    Name:          task-write2-ws
    Persistent Volume Claim:
      Claim Name:  task2-pv-claim
    Name:          task-write3-ws
    Persistent Volume Claim:
      Claim Name:  task3-pv-claim
    Name:          task-write4-ws
    Persistent Volume Claim:
      Claim Name:  task4-pv-claim
    Name:          task-read1-ws
    Persistent Volume Claim:
      Claim Name:  task5-pv-claim
Status:
  Completion Time:  2022-03-09T03:44:53Z
  Conditions:
    Last Transition Time:  2022-03-09T03:44:53Z
    Message:               Tasks Completed: 5 (Failed: 0, Cancelled 0), Skipped: 0
    Reason:                Succeeded
    Status:                True
    Type:                  Succeeded
  Pipeline Spec:
    Tasks:
      Name:  write1-task
      Task Ref:
        Kind:  Task
        Name:  write1
      Workspaces:
        Name:       write1-shared-ws
        Workspace:  shared-vol-ws
        Name:       write1-ws
        Workspace:  task-write1-ws
      Name:         write2-task
      Task Ref:
        Kind:  Task
        Name:  write2
      Workspaces:
        Name:       write2-shared-ws
        Workspace:  shared-vol-ws
        Name:       write2-ws
        Workspace:  task-write2-ws
      Name:         write3-task
      Task Ref:
        Kind:  Task
        Name:  write3
      Workspaces:
        Name:       write3-shared-ws
        Workspace:  shared-vol-ws
        Name:       write3-ws
        Workspace:  task-write3-ws
      Name:         write4-task
      Task Ref:
        Kind:  Task
        Name:  write4
      Workspaces:
        Name:       write4-shared-ws
        Workspace:  shared-vol-ws
        Name:       write4-ws
        Workspace:  task-write4-ws
      Name:         read1-task
      Run After:
        write1-task
        write2-task
        write3-task
        write4-task
      Task Ref:
        Kind:  Task
        Name:  read1
      Workspaces:
        Name:       read1-shared-ws
        Workspace:  shared-vol-ws
        Name:       read1-ws
        Workspace:  task-read1-ws
    Workspaces:
      Name:    shared-vol-ws
      Name:    task-write1-ws
      Name:    task-write2-ws
      Name:    task-write3-ws
      Name:    task-write4-ws
      Name:    task-read1-ws
  Start Time:  2022-03-09T03:44:29Z
  Task Runs:
    write-read-array-pipeline-run-lsmpn-read1-task-ks8nb:
      Pipeline Task Name:  read1-task
      Status:
        Completion Time:  2022-03-09T03:44:53Z
        Conditions:
          Last Transition Time:  2022-03-09T03:44:53Z
          Message:               All Steps have completed executing
          Reason:                Succeeded
          Status:                True
          Type:                  Succeeded
        Pod Name:                write-read-array-pipeline-run-lsmpn-read1-task-ks8nb-pod-8znmz
        Start Time:              2022-03-09T03:44:44Z
        Steps:
          Container:  step-read
          Image ID:   docker-pullable://jupyter/scipy-notebook@sha256:87b339ec6a62b283d0c2aee1446e7bc2e5ad03a80d49d2dfddb031b233aedd29
          Name:       read
          Terminated:
            Container ID:  docker://de8fabb9958344c837c41d27a377d603f4d3e394834f69bee528caf835f3f2c0
            Exit Code:     0
            Finished At:   2022-03-09T03:44:53Z
            Reason:        Completed
            Started At:    2022-03-09T03:44:52Z
        Task Spec:
          Steps:
            Image:              jupyter/scipy-notebook
            Image Pull Policy:  IfNotPresent
            Name:               read
            Resources:
            Script:  #!/usr/bin/env python3
import time
# Store initial timestamp
with open("/timestamps/shared/4to1/32MB/r1cont_start_ts.txt", 'a+') as fp_rcont_s_ts:
   fp_rcont_s_ts.write("%f\n" % time.time())
# Read data object from remote shared storage
with open("/data/out1.txt", "r") as fp_data:
   data = fp_data.read()
with open("/data/out2.txt", "r") as fp_data:
   data = fp_data.read()
with open("/data/out3.txt", "r") as fp_data:
   data = fp_data.read()
with open("/data/out4.txt", "r") as fp_data:
   data = fp_data.read()
# Store final timestamp
with open("/timestamps/shared/4to1/32MB/r1cont_end_ts.txt", 'a+') as fp_rcont_e_ts:
   fp_rcont_e_ts.write("%f\n" % time.time())
#print("READER: Read %d x chars" % len(data))

          Workspaces:
            Mount Path:  /data
            Name:        read1-shared-ws
            Mount Path:  /timestamps
            Name:        read1-ws
    write-read-array-pipeline-run-lsmpn-write1-task-vbghb:
      Pipeline Task Name:  write1-task
      Status:
        Completion Time:  2022-03-09T03:44:42Z
        Conditions:
          Last Transition Time:  2022-03-09T03:44:42Z
          Message:               All Steps have completed executing
          Reason:                Succeeded
          Status:                True
          Type:                  Succeeded
        Pod Name:                write-read-array-pipeline-run-lsmpn-write1-task-vbghb-pod-cdpbz
        Start Time:              2022-03-09T03:44:29Z
        Steps:
          Container:  step-write
          Image ID:   docker-pullable://jupyter/scipy-notebook@sha256:87b339ec6a62b283d0c2aee1446e7bc2e5ad03a80d49d2dfddb031b233aedd29
          Name:       write
          Terminated:
            Container ID:  docker://94e5ba9741287cd2615c5b45ac1707eb4bf1b76bb6c5c13f502e69f000e9ef93
            Exit Code:     0
            Finished At:   2022-03-09T03:44:41Z
            Reason:        Completed
            Started At:    2022-03-09T03:44:40Z
        Task Spec:
          Steps:
            Image:              jupyter/scipy-notebook
            Image Pull Policy:  IfNotPresent
            Name:               write
            Resources:
            Script:  #!/usr/bin/env python3
import time
# Store initial timestamp
with open("/timestamps/shared/4to1/32MB/w1cont_start_ts.txt", 'a+') as fp_wcont_s_ts:
   fp_wcont_s_ts.write("%f\n" % time.time()) 
# Create data object
string = 'x' * 33554432
# Store timestamp after data creation 
with open("/timestamps/shared/4to1/32MB/w1cont_data_end_ts.txt", 'a+') as fp_wcont_data_ts:
   fp_wcont_data_ts.write("%f\n" % time.time())
# Write data object on the remote shared storage
with open("/data/out1.txt", 'w') as fp_data:
   fp_data.write("%s" % string)
# Store final timestamp
with open("/timestamps/shared/4to1/32MB/w1cont_end_ts.txt", 'a+') as fp_wcont_e_ts:
   fp_wcont_e_ts.write("%f\n" % time.time())
#print("WRITER: Written out1!")

          Workspaces:
            Mount Path:  /data
            Name:        write1-shared-ws
            Mount Path:  /timestamps
            Name:        write1-ws
    write-read-array-pipeline-run-lsmpn-write2-task-zm96n:
      Pipeline Task Name:  write2-task
      Status:
        Completion Time:  2022-03-09T03:44:39Z
        Conditions:
          Last Transition Time:  2022-03-09T03:44:39Z
          Message:               All Steps have completed executing
          Reason:                Succeeded
          Status:                True
          Type:                  Succeeded
        Pod Name:                write-read-array-pipeline-run-lsmpn-write2-task-zm96n-pod-8dnfm
        Start Time:              2022-03-09T03:44:29Z
        Steps:
          Container:  step-write
          Image ID:   docker-pullable://jupyter/scipy-notebook@sha256:87b339ec6a62b283d0c2aee1446e7bc2e5ad03a80d49d2dfddb031b233aedd29
          Name:       write
          Terminated:
            Container ID:  docker://d0b2f0ea704c87ad69fe60c844f63af9e0c5a20b215161220a50194f4eb6fa56
            Exit Code:     0
            Finished At:   2022-03-09T03:44:38Z
            Reason:        Completed
            Started At:    2022-03-09T03:44:38Z
        Task Spec:
          Steps:
            Image:              jupyter/scipy-notebook
            Image Pull Policy:  IfNotPresent
            Name:               write
            Resources:
            Script:  #!/usr/bin/env python3
import time
# Store initial timestamp
with open("/timestamps/shared/4to1/32MB/w2cont_start_ts.txt", 'a+') as fp_wcont_s_ts:
   fp_wcont_s_ts.write("%f\n" % time.time()) 
# Create data object
string = 'x' * 33554432
# Store timestamp after data creation 
with open("/timestamps/shared/4to1/32MB/w2cont_data_end_ts.txt", 'a+') as fp_wcont_data_ts:
   fp_wcont_data_ts.write("%f\n" % time.time())
# Write data object on the remote shared storage
with open("/data/out2.txt", 'w') as fp_data:
   fp_data.write("%s" % string)
# Store final timestamp
with open("/timestamps/shared/4to1/32MB/w2cont_end_ts.txt", 'a+') as fp_wcont_e_ts:
   fp_wcont_e_ts.write("%f\n" % time.time())
#print("WRITER: Written out1!")

          Workspaces:
            Mount Path:  /data
            Name:        write2-shared-ws
            Mount Path:  /timestamps
            Name:        write2-ws
    write-read-array-pipeline-run-lsmpn-write3-task-8hfzs:
      Pipeline Task Name:  write3-task
      Status:
        Completion Time:  2022-03-09T03:44:44Z
        Conditions:
          Last Transition Time:  2022-03-09T03:44:44Z
          Message:               All Steps have completed executing
          Reason:                Succeeded
          Status:                True
          Type:                  Succeeded
        Pod Name:                write-read-array-pipeline-run-lsmpn-write3-task-8hfzs-pod-h945g
        Start Time:              2022-03-09T03:44:30Z
        Steps:
          Container:  step-write
          Image ID:   docker-pullable://jupyter/scipy-notebook@sha256:87b339ec6a62b283d0c2aee1446e7bc2e5ad03a80d49d2dfddb031b233aedd29
          Name:       write
          Terminated:
            Container ID:  docker://0639917fd0bc5ef051e2d1d01b9b8be8e1b00d79573a2b4d9b196e8b80403d42
            Exit Code:     0
            Finished At:   2022-03-09T03:44:42Z
            Reason:        Completed
            Started At:    2022-03-09T03:44:42Z
        Task Spec:
          Steps:
            Image:              jupyter/scipy-notebook
            Image Pull Policy:  IfNotPresent
            Name:               write
            Resources:
            Script:  #!/usr/bin/env python3
import time
# Store initial timestamp
with open("/timestamps/shared/4to1/32MB/w3cont_start_ts.txt", 'a+') as fp_wcont_s_ts:
   fp_wcont_s_ts.write("%f\n" % time.time()) 
# Create data object
string = 'x' * 33554432
# Store timestamp after data creation 
with open("/timestamps/shared/4to1/32MB/w3cont_data_end_ts.txt", 'a+') as fp_wcont_data_ts:
   fp_wcont_data_ts.write("%f\n" % time.time())
# Write data object on the remote shared storage
with open("/data/out3.txt", 'w') as fp_data:
   fp_data.write("%s" % string)
# Store final timestamp
with open("/timestamps/shared/4to1/32MB/w3cont_end_ts.txt", 'a+') as fp_wcont_e_ts:
   fp_wcont_e_ts.write("%f\n" % time.time())
#print("WRITER: Written out1!")

          Workspaces:
            Mount Path:  /data
            Name:        write3-shared-ws
            Mount Path:  /timestamps
            Name:        write3-ws
    write-read-array-pipeline-run-lsmpn-write4-task-69qc4:
      Pipeline Task Name:  write4-task
      Status:
        Completion Time:  2022-03-09T03:44:37Z
        Conditions:
          Last Transition Time:  2022-03-09T03:44:37Z
          Message:               All Steps have completed executing
          Reason:                Succeeded
          Status:                True
          Type:                  Succeeded
        Pod Name:                write-read-array-pipeline-run-lsmpn-write4-task-69qc4-pod-bq86v
        Start Time:              2022-03-09T03:44:30Z
        Steps:
          Container:  step-write
          Image ID:   docker-pullable://jupyter/scipy-notebook@sha256:87b339ec6a62b283d0c2aee1446e7bc2e5ad03a80d49d2dfddb031b233aedd29
          Name:       write
          Terminated:
            Container ID:  docker://19acb3c35c14c6f26e4a326c0f377deb14a7d726f252e53a4794776d390120a6
            Exit Code:     0
            Finished At:   2022-03-09T03:44:37Z
            Reason:        Completed
            Started At:    2022-03-09T03:44:37Z
        Task Spec:
          Steps:
            Image:              jupyter/scipy-notebook
            Image Pull Policy:  IfNotPresent
            Name:               write
            Resources:
            Script:  #!/usr/bin/env python3
import time
# Store initial timestamp
with open("/timestamps/shared/4to1/32MB/w4cont_start_ts.txt", 'a+') as fp_wcont_s_ts:
   fp_wcont_s_ts.write("%f\n" % time.time()) 
# Create data object
string = 'x' * 33554432
# Store timestamp after data creation 
with open("/timestamps/shared/4to1/32MB/w4cont_data_end_ts.txt", 'a+') as fp_wcont_data_ts:
   fp_wcont_data_ts.write("%f\n" % time.time())
# Write data object on the remote shared storage
with open("/data/out4.txt", 'w') as fp_data:
   fp_data.write("%s" % string)
# Store final timestamp
with open("/timestamps/shared/4to1/32MB/w4cont_end_ts.txt", 'a+') as fp_wcont_e_ts:
   fp_wcont_e_ts.write("%f\n" % time.time())
#print("WRITER: Written out1!")

          Workspaces:
            Mount Path:  /data
            Name:        write4-shared-ws
            Mount Path:  /timestamps
            Name:        write4-ws
Events:
  Type    Reason     Age                From         Message
  ----    ------     ----               ----         -------
  Normal  Started    32s                PipelineRun  
  Normal  Running    32s                PipelineRun  Tasks Completed: 0 (Failed: 0, Cancelled 0), Incomplete: 5, Skipped: 0
  Normal  Running    24s                PipelineRun  Tasks Completed: 1 (Failed: 0, Cancelled 0), Incomplete: 4, Skipped: 0
  Normal  Running    22s                PipelineRun  Tasks Completed: 2 (Failed: 0, Cancelled 0), Incomplete: 3, Skipped: 0
  Normal  Running    19s                PipelineRun  Tasks Completed: 3 (Failed: 0, Cancelled 0), Incomplete: 2, Skipped: 0
  Normal  Running    17s (x2 over 17s)  PipelineRun  Tasks Completed: 4 (Failed: 0, Cancelled 0), Incomplete: 1, Skipped: 0
  Normal  Succeeded  8s                 PipelineRun  Tasks Completed: 5 (Failed: 0, Cancelled 0), Skipped: 0
