Name:         write-read-array-pipeline-run-2458q
Namespace:    default
Labels:       tekton.dev/pipeline=write-read-array-pipeline
Annotations:  <none>
API Version:  tekton.dev/v1beta1
Kind:         PipelineRun
Metadata:
  Creation Timestamp:  2022-03-06T17:43:01Z
  Generate Name:       write-read-array-pipeline-run-
  Generation:          1
  Managed Fields:
    API Version:  tekton.dev/v1beta1
    Fields Type:  FieldsV1
    fieldsV1:
      f:metadata:
        f:generateName:
      f:spec:
        .:
        f:pipelineRef:
          .:
          f:name:
        f:taskRunSpecs:
        f:workspaces:
    Manager:      kubectl-create
    Operation:    Update
    Time:         2022-03-06T17:43:01Z
    API Version:  tekton.dev/v1beta1
    Fields Type:  FieldsV1
    fieldsV1:
      f:metadata:
        f:annotations:
          .:
          f:kubectl.kubernetes.io/last-applied-configuration:
        f:labels:
          .:
          f:tekton.dev/pipeline:
      f:status:
        .:
        f:completionTime:
        f:conditions:
        f:pipelineSpec:
          .:
          f:tasks:
          f:workspaces:
        f:startTime:
        f:taskRuns:
          .:
          f:write-read-array-pipeline-run-2458q-read1-task-56hfh:
            .:
            f:pipelineTaskName:
            f:status:
              .:
              f:completionTime:
              f:conditions:
              f:podName:
              f:startTime:
              f:steps:
              f:taskSpec:
                .:
                f:steps:
                f:workspaces:
          f:write-read-array-pipeline-run-2458q-read2-task-rnv4c:
            .:
            f:pipelineTaskName:
            f:status:
              .:
              f:completionTime:
              f:conditions:
              f:podName:
              f:startTime:
              f:steps:
              f:taskSpec:
                .:
                f:steps:
                f:workspaces:
          f:write-read-array-pipeline-run-2458q-read3-task-ktrnv:
            .:
            f:pipelineTaskName:
            f:status:
              .:
              f:completionTime:
              f:conditions:
              f:podName:
              f:startTime:
              f:steps:
              f:taskSpec:
                .:
                f:steps:
                f:workspaces:
          f:write-read-array-pipeline-run-2458q-read4-task-j7cws:
            .:
            f:pipelineTaskName:
            f:status:
              .:
              f:completionTime:
              f:conditions:
              f:podName:
              f:startTime:
              f:steps:
              f:taskSpec:
                .:
                f:steps:
                f:workspaces:
          f:write-read-array-pipeline-run-2458q-read5-task-pt26h:
            .:
            f:pipelineTaskName:
            f:status:
              .:
              f:completionTime:
              f:conditions:
              f:podName:
              f:startTime:
              f:steps:
              f:taskSpec:
                .:
                f:steps:
                f:workspaces:
          f:write-read-array-pipeline-run-2458q-read6-task-hqgqr:
            .:
            f:pipelineTaskName:
            f:status:
              .:
              f:completionTime:
              f:conditions:
              f:podName:
              f:startTime:
              f:steps:
              f:taskSpec:
                .:
                f:steps:
                f:workspaces:
          f:write-read-array-pipeline-run-2458q-write1-task-j8nqj:
            .:
            f:pipelineTaskName:
            f:status:
              .:
              f:completionTime:
              f:conditions:
              f:podName:
              f:startTime:
              f:steps:
              f:taskSpec:
                .:
                f:steps:
                f:workspaces:
    Manager:         controller
    Operation:       Update
    Time:            2022-03-06T17:44:06Z
  Resource Version:  1772315
  Self Link:         /apis/tekton.dev/v1beta1/namespaces/default/pipelineruns/write-read-array-pipeline-run-2458q
  UID:               57f74f78-9d71-4f49-bce2-49126fdfe86f
Spec:
  Pipeline Ref:
    Name:                write-read-array-pipeline
  Service Account Name:  default
  Task Run Specs:
    Pipeline Task Name:  write1-task
    Task Pod Template:
      Node Selector:
        kubernetes.io/hostname:  k8s-worker-node1
    Pipeline Task Name:          read1-task
    Task Pod Template:
      Node Selector:
        kubernetes.io/hostname:  k8s-worker-node2
    Pipeline Task Name:          read2-task
    Task Pod Template:
      Node Selector:
        kubernetes.io/hostname:  k8s-worker-node3
    Pipeline Task Name:          read3-task
    Task Pod Template:
      Node Selector:
        kubernetes.io/hostname:  k8s-worker-node4
    Pipeline Task Name:          read4-task
    Task Pod Template:
      Node Selector:
        kubernetes.io/hostname:  k8s-worker-node5
    Pipeline Task Name:          read5-task
    Task Pod Template:
      Node Selector:
        kubernetes.io/hostname:  k8s-worker-node6
    Pipeline Task Name:          read6-task
    Task Pod Template:
      Node Selector:
        kubernetes.io/hostname:  k8s-worker-node7
  Timeout:                       1h0m0s
  Workspaces:
    Name:  shared-vol-ws
    Volume Claim Template:
      Metadata:
        Creation Timestamp:  <nil>
      Spec:
        Access Modes:
          ReadWriteMany
        Resources:
          Requests:
            Storage:  50Gi
      Status:
    Name:  task-write1-ws
    Persistent Volume Claim:
      Claim Name:  task1-pv-claim
    Name:          task-read1-ws
    Persistent Volume Claim:
      Claim Name:  task2-pv-claim
    Name:          task-read2-ws
    Persistent Volume Claim:
      Claim Name:  task3-pv-claim
    Name:          task-read3-ws
    Persistent Volume Claim:
      Claim Name:  task4-pv-claim
    Name:          task-read4-ws
    Persistent Volume Claim:
      Claim Name:  task5-pv-claim
    Name:          task-read5-ws
    Persistent Volume Claim:
      Claim Name:  task6-pv-claim
    Name:          task-read6-ws
    Persistent Volume Claim:
      Claim Name:  task7-pv-claim
Status:
  Completion Time:  2022-03-06T17:44:06Z
  Conditions:
    Last Transition Time:  2022-03-06T17:44:06Z
    Message:               Tasks Completed: 7 (Failed: 0, Cancelled 0), Skipped: 0
    Reason:                Succeeded
    Status:                True
    Type:                  Succeeded
  Pipeline Spec:
    Tasks:
      Name:  write1-task
      Task Ref:
        Kind:  Task
        Name:  write1
      Workspaces:
        Name:       write1-shared-ws
        Workspace:  shared-vol-ws
        Name:       write1-ws
        Workspace:  task-write1-ws
      Name:         read1-task
      Run After:
        write1-task
      Task Ref:
        Kind:  Task
        Name:  read1
      Workspaces:
        Name:       read1-shared-ws
        Workspace:  shared-vol-ws
        Name:       read1-ws
        Workspace:  task-read1-ws
      Name:         read2-task
      Run After:
        write1-task
      Task Ref:
        Kind:  Task
        Name:  read2
      Workspaces:
        Name:       read2-shared-ws
        Workspace:  shared-vol-ws
        Name:       read2-ws
        Workspace:  task-read2-ws
      Name:         read3-task
      Run After:
        write1-task
      Task Ref:
        Kind:  Task
        Name:  read3
      Workspaces:
        Name:       read3-shared-ws
        Workspace:  shared-vol-ws
        Name:       read3-ws
        Workspace:  task-read3-ws
      Name:         read4-task
      Run After:
        write1-task
      Task Ref:
        Kind:  Task
        Name:  read4
      Workspaces:
        Name:       read4-shared-ws
        Workspace:  shared-vol-ws
        Name:       read4-ws
        Workspace:  task-read4-ws
      Name:         read5-task
      Run After:
        write1-task
      Task Ref:
        Kind:  Task
        Name:  read5
      Workspaces:
        Name:       read5-shared-ws
        Workspace:  shared-vol-ws
        Name:       read5-ws
        Workspace:  task-read5-ws
      Name:         read6-task
      Run After:
        write1-task
      Task Ref:
        Kind:  Task
        Name:  read6
      Workspaces:
        Name:       read6-shared-ws
        Workspace:  shared-vol-ws
        Name:       read6-ws
        Workspace:  task-read6-ws
    Workspaces:
      Name:    shared-vol-ws
      Name:    task-write1-ws
      Name:    task-read1-ws
      Name:    task-read2-ws
      Name:    task-read3-ws
      Name:    task-read4-ws
      Name:    task-read5-ws
      Name:    task-read6-ws
  Start Time:  2022-03-06T17:43:01Z
  Task Runs:
    write-read-array-pipeline-run-2458q-read1-task-56hfh:
      Pipeline Task Name:  read1-task
      Status:
        Completion Time:  2022-03-06T17:44:03Z
        Conditions:
          Last Transition Time:  2022-03-06T17:44:03Z
          Message:               All Steps have completed executing
          Reason:                Succeeded
          Status:                True
          Type:                  Succeeded
        Pod Name:                write-read-array-pipeline-run-2458q-read1-task-56hfh-pod-rb7nb
        Start Time:              2022-03-06T17:43:30Z
        Steps:
          Container:  step-read
          Image ID:   docker-pullable://jupyter/scipy-notebook@sha256:87b339ec6a62b283d0c2aee1446e7bc2e5ad03a80d49d2dfddb031b233aedd29
          Name:       read
          Terminated:
            Container ID:  docker://2534cfb78bc16325b062599dbdc328dc8cc851831b49e4c2b5e0abce411963d9
            Exit Code:     0
            Finished At:   2022-03-06T17:44:02Z
            Reason:        Completed
            Started At:    2022-03-06T17:43:38Z
        Task Spec:
          Steps:
            Image:              jupyter/scipy-notebook
            Image Pull Policy:  IfNotPresent
            Name:               read
            Resources:
            Script:  #!/usr/bin/env python3
import time
# Store initial timestamp
with open("/timestamps/shared/1to6/2GB/r1cont_start_ts.txt", 'a+') as fp_rcont_s_ts:
   fp_rcont_s_ts.write("%f\n" % time.time())
# Read data object from remote shared storage
with open("/data/out1.txt", "r") as fp_data:
   data = fp_data.read()
# Store final timestamp
with open("/timestamps/shared/1to6/2GB/r1cont_end_ts.txt", 'a+') as fp_rcont_e_ts:
   fp_rcont_e_ts.write("%f\n" % time.time())
#print("READER: Read %d x chars" % len(data))

          Workspaces:
            Mount Path:  /data
            Name:        read1-shared-ws
            Mount Path:  /timestamps
            Name:        read1-ws
    write-read-array-pipeline-run-2458q-read2-task-rnv4c:
      Pipeline Task Name:  read2-task
      Status:
        Completion Time:  2022-03-06T17:44:06Z
        Conditions:
          Last Transition Time:  2022-03-06T17:44:06Z
          Message:               All Steps have completed executing
          Reason:                Succeeded
          Status:                True
          Type:                  Succeeded
        Pod Name:                write-read-array-pipeline-run-2458q-read2-task-rnv4c-pod-zvvrv
        Start Time:              2022-03-06T17:43:30Z
        Steps:
          Container:  step-read
          Image ID:   docker-pullable://jupyter/scipy-notebook@sha256:87b339ec6a62b283d0c2aee1446e7bc2e5ad03a80d49d2dfddb031b233aedd29
          Name:       read
          Terminated:
            Container ID:  docker://dbec8803b3717a9c7425265c1677b5cc671fd5d82325edcb2ef58944a6c1c6fc
            Exit Code:     0
            Finished At:   2022-03-06T17:44:05Z
            Reason:        Completed
            Started At:    2022-03-06T17:43:41Z
        Task Spec:
          Steps:
            Image:              jupyter/scipy-notebook
            Image Pull Policy:  IfNotPresent
            Name:               read
            Resources:
            Script:  #!/usr/bin/env python3
import time
# Store initial timestamp
with open("/timestamps/shared/1to6/2GB/r2cont_start_ts.txt", 'a+') as fp_rcont_s_ts:
   fp_rcont_s_ts.write("%f\n" % time.time())
# Read data object from remote shared storage
with open("/data/out1.txt", "r") as fp_data:
   data = fp_data.read()
# Store final timestamp
with open("/timestamps/shared/1to6/2GB/r2cont_end_ts.txt", 'a+') as fp_rcont_e_ts:
   fp_rcont_e_ts.write("%f\n" % time.time())
#print("READER: Read %d x chars" % len(data))

          Workspaces:
            Mount Path:  /data
            Name:        read2-shared-ws
            Mount Path:  /timestamps
            Name:        read2-ws
    write-read-array-pipeline-run-2458q-read3-task-ktrnv:
      Pipeline Task Name:  read3-task
      Status:
        Completion Time:  2022-03-06T17:44:00Z
        Conditions:
          Last Transition Time:  2022-03-06T17:44:00Z
          Message:               All Steps have completed executing
          Reason:                Succeeded
          Status:                True
          Type:                  Succeeded
        Pod Name:                write-read-array-pipeline-run-2458q-read3-task-ktrnv-pod-2jfmf
        Start Time:              2022-03-06T17:43:31Z
        Steps:
          Container:  step-read
          Image ID:   docker-pullable://jupyter/scipy-notebook@sha256:87b339ec6a62b283d0c2aee1446e7bc2e5ad03a80d49d2dfddb031b233aedd29
          Name:       read
          Terminated:
            Container ID:  docker://627ee0d7282e767a3b0de445cb1b88567972419d0e0c0130169bdb19bc42b99d
            Exit Code:     0
            Finished At:   2022-03-06T17:44:00Z
            Reason:        Completed
            Started At:    2022-03-06T17:43:38Z
        Task Spec:
          Steps:
            Image:              jupyter/scipy-notebook
            Image Pull Policy:  IfNotPresent
            Name:               read
            Resources:
            Script:  #!/usr/bin/env python3
import time
# Store initial timestamp
with open("/timestamps/shared/1to6/2GB/r3cont_start_ts.txt", 'a+') as fp_rcont_s_ts:
   fp_rcont_s_ts.write("%f\n" % time.time())
# Read data object from remote shared storage
with open("/data/out1.txt", "r") as fp_data:
   data = fp_data.read()
# Store final timestamp
with open("/timestamps/shared/1to6/2GB/r3cont_end_ts.txt", 'a+') as fp_rcont_e_ts:
   fp_rcont_e_ts.write("%f\n" % time.time())
#print("READER: Read %d x chars" % len(data))

          Workspaces:
            Mount Path:  /data
            Name:        read3-shared-ws
            Mount Path:  /timestamps
            Name:        read3-ws
    write-read-array-pipeline-run-2458q-read4-task-j7cws:
      Pipeline Task Name:  read4-task
      Status:
        Completion Time:  2022-03-06T17:44:04Z
        Conditions:
          Last Transition Time:  2022-03-06T17:44:04Z
          Message:               All Steps have completed executing
          Reason:                Succeeded
          Status:                True
          Type:                  Succeeded
        Pod Name:                write-read-array-pipeline-run-2458q-read4-task-j7cws-pod-b5w66
        Start Time:              2022-03-06T17:43:31Z
        Steps:
          Container:  step-read
          Image ID:   docker-pullable://jupyter/scipy-notebook@sha256:87b339ec6a62b283d0c2aee1446e7bc2e5ad03a80d49d2dfddb031b233aedd29
          Name:       read
          Terminated:
            Container ID:  docker://f17d1f8285f6d0fdaa4d2fa1fc008cc21841447ce6e534c0954d99b2a22c7fb2
            Exit Code:     0
            Finished At:   2022-03-06T17:44:04Z
            Reason:        Completed
            Started At:    2022-03-06T17:43:39Z
        Task Spec:
          Steps:
            Image:              jupyter/scipy-notebook
            Image Pull Policy:  IfNotPresent
            Name:               read
            Resources:
            Script:  #!/usr/bin/env python3
import time
# Store initial timestamp
with open("/timestamps/shared/1to6/2GB/r4cont_start_ts.txt", 'a+') as fp_rcont_s_ts:
   fp_rcont_s_ts.write("%f\n" % time.time())
# Read data object from remote shared storage
with open("/data/out1.txt", "r") as fp_data:
   data = fp_data.read()
# Store final timestamp
with open("/timestamps/shared/1to6/2GB/r4cont_end_ts.txt", 'a+') as fp_rcont_e_ts:
   fp_rcont_e_ts.write("%f\n" % time.time())
#print("READER: Read %d x chars" % len(data))

          Workspaces:
            Mount Path:  /data
            Name:        read4-shared-ws
            Mount Path:  /timestamps
            Name:        read4-ws
    write-read-array-pipeline-run-2458q-read5-task-pt26h:
      Pipeline Task Name:  read5-task
      Status:
        Completion Time:  2022-03-06T17:44:04Z
        Conditions:
          Last Transition Time:  2022-03-06T17:44:04Z
          Message:               All Steps have completed executing
          Reason:                Succeeded
          Status:                True
          Type:                  Succeeded
        Pod Name:                write-read-array-pipeline-run-2458q-read5-task-pt26h-pod-crs2z
        Start Time:              2022-03-06T17:43:31Z
        Steps:
          Container:  step-read
          Image ID:   docker-pullable://jupyter/scipy-notebook@sha256:87b339ec6a62b283d0c2aee1446e7bc2e5ad03a80d49d2dfddb031b233aedd29
          Name:       read
          Terminated:
            Container ID:  docker://bdf645850a5ef16a78cbb4140ad2c18cd000b28d4d3acc5fce77c20958174947
            Exit Code:     0
            Finished At:   2022-03-06T17:44:04Z
            Reason:        Completed
            Started At:    2022-03-06T17:43:40Z
        Task Spec:
          Steps:
            Image:              jupyter/scipy-notebook
            Image Pull Policy:  IfNotPresent
            Name:               read
            Resources:
            Script:  #!/usr/bin/env python3
import time
# Store initial timestamp
with open("/timestamps/shared/1to6/2GB/r5cont_start_ts.txt", 'a+') as fp_rcont_s_ts:
   fp_rcont_s_ts.write("%f\n" % time.time())
# Read data object from remote shared storage
with open("/data/out1.txt", "r") as fp_data:
   data = fp_data.read()
# Store final timestamp
with open("/timestamps/shared/1to6/2GB/r5cont_end_ts.txt", 'a+') as fp_rcont_e_ts:
   fp_rcont_e_ts.write("%f\n" % time.time())
#print("READER: Read %d x chars" % len(data))

          Workspaces:
            Mount Path:  /data
            Name:        read5-shared-ws
            Mount Path:  /timestamps
            Name:        read5-ws
    write-read-array-pipeline-run-2458q-read6-task-hqgqr:
      Pipeline Task Name:  read6-task
      Status:
        Completion Time:  2022-03-06T17:44:04Z
        Conditions:
          Last Transition Time:  2022-03-06T17:44:04Z
          Message:               All Steps have completed executing
          Reason:                Succeeded
          Status:                True
          Type:                  Succeeded
        Pod Name:                write-read-array-pipeline-run-2458q-read6-task-hqgqr-pod-vf8j7
        Start Time:              2022-03-06T17:43:31Z
        Steps:
          Container:  step-read
          Image ID:   docker-pullable://jupyter/scipy-notebook@sha256:87b339ec6a62b283d0c2aee1446e7bc2e5ad03a80d49d2dfddb031b233aedd29
          Name:       read
          Terminated:
            Container ID:  docker://27724fbc2029f03d752b6e2050d6598bf128196cfc7a21eb2d80882c4e702a65
            Exit Code:     0
            Finished At:   2022-03-06T17:44:04Z
            Reason:        Completed
            Started At:    2022-03-06T17:43:40Z
        Task Spec:
          Steps:
            Image:              jupyter/scipy-notebook
            Image Pull Policy:  IfNotPresent
            Name:               read
            Resources:
            Script:  #!/usr/bin/env python3
import time
# Store initial timestamp
with open("/timestamps/shared/1to6/2GB/r6cont_start_ts.txt", 'a+') as fp_rcont_s_ts:
   fp_rcont_s_ts.write("%f\n" % time.time())
# Read data object from remote shared storage
with open("/data/out1.txt", "r") as fp_data:
   data = fp_data.read()
# Store final timestamp
with open("/timestamps/shared/1to6/2GB/r6cont_end_ts.txt", 'a+') as fp_rcont_e_ts:
   fp_rcont_e_ts.write("%f\n" % time.time())
#print("READER: Read %d x chars" % len(data))

          Workspaces:
            Mount Path:  /data
            Name:        read6-shared-ws
            Mount Path:  /timestamps
            Name:        read6-ws
    write-read-array-pipeline-run-2458q-write1-task-j8nqj:
      Pipeline Task Name:  write1-task
      Status:
        Completion Time:  2022-03-06T17:43:30Z
        Conditions:
          Last Transition Time:  2022-03-06T17:43:30Z
          Message:               All Steps have completed executing
          Reason:                Succeeded
          Status:                True
          Type:                  Succeeded
        Pod Name:                write-read-array-pipeline-run-2458q-write1-task-j8nqj-pod-2z5zt
        Start Time:              2022-03-06T17:43:01Z
        Steps:
          Container:  step-write
          Image ID:   docker-pullable://jupyter/scipy-notebook@sha256:87b339ec6a62b283d0c2aee1446e7bc2e5ad03a80d49d2dfddb031b233aedd29
          Name:       write
          Terminated:
            Container ID:  docker://2346846bb39727cffbf9e09948e08b379c44696ace0c7fff44a2e9bba224fda1
            Exit Code:     0
            Finished At:   2022-03-06T17:43:29Z
            Reason:        Completed
            Started At:    2022-03-06T17:43:10Z
        Task Spec:
          Steps:
            Image:              jupyter/scipy-notebook
            Image Pull Policy:  IfNotPresent
            Name:               write
            Resources:
            Script:  #!/usr/bin/env python3
import time
# Store initial timestamp
with open("/timestamps/shared/1to6/2GB/w1cont_start_ts.txt", 'a+') as fp_wcont_s_ts:
   fp_wcont_s_ts.write("%f\n" % time.time()) 
# Create data object
string = 'x' * 2147483648
# Store timestamp after data creation 
with open("/timestamps/shared/1to6/2GB/w1cont_data_end_ts.txt", 'a+') as fp_wcont_data_ts:
   fp_wcont_data_ts.write("%f\n" % time.time())
# Write data object on the remote shared storage
with open("/data/out1.txt", 'w') as fp_data:
   fp_data.write("%s" % string)
# Store final timestamp
with open("/timestamps/shared/1to6/2GB/w1cont_end_ts.txt", 'a+') as fp_wcont_e_ts:
   fp_wcont_e_ts.write("%f\n" % time.time())
#print("WRITER: Written out1!")

          Workspaces:
            Mount Path:  /data
            Name:        write1-shared-ws
            Mount Path:  /timestamps
            Name:        write1-ws
Events:
  Type    Reason     Age                From         Message
  ----    ------     ----               ----         -------
  Normal  Started    73s (x2 over 73s)  PipelineRun  
  Normal  Running    73s (x2 over 73s)  PipelineRun  Tasks Completed: 0 (Failed: 0, Cancelled 0), Incomplete: 7, Skipped: 0
  Normal  Running    43s (x2 over 43s)  PipelineRun  Tasks Completed: 1 (Failed: 0, Cancelled 0), Incomplete: 6, Skipped: 0
  Normal  Running    13s                PipelineRun  Tasks Completed: 2 (Failed: 0, Cancelled 0), Incomplete: 5, Skipped: 0
  Normal  Running    10s                PipelineRun  Tasks Completed: 3 (Failed: 0, Cancelled 0), Incomplete: 4, Skipped: 0
  Normal  Running    9s                 PipelineRun  Tasks Completed: 4 (Failed: 0, Cancelled 0), Incomplete: 3, Skipped: 0
  Normal  Running    9s                 PipelineRun  Tasks Completed: 5 (Failed: 0, Cancelled 0), Incomplete: 2, Skipped: 0
  Normal  Running    9s                 PipelineRun  Tasks Completed: 6 (Failed: 0, Cancelled 0), Incomplete: 1, Skipped: 0
  Normal  Succeeded  7s                 PipelineRun  Tasks Completed: 7 (Failed: 0, Cancelled 0), Skipped: 0
