Name:         write-read-array-pipeline-run-fsjhc
Namespace:    default
Labels:       tekton.dev/pipeline=write-read-array-pipeline
Annotations:  <none>
API Version:  tekton.dev/v1beta1
Kind:         PipelineRun
Metadata:
  Creation Timestamp:  2022-03-04T18:45:13Z
  Generate Name:       write-read-array-pipeline-run-
  Generation:          1
  Managed Fields:
    API Version:  tekton.dev/v1beta1
    Fields Type:  FieldsV1
    fieldsV1:
      f:metadata:
        f:generateName:
      f:spec:
        .:
        f:pipelineRef:
          .:
          f:name:
        f:taskRunSpecs:
        f:workspaces:
    Manager:      kubectl-create
    Operation:    Update
    Time:         2022-03-04T18:45:13Z
    API Version:  tekton.dev/v1beta1
    Fields Type:  FieldsV1
    fieldsV1:
      f:metadata:
        f:annotations:
          .:
          f:kubectl.kubernetes.io/last-applied-configuration:
        f:labels:
          .:
          f:tekton.dev/pipeline:
      f:status:
        .:
        f:completionTime:
        f:conditions:
        f:pipelineSpec:
          .:
          f:tasks:
          f:workspaces:
        f:startTime:
        f:taskRuns:
          .:
          f:write-read-array-pipeline-run-fsjhc-read1-task-4lzpc:
            .:
            f:pipelineTaskName:
            f:status:
              .:
              f:completionTime:
              f:conditions:
              f:podName:
              f:startTime:
              f:steps:
              f:taskSpec:
                .:
                f:steps:
                f:workspaces:
          f:write-read-array-pipeline-run-fsjhc-read2-task-pjljw:
            .:
            f:pipelineTaskName:
            f:status:
              .:
              f:completionTime:
              f:conditions:
              f:podName:
              f:startTime:
              f:steps:
              f:taskSpec:
                .:
                f:steps:
                f:workspaces:
          f:write-read-array-pipeline-run-fsjhc-write1-task-9czwx:
            .:
            f:pipelineTaskName:
            f:status:
              .:
              f:completionTime:
              f:conditions:
              f:podName:
              f:startTime:
              f:steps:
              f:taskSpec:
                .:
                f:steps:
                f:workspaces:
    Manager:         controller
    Operation:       Update
    Time:            2022-03-04T18:46:24Z
  Resource Version:  7485610
  Self Link:         /apis/tekton.dev/v1beta1/namespaces/default/pipelineruns/write-read-array-pipeline-run-fsjhc
  UID:               19a3cdc3-6283-43f3-86f3-96959d843612
Spec:
  Pipeline Ref:
    Name:                write-read-array-pipeline
  Service Account Name:  default
  Task Run Specs:
    Pipeline Task Name:  write1-task
    Task Pod Template:
      Node Selector:
        kubernetes.io/hostname:  k8s-worker-node1
    Pipeline Task Name:          read1-task
    Task Pod Template:
      Node Selector:
        kubernetes.io/hostname:  k8s-worker-node2
    Pipeline Task Name:          read2-task
    Task Pod Template:
      Node Selector:
        kubernetes.io/hostname:  k8s-worker-node3
  Timeout:                       1h0m0s
  Workspaces:
    Name:  task-write1-ws
    Persistent Volume Claim:
      Claim Name:  task1-pv-claim
    Name:          task-read1-ws
    Persistent Volume Claim:
      Claim Name:  task2-pv-claim
    Name:          task-read2-ws
    Persistent Volume Claim:
      Claim Name:  task3-pv-claim
Status:
  Completion Time:  2022-03-04T18:46:24Z
  Conditions:
    Last Transition Time:  2022-03-04T18:46:24Z
    Message:               Tasks Completed: 3 (Failed: 0, Cancelled 0), Skipped: 0
    Reason:                Succeeded
    Status:                True
    Type:                  Succeeded
  Pipeline Spec:
    Tasks:
      Name:  write1-task
      Task Ref:
        Kind:  Task
        Name:  write1
      Workspaces:
        Name:       write1-ws
        Workspace:  task-write1-ws
      Name:         read1-task
      Run After:
        write1-task
      Task Ref:
        Kind:  Task
        Name:  read1
      Workspaces:
        Name:       read1-ws
        Workspace:  task-read1-ws
      Name:         read2-task
      Run After:
        write1-task
      Task Ref:
        Kind:  Task
        Name:  read2
      Workspaces:
        Name:       read2-ws
        Workspace:  task-read2-ws
    Workspaces:
      Name:    task-write1-ws
      Name:    task-read1-ws
      Name:    task-read2-ws
  Start Time:  2022-03-04T18:45:13Z
  Task Runs:
    write-read-array-pipeline-run-fsjhc-read1-task-4lzpc:
      Pipeline Task Name:  read1-task
      Status:
        Completion Time:  2022-03-04T18:46:24Z
        Conditions:
          Last Transition Time:  2022-03-04T18:46:24Z
          Message:               All Steps have completed executing
          Reason:                Succeeded
          Status:                True
          Type:                  Succeeded
        Pod Name:                write-read-array-pipeline-run-fsjhc-read1-task-4lzpc-pod-lskpd
        Start Time:              2022-03-04T18:45:40Z
        Steps:
          Container:  step-s-start
          Image ID:   docker-pullable://python@sha256:6870fa6a910d1f4fa2ab485be14c7a34622064833ccbd9b381efba5a78447b03
          Name:       s-start
          Terminated:
            Container ID:  docker://1ff4d65d5a56f32e35dffc931e5734ca0b79ef9376471a3085de0fee80bca16e
            Exit Code:     0
            Finished At:   2022-03-04T18:46:14Z
            Reason:        Completed
            Started At:    2022-03-04T18:45:48Z
          Container:       step-read
          Image ID:        docker-pullable://jupyter/scipy-notebook@sha256:e51cb4700af349c040bbf83c7f7a3c5fb94edb97df3071be48d5eae6c03d2f5b
          Name:            read
          Terminated:
            Container ID:  docker://d2fcaa1232ddcfbeae90fc4e5df139858ff65ed93722ad0c35944d87d311389e
            Exit Code:     0
            Finished At:   2022-03-04T18:46:23Z
            Reason:        Completed
            Started At:    2022-03-04T18:46:15Z
        Task Spec:
          Steps:
            Image:              python
            Image Pull Policy:  IfNotPresent
            Name:               s-start
            Resources:
            Script:  #!/usr/bin/env python3
import time
# Store initial timestamp
with open("/data/timestamps/socket/1to2/4GB/r1sent_start_ts.txt", 'a+') as fp_sent_s_ts:
   fp_sent_s_ts.write("%f\n" % time.time())
# Wait for the ready signal from external process
with open("/data/sync_pipe", "rb") as sync_pipe_file:
   while(int.from_bytes(sync_pipe_file.read(1), "little") != 1):
       continue
# Store final timestamp
with open("/data/timestamps/socket/1to2/4GB/r1sent_end_ts.txt", 'a+') as fp_sent_e_ts:
   fp_sent_e_ts.write("%f\n" % time.time())

            Image:              jupyter/scipy-notebook
            Image Pull Policy:  IfNotPresent
            Name:               read
            Resources:
            Script:  #!/usr/bin/env python3
import time
# Store initial timestamp
with open("/data/timestamps/socket/1to2/4GB/r1cont_start_ts.txt", 'a+') as fp_rcont_s_ts:
   fp_rcont_s_ts.write("%f\n" % time.time())
# Read data object from remote shared storage
with open("/data/in_data/out1.txt", "r") as fp_data:
   data = fp_data.read()
# Store final timestamp
with open("/data/timestamps/socket/1to2/4GB/r1cont_end_ts.txt", 'a+') as fp_rcont_e_ts:
   fp_rcont_e_ts.write("%f\n" % time.time())
#print("READER: Read %d x chars" % len(data))

          Workspaces:
            Mount Path:  /data
            Name:        read1-ws
    write-read-array-pipeline-run-fsjhc-read2-task-pjljw:
      Pipeline Task Name:  read2-task
      Status:
        Completion Time:  2022-03-04T18:46:24Z
        Conditions:
          Last Transition Time:  2022-03-04T18:46:24Z
          Message:               All Steps have completed executing
          Reason:                Succeeded
          Status:                True
          Type:                  Succeeded
        Pod Name:                write-read-array-pipeline-run-fsjhc-read2-task-pjljw-pod-mw22q
        Start Time:              2022-03-04T18:45:40Z
        Steps:
          Container:  step-s-start
          Image ID:   docker-pullable://python@sha256:6870fa6a910d1f4fa2ab485be14c7a34622064833ccbd9b381efba5a78447b03
          Name:       s-start
          Terminated:
            Container ID:  docker://44b58a83e30c77b208d3bca337a990a5a4b77d4681ad96a7367a279c4e59f227
            Exit Code:     0
            Finished At:   2022-03-04T18:46:15Z
            Reason:        Completed
            Started At:    2022-03-04T18:45:55Z
          Container:       step-read
          Image ID:        docker-pullable://jupyter/scipy-notebook@sha256:e51cb4700af349c040bbf83c7f7a3c5fb94edb97df3071be48d5eae6c03d2f5b
          Name:            read
          Terminated:
            Container ID:  docker://300ddeee567eeb2fa2a2905938a44c8c6e3734405acf873d83501129dc0dcda6
            Exit Code:     0
            Finished At:   2022-03-04T18:46:23Z
            Reason:        Completed
            Started At:    2022-03-04T18:46:16Z
        Task Spec:
          Steps:
            Image:              python
            Image Pull Policy:  IfNotPresent
            Name:               s-start
            Resources:
            Script:  #!/usr/bin/env python3
import time
# Store initial timestamp
with open("/data/timestamps/socket/1to2/4GB/r2sent_start_ts.txt", 'a+') as fp_sent_s_ts:
   fp_sent_s_ts.write("%f\n" % time.time())
# Wait for the ready signal from external process
with open("/data/sync_pipe", "rb") as sync_pipe_file:
   while(int.from_bytes(sync_pipe_file.read(1), "little") != 1):
       continue
# Store final timestamp
with open("/data/timestamps/socket/1to2/4GB/r2sent_end_ts.txt", 'a+') as fp_sent_e_ts:
   fp_sent_e_ts.write("%f\n" % time.time())

            Image:              jupyter/scipy-notebook
            Image Pull Policy:  IfNotPresent
            Name:               read
            Resources:
            Script:  #!/usr/bin/env python3
import time
# Store initial timestamp
with open("/data/timestamps/socket/1to2/4GB/r2cont_start_ts.txt", 'a+') as fp_rcont_s_ts:
   fp_rcont_s_ts.write("%f\n" % time.time())
# Read data object from remote shared storage
with open("/data/in_data/out1.txt", "r") as fp_data:
   data = fp_data.read()
# Store final timestamp
with open("/data/timestamps/socket/1to2/4GB/r2cont_end_ts.txt", 'a+') as fp_rcont_e_ts:
   fp_rcont_e_ts.write("%f\n" % time.time())
#print("READER: Read %d x chars" % len(data))

          Workspaces:
            Mount Path:  /data
            Name:        read2-ws
    write-read-array-pipeline-run-fsjhc-write1-task-9czwx:
      Pipeline Task Name:  write1-task
      Status:
        Completion Time:  2022-03-04T18:45:40Z
        Conditions:
          Last Transition Time:  2022-03-04T18:45:40Z
          Message:               All Steps have completed executing
          Reason:                Succeeded
          Status:                True
          Type:                  Succeeded
        Pod Name:                write-read-array-pipeline-run-fsjhc-write1-task-9czwx-pod-ph86n
        Start Time:              2022-03-04T18:45:14Z
        Steps:
          Container:  step-write
          Image ID:   docker-pullable://jupyter/scipy-notebook@sha256:e51cb4700af349c040bbf83c7f7a3c5fb94edb97df3071be48d5eae6c03d2f5b
          Name:       write
          Terminated:
            Container ID:  docker://b16043229047232392758ab97a01aeb726054b3e5d577947505e45b423d97914
            Exit Code:     0
            Finished At:   2022-03-04T18:45:38Z
            Reason:        Completed
            Started At:    2022-03-04T18:45:27Z
          Container:       step-s-end
          Image ID:        docker-pullable://python@sha256:6870fa6a910d1f4fa2ab485be14c7a34622064833ccbd9b381efba5a78447b03
          Name:            s-end
          Terminated:
            Container ID:  docker://e87a73fa0dd0c6ed5fab2f7e55bf899d499a51b030c5fd6c9b770c01025cf08c
            Exit Code:     0
            Finished At:   2022-03-04T18:45:39Z
            Reason:        Completed
            Started At:    2022-03-04T18:45:39Z
        Task Spec:
          Steps:
            Image:              jupyter/scipy-notebook
            Image Pull Policy:  IfNotPresent
            Name:               write
            Resources:
            Script:  #!/usr/bin/env python3
import time
# Store initial timestamp
with open("/data/timestamps/socket/1to2/4GB/w1cont_start_ts.txt", 'a+') as fp_wcont_s_ts:
   fp_wcont_s_ts.write("%f\n" % time.time())
# Create data object
string = 'x' * 4294967296
# Store timestamp after data creation
with open("/data/timestamps/socket/1to2/4GB/w1cont_data_end_ts.txt", 'a+') as fp_wcont_data_ts:
   fp_wcont_data_ts.write("%f\n" % time.time())
# Write data object on the local pv
with open("/data/out_data/out1.txt", 'w') as fp_data:
   fp_data.write("%s" % string)
# Store final timestamp
with open("/data/timestamps/socket/1to2/4GB/w1cont_end_ts.txt", 'a+') as fp_wcont_e_ts:
   fp_wcont_e_ts.write("%f\n" % time.time())
#print("WRITER: Written out1!")

            Image:              python
            Image Pull Policy:  IfNotPresent
            Name:               s-end
            Resources:
            Script:  #!/usr/bin/env python3
import os
import time
# Store initial timestamp
with open("/data/timestamps/socket/1to2/4GB/w1sent_start_ts.txt", 'a+') as fp_sent_s_ts:
   fp_sent_s_ts.write("%f\n" % time.time())
# Writes ready signal to sync pipe
os.system("echo 1 > /data/sync_pipe")
# Store final timestamp
with open("/data/timestamps/socket/1to2/4GB/w1sent_end_ts.txt", 'a+') as fp_sent_e_ts:
   fp_sent_e_ts.write("%f\n" % time.time())
#print("WRITER: Finished!")

          Workspaces:
            Mount Path:  /data
            Name:        write1-ws
Events:
  Type    Reason     Age                From         Message
  ----    ------     ----               ----         -------
  Normal  Started    79s (x2 over 79s)  PipelineRun  
  Normal  Running    79s (x2 over 79s)  PipelineRun  Tasks Completed: 0 (Failed: 0, Cancelled 0), Incomplete: 3, Skipped: 0
  Normal  Running    52s (x2 over 52s)  PipelineRun  Tasks Completed: 1 (Failed: 0, Cancelled 0), Incomplete: 2, Skipped: 0
  Normal  Running    8s                 PipelineRun  Tasks Completed: 2 (Failed: 0, Cancelled 0), Incomplete: 1, Skipped: 0
  Normal  Succeeded  8s                 PipelineRun  Tasks Completed: 3 (Failed: 0, Cancelled 0), Skipped: 0
