Name:         write-read-array-pipeline-run-kbjfh
Namespace:    default
Labels:       tekton.dev/pipeline=write-read-array-pipeline
Annotations:  <none>
API Version:  tekton.dev/v1beta1
Kind:         PipelineRun
Metadata:
  Creation Timestamp:  2022-03-29T15:48:09Z
  Generate Name:       write-read-array-pipeline-run-
  Generation:          1
  Managed Fields:
    API Version:  tekton.dev/v1beta1
    Fields Type:  FieldsV1
    fieldsV1:
      f:metadata:
        f:generateName:
      f:spec:
        .:
        f:pipelineRef:
          .:
          f:name:
        f:taskRunSpecs:
        f:workspaces:
    Manager:      kubectl-create
    Operation:    Update
    Time:         2022-03-29T15:48:09Z
    API Version:  tekton.dev/v1beta1
    Fields Type:  FieldsV1
    fieldsV1:
      f:metadata:
        f:annotations:
          .:
          f:kubectl.kubernetes.io/last-applied-configuration:
        f:labels:
          .:
          f:tekton.dev/pipeline:
      f:status:
        .:
        f:completionTime:
        f:conditions:
        f:pipelineSpec:
          .:
          f:tasks:
          f:workspaces:
        f:startTime:
        f:taskRuns:
          .:
          f:write-read-array-pipeline-run-kbjfh-read1-task-xn867:
            .:
            f:pipelineTaskName:
            f:status:
              .:
              f:completionTime:
              f:conditions:
              f:podName:
              f:startTime:
              f:steps:
              f:taskSpec:
                .:
                f:steps:
                f:workspaces:
          f:write-read-array-pipeline-run-kbjfh-read2-task-dbjbz:
            .:
            f:pipelineTaskName:
            f:status:
              .:
              f:completionTime:
              f:conditions:
              f:podName:
              f:startTime:
              f:steps:
              f:taskSpec:
                .:
                f:steps:
                f:workspaces:
          f:write-read-array-pipeline-run-kbjfh-read3-task-4x8q6:
            .:
            f:pipelineTaskName:
            f:status:
              .:
              f:completionTime:
              f:conditions:
              f:podName:
              f:startTime:
              f:steps:
              f:taskSpec:
                .:
                f:steps:
                f:workspaces:
          f:write-read-array-pipeline-run-kbjfh-write1-task-ss5vr:
            .:
            f:pipelineTaskName:
            f:status:
              .:
              f:completionTime:
              f:conditions:
              f:podName:
              f:startTime:
              f:steps:
              f:taskSpec:
                .:
                f:steps:
                f:workspaces:
          f:write-read-array-pipeline-run-kbjfh-write2-task-b5s4f:
            .:
            f:pipelineTaskName:
            f:status:
              .:
              f:completionTime:
              f:conditions:
              f:podName:
              f:startTime:
              f:steps:
              f:taskSpec:
                .:
                f:steps:
                f:workspaces:
          f:write-read-array-pipeline-run-kbjfh-write3-task-tcsgq:
            .:
            f:pipelineTaskName:
            f:status:
              .:
              f:completionTime:
              f:conditions:
              f:podName:
              f:startTime:
              f:steps:
              f:taskSpec:
                .:
                f:steps:
                f:workspaces:
    Manager:         controller
    Operation:       Update
    Time:            2022-03-29T15:48:56Z
  Resource Version:  54496153
  Self Link:         /apis/tekton.dev/v1beta1/namespaces/default/pipelineruns/write-read-array-pipeline-run-kbjfh
  UID:               fc7c0b90-127e-4d14-b746-2e2f6ef9bc1d
Spec:
  Pipeline Ref:
    Name:                write-read-array-pipeline
  Service Account Name:  default
  Task Run Specs:
    Pipeline Task Name:  write1-task
    Task Pod Template:
      Node Selector:
        kubernetes.io/hostname:  k8s-worker-node1
    Pipeline Task Name:          write2-task
    Task Pod Template:
      Node Selector:
        kubernetes.io/hostname:  k8s-worker-node2
    Pipeline Task Name:          write3-task
    Task Pod Template:
      Node Selector:
        kubernetes.io/hostname:  k8s-worker-node3
    Pipeline Task Name:          read1-task
    Task Pod Template:
      Node Selector:
        kubernetes.io/hostname:  k8s-worker-node4
    Pipeline Task Name:          read2-task
    Task Pod Template:
      Node Selector:
        kubernetes.io/hostname:  k8s-worker-node5
    Pipeline Task Name:          read3-task
    Task Pod Template:
      Node Selector:
        kubernetes.io/hostname:  k8s-worker-node6
  Timeout:                       1h0m0s
  Workspaces:
    Name:  task-write1-ws
    Persistent Volume Claim:
      Claim Name:  task1-pv-claim
    Name:          task-write2-ws
    Persistent Volume Claim:
      Claim Name:  task2-pv-claim
    Name:          task-write3-ws
    Persistent Volume Claim:
      Claim Name:  task3-pv-claim
    Name:          task-read1-ws
    Persistent Volume Claim:
      Claim Name:  task4-pv-claim
    Name:          task-read2-ws
    Persistent Volume Claim:
      Claim Name:  task5-pv-claim
    Name:          task-read3-ws
    Persistent Volume Claim:
      Claim Name:  task6-pv-claim
Status:
  Completion Time:  2022-03-29T15:48:55Z
  Conditions:
    Last Transition Time:  2022-03-29T15:48:55Z
    Message:               Tasks Completed: 6 (Failed: 0, Cancelled 0), Skipped: 0
    Reason:                Succeeded
    Status:                True
    Type:                  Succeeded
  Pipeline Spec:
    Tasks:
      Name:  write1-task
      Task Ref:
        Kind:  Task
        Name:  write1
      Workspaces:
        Name:       write1-ws
        Workspace:  task-write1-ws
      Name:         write2-task
      Task Ref:
        Kind:  Task
        Name:  write2
      Workspaces:
        Name:       write2-ws
        Workspace:  task-write2-ws
      Name:         write3-task
      Task Ref:
        Kind:  Task
        Name:  write3
      Workspaces:
        Name:       write3-ws
        Workspace:  task-write3-ws
      Name:         read1-task
      Run After:
        write1-task
        write2-task
        write3-task
      Task Ref:
        Kind:  Task
        Name:  read1
      Workspaces:
        Name:       read1-ws
        Workspace:  task-read1-ws
      Name:         read2-task
      Run After:
        write1-task
        write2-task
        write3-task
      Task Ref:
        Kind:  Task
        Name:  read2
      Workspaces:
        Name:       read2-ws
        Workspace:  task-read2-ws
      Name:         read3-task
      Run After:
        write1-task
        write2-task
        write3-task
      Task Ref:
        Kind:  Task
        Name:  read3
      Workspaces:
        Name:       read3-ws
        Workspace:  task-read3-ws
    Workspaces:
      Name:    task-write1-ws
      Name:    task-write2-ws
      Name:    task-write3-ws
      Name:    task-read1-ws
      Name:    task-read2-ws
      Name:    task-read3-ws
  Start Time:  2022-03-29T15:48:09Z
  Task Runs:
    write-read-array-pipeline-run-kbjfh-read1-task-xn867:
      Pipeline Task Name:  read1-task
      Status:
        Completion Time:  2022-03-29T15:48:55Z
        Conditions:
          Last Transition Time:  2022-03-29T15:48:55Z
          Message:               All Steps have completed executing
          Reason:                Succeeded
          Status:                True
          Type:                  Succeeded
        Pod Name:                write-read-array-pipeline-run-kbjfh-read1-task-xn867-pod-8w2b8
        Start Time:              2022-03-29T15:48:33Z
        Steps:
          Container:  step-s-start
          Image ID:   docker-pullable://python@sha256:c90e15c86e2ebe71244a2a51bc7f094554422c159ce309a6faadb6debd5a6df0
          Name:       s-start
          Terminated:
            Container ID:  docker://8ca61008356918833ef7d41d1b2901a4dcdb983b4dd3bee6feeb9f14fe93b6d9
            Exit Code:     0
            Finished At:   2022-03-29T15:48:53Z
            Reason:        Completed
            Started At:    2022-03-29T15:48:51Z
          Container:       step-read
          Image ID:        docker-pullable://jupyter/scipy-notebook@sha256:87b339ec6a62b283d0c2aee1446e7bc2e5ad03a80d49d2dfddb031b233aedd29
          Name:            read
          Terminated:
            Container ID:  docker://29c0c2918dd1d2481d2dc0cdd03b13ced8d51564c6f882da930ab68d0ec9eb05
            Exit Code:     0
            Finished At:   2022-03-29T15:48:55Z
            Reason:        Completed
            Started At:    2022-03-29T15:48:54Z
        Task Spec:
          Steps:
            Image:              python
            Image Pull Policy:  IfNotPresent
            Name:               s-start
            Resources:
            Script:  #!/usr/bin/env python3
import time
# Store initial timestamp
with open("/data/timestamps/socket/3to3/256MB/r1sent_start_ts.txt", 'a+') as fp_sent_s_ts:
   fp_sent_s_ts.write("%f\n" % time.time())
# Wait for the ready signal from external process
with open("/data/sync_pipe", "rb") as sync_pipe_file:
   while(int.from_bytes(sync_pipe_file.read(1), "little") != 1):
       continue
# Store final timestamp
with open("/data/timestamps/socket/3to3/256MB/r1sent_end_ts.txt", 'a+') as fp_sent_e_ts:
   fp_sent_e_ts.write("%f\n" % time.time())

            Image:              jupyter/scipy-notebook
            Image Pull Policy:  IfNotPresent
            Name:               read
            Resources:
            Script:  #!/usr/bin/env python3
import time
import gc
# Store initial timestamp
with open("/data/timestamps/socket/3to3/256MB/r1cont_start_ts.txt", 'a+') as fp_rcont_s_ts:
   fp_rcont_s_ts.write("%f\n" % time.time())
# Read data object from remote shared storage
with open("/data/in_data/out1.bin", "rb") as fp_data1:
   data = fp_data1.read()
   del data
   gc.collect()
with open("/data/in_data/out2.bin", "rb") as fp_data2:
   data = fp_data2.read()
   del data
   gc.collect()
with open("/data/in_data/out3.bin", "rb") as fp_data3:
   data = fp_data3.read()
   del data
   gc.collect()
# Store final timestamp
with open("/data/timestamps/socket/3to3/256MB/r1cont_end_ts.txt", 'a+') as fp_rcont_e_ts:
   fp_rcont_e_ts.write("%f\n" % time.time())
#print("READER: Read %d x chars" % len(data))

          Workspaces:
            Mount Path:  /data
            Name:        read1-ws
    write-read-array-pipeline-run-kbjfh-read2-task-dbjbz:
      Pipeline Task Name:  read2-task
      Status:
        Completion Time:  2022-03-29T15:48:52Z
        Conditions:
          Last Transition Time:  2022-03-29T15:48:52Z
          Message:               All Steps have completed executing
          Reason:                Succeeded
          Status:                True
          Type:                  Succeeded
        Pod Name:                write-read-array-pipeline-run-kbjfh-read2-task-dbjbz-pod-ktz8s
        Start Time:              2022-03-29T15:48:33Z
        Steps:
          Container:  step-s-start
          Image ID:   docker-pullable://python@sha256:6441e2f0bd2e566de0df6445cb8e7e395ea1a376dd702de908d70401d3700961
          Name:       s-start
          Terminated:
            Container ID:  docker://7413db79440e59780954266c745a892ff8d8b6ae290e82eada4a3147dea92a22
            Exit Code:     0
            Finished At:   2022-03-29T15:48:49Z
            Reason:        Completed
            Started At:    2022-03-29T15:48:47Z
          Container:       step-read
          Image ID:        docker-pullable://jupyter/scipy-notebook@sha256:af220ba516b0c154461915f76b5b170ff8f4fb35a5c80f7e94577117f39b743c
          Name:            read
          Terminated:
            Container ID:  docker://c0c7ff104873807fae49e08992ab54d4fc3f574ef298c32366be30e62e2ef3e8
            Exit Code:     0
            Finished At:   2022-03-29T15:48:52Z
            Reason:        Completed
            Started At:    2022-03-29T15:48:50Z
        Task Spec:
          Steps:
            Image:              python
            Image Pull Policy:  IfNotPresent
            Name:               s-start
            Resources:
            Script:  #!/usr/bin/env python3
import time
# Store initial timestamp
with open("/data/timestamps/socket/3to3/256MB/r2sent_start_ts.txt", 'a+') as fp_sent_s_ts:
   fp_sent_s_ts.write("%f\n" % time.time())
# Wait for the ready signal from external process
with open("/data/sync_pipe", "rb") as sync_pipe_file:
   while(int.from_bytes(sync_pipe_file.read(1), "little") != 1):
       continue
# Store final timestamp
with open("/data/timestamps/socket/3to3/256MB/r2sent_end_ts.txt", 'a+') as fp_sent_e_ts:
   fp_sent_e_ts.write("%f\n" % time.time())

            Image:              jupyter/scipy-notebook
            Image Pull Policy:  IfNotPresent
            Name:               read
            Resources:
            Script:  #!/usr/bin/env python3
import time
import gc
# Store initial timestamp
with open("/data/timestamps/socket/3to3/256MB/r2cont_start_ts.txt", 'a+') as fp_rcont_s_ts:
   fp_rcont_s_ts.write("%f\n" % time.time())
# Read data object from remote shared storage
with open("/data/in_data/out1.bin", "rb") as fp_data1:
   data = fp_data1.read()
   del data
   gc.collect()
with open("/data/in_data/out2.bin", "rb") as fp_data2:
   data = fp_data2.read()
   del data
   gc.collect()
with open("/data/in_data/out3.bin", "rb") as fp_data3:
   data = fp_data3.read()
   del data
   gc.collect()
# Store final timestamp
with open("/data/timestamps/socket/3to3/256MB/r2cont_end_ts.txt", 'a+') as fp_rcont_e_ts:
   fp_rcont_e_ts.write("%f\n" % time.time())
#print("READER: Read %d x chars" % len(data))

          Workspaces:
            Mount Path:  /data
            Name:        read2-ws
    write-read-array-pipeline-run-kbjfh-read3-task-4x8q6:
      Pipeline Task Name:  read3-task
      Status:
        Completion Time:  2022-03-29T15:48:52Z
        Conditions:
          Last Transition Time:  2022-03-29T15:48:52Z
          Message:               All Steps have completed executing
          Reason:                Succeeded
          Status:                True
          Type:                  Succeeded
        Pod Name:                write-read-array-pipeline-run-kbjfh-read3-task-4x8q6-pod-8zpnv
        Start Time:              2022-03-29T15:48:33Z
        Steps:
          Container:  step-s-start
          Image ID:   docker-pullable://python@sha256:e71692a9512db7addf474eff98e84822d12ff4708b3aa298cb7fa15478aa76a8
          Name:       s-start
          Terminated:
            Container ID:  docker://6a82ca66e84c0644b7565934e8a29bcf6fb53049c1f78875b81ffa59eb3c4079
            Exit Code:     0
            Finished At:   2022-03-29T15:48:49Z
            Reason:        Completed
            Started At:    2022-03-29T15:48:48Z
          Container:       step-read
          Image ID:        docker-pullable://jupyter/scipy-notebook@sha256:87b339ec6a62b283d0c2aee1446e7bc2e5ad03a80d49d2dfddb031b233aedd29
          Name:            read
          Terminated:
            Container ID:  docker://fe3a6c396390aaf7ce7931e8e9b5924b1e4f94b5970f8ba41da6aa9975bfe4ca
            Exit Code:     0
            Finished At:   2022-03-29T15:48:52Z
            Reason:        Completed
            Started At:    2022-03-29T15:48:50Z
        Task Spec:
          Steps:
            Image:              python
            Image Pull Policy:  IfNotPresent
            Name:               s-start
            Resources:
            Script:  #!/usr/bin/env python3
import time
# Store initial timestamp
with open("/data/timestamps/socket/3to3/256MB/r3sent_start_ts.txt", 'a+') as fp_sent_s_ts:
   fp_sent_s_ts.write("%f\n" % time.time())
# Wait for the ready signal from external process
with open("/data/sync_pipe", "rb") as sync_pipe_file:
   while(int.from_bytes(sync_pipe_file.read(1), "little") != 1):
       continue
# Store final timestamp
with open("/data/timestamps/socket/3to3/256MB/r3sent_end_ts.txt", 'a+') as fp_sent_e_ts:
   fp_sent_e_ts.write("%f\n" % time.time())

            Image:              jupyter/scipy-notebook
            Image Pull Policy:  IfNotPresent
            Name:               read
            Resources:
            Script:  #!/usr/bin/env python3
import time
import gc
# Store initial timestamp
with open("/data/timestamps/socket/3to3/256MB/r3cont_start_ts.txt", 'a+') as fp_rcont_s_ts:
   fp_rcont_s_ts.write("%f\n" % time.time())
# Read data object from remote shared storage
with open("/data/in_data/out1.bin", "rb") as fp_data1:
   data = fp_data1.read()
   del data
   gc.collect()
with open("/data/in_data/out2.bin", "rb") as fp_data2:
   data = fp_data2.read()
   del data
   gc.collect()
with open("/data/in_data/out3.bin", "rb") as fp_data3:
   data = fp_data3.read()
   del data
   gc.collect()
# Store final timestamp
with open("/data/timestamps/socket/3to3/256MB/r3cont_end_ts.txt", 'a+') as fp_rcont_e_ts:
   fp_rcont_e_ts.write("%f\n" % time.time())
#print("READER: Read %d x chars" % len(data))

          Workspaces:
            Mount Path:  /data
            Name:        read3-ws
    write-read-array-pipeline-run-kbjfh-write1-task-ss5vr:
      Pipeline Task Name:  write1-task
      Status:
        Completion Time:  2022-03-29T15:48:32Z
        Conditions:
          Last Transition Time:  2022-03-29T15:48:32Z
          Message:               All Steps have completed executing
          Reason:                Succeeded
          Status:                True
          Type:                  Succeeded
        Pod Name:                write-read-array-pipeline-run-kbjfh-write1-task-ss5vr-pod-5zqdh
        Start Time:              2022-03-29T15:48:09Z
        Steps:
          Container:  step-write
          Image ID:   docker-pullable://jupyter/scipy-notebook@sha256:87b339ec6a62b283d0c2aee1446e7bc2e5ad03a80d49d2dfddb031b233aedd29
          Name:       write
          Terminated:
            Container ID:  docker://d6535495fbf1fed1597eb2e9d1203f2c99da6eca0b7c8c253a95a115c66656dc
            Exit Code:     0
            Finished At:   2022-03-29T15:48:29Z
            Reason:        Completed
            Started At:    2022-03-29T15:48:26Z
          Container:       step-s-end
          Image ID:        docker-pullable://python@sha256:c90e15c86e2ebe71244a2a51bc7f094554422c159ce309a6faadb6debd5a6df0
          Name:            s-end
          Terminated:
            Container ID:  docker://9631c6d6b802b4c0ab6ccad84533793bb9e51522718a8ce4ca7217cbd7391ca4
            Exit Code:     0
            Finished At:   2022-03-29T15:48:31Z
            Reason:        Completed
            Started At:    2022-03-29T15:48:30Z
        Task Spec:
          Steps:
            Image:              jupyter/scipy-notebook
            Image Pull Policy:  IfNotPresent
            Name:               write
            Resources:
            Script:  #!/usr/bin/env python3
import time
# Store initial timestamp
with open("/data/timestamps/socket/3to3/256MB/w1cont_start_ts.txt", 'a+') as fp_wcont_s_ts:
   fp_wcont_s_ts.write("%f\n" % time.time())
# Create data object
#string = 'x' * 268435456
bytes = bytearray(b'\x01') * 268435456
# Store timestamp after data creation
with open("/data/timestamps/socket/3to3/256MB/w1cont_data_end_ts.txt", 'a+') as fp_wcont_data_ts:
   fp_wcont_data_ts.write("%f\n" % time.time())
# Write data object on the local pv
with open("/data/out_data/out1.bin", 'wb') as fp_data:
   fp_data.write(bytes)
# Store final timestamp
with open("/data/timestamps/socket/3to3/256MB/w1cont_end_ts.txt", 'a+') as fp_wcont_e_ts:
   fp_wcont_e_ts.write("%f\n" % time.time())
#print("WRITER: Written out1!")

            Image:              python
            Image Pull Policy:  IfNotPresent
            Name:               s-end
            Resources:
            Script:  #!/usr/bin/env python3
import os
import time
# Store initial timestamp
with open("/data/timestamps/socket/3to3/256MB/w1sent_start_ts.txt", 'a+') as fp_sent_s_ts:
   fp_sent_s_ts.write("%f\n" % time.time())
# Writes ready signal to sync pipe
os.system("echo 1 > /data/sync_pipe")
# Store final timestamp
with open("/data/timestamps/socket/3to3/256MB/w1sent_end_ts.txt", 'a+') as fp_sent_e_ts:
   fp_sent_e_ts.write("%f\n" % time.time())
#print("WRITER: Finished!")

          Workspaces:
            Mount Path:  /data
            Name:        write1-ws
    write-read-array-pipeline-run-kbjfh-write2-task-b5s4f:
      Pipeline Task Name:  write2-task
      Status:
        Completion Time:  2022-03-29T15:48:28Z
        Conditions:
          Last Transition Time:  2022-03-29T15:48:28Z
          Message:               All Steps have completed executing
          Reason:                Succeeded
          Status:                True
          Type:                  Succeeded
        Pod Name:                write-read-array-pipeline-run-kbjfh-write2-task-b5s4f-pod-sk7x2
        Start Time:              2022-03-29T15:48:09Z
        Steps:
          Container:  step-write
          Image ID:   docker-pullable://jupyter/scipy-notebook@sha256:87b339ec6a62b283d0c2aee1446e7bc2e5ad03a80d49d2dfddb031b233aedd29
          Name:       write
          Terminated:
            Container ID:  docker://d93eb8fbc4adb699c9ac99dac5a15ec4448e28d7205dd833c2c206fd2e5829b9
            Exit Code:     0
            Finished At:   2022-03-29T15:48:25Z
            Reason:        Completed
            Started At:    2022-03-29T15:48:24Z
          Container:       step-s-end
          Image ID:        docker-pullable://python@sha256:c90e15c86e2ebe71244a2a51bc7f094554422c159ce309a6faadb6debd5a6df0
          Name:            s-end
          Terminated:
            Container ID:  docker://3904ad36322875077d1b88deab65167719945d79f9523e7a913f2cf8dfa70bc5
            Exit Code:     0
            Finished At:   2022-03-29T15:48:26Z
            Reason:        Completed
            Started At:    2022-03-29T15:48:25Z
        Task Spec:
          Steps:
            Image:              jupyter/scipy-notebook
            Image Pull Policy:  IfNotPresent
            Name:               write
            Resources:
            Script:  #!/usr/bin/env python3
import time
# Store initial timestamp
with open("/data/timestamps/socket/3to3/256MB/w2cont_start_ts.txt", 'a+') as fp_wcont_s_ts:
   fp_wcont_s_ts.write("%f\n" % time.time())
# Create data object
#string = 'x' * 268435456
bytes = bytearray(b'\x01') * 268435456
# Store timestamp after data creation
with open("/data/timestamps/socket/3to3/256MB/w2cont_data_end_ts.txt", 'a+') as fp_wcont_data_ts:
   fp_wcont_data_ts.write("%f\n" % time.time())
# Write data object on the local pv
with open("/data/out_data/out2.bin", 'wb') as fp_data:
   fp_data.write(bytes)
# Store final timestamp
with open("/data/timestamps/socket/3to3/256MB/w2cont_end_ts.txt", 'a+') as fp_wcont_e_ts:
   fp_wcont_e_ts.write("%f\n" % time.time())
#print("WRITER: Written out1!")

            Image:              python
            Image Pull Policy:  IfNotPresent
            Name:               s-end
            Resources:
            Script:  #!/usr/bin/env python3
import os
import time
# Store initial timestamp
with open("/data/timestamps/socket/3to3/256MB/w2sent_start_ts.txt", 'a+') as fp_sent_s_ts:
   fp_sent_s_ts.write("%f\n" % time.time())
# Writes ready signal to sync pipe
os.system("echo 1 > /data/sync_pipe")
# Store final timestamp
with open("/data/timestamps/socket/3to3/256MB/w2sent_end_ts.txt", 'a+') as fp_sent_e_ts:
   fp_sent_e_ts.write("%f\n" % time.time())
#print("WRITER: Finished!")

          Workspaces:
            Mount Path:  /data
            Name:        write2-ws
    write-read-array-pipeline-run-kbjfh-write3-task-tcsgq:
      Pipeline Task Name:  write3-task
      Status:
        Completion Time:  2022-03-29T15:48:27Z
        Conditions:
          Last Transition Time:  2022-03-29T15:48:27Z
          Message:               All Steps have completed executing
          Reason:                Succeeded
          Status:                True
          Type:                  Succeeded
        Pod Name:                write-read-array-pipeline-run-kbjfh-write3-task-tcsgq-pod-dplq5
        Start Time:              2022-03-29T15:48:10Z
        Steps:
          Container:  step-write
          Image ID:   docker-pullable://jupyter/scipy-notebook@sha256:87b339ec6a62b283d0c2aee1446e7bc2e5ad03a80d49d2dfddb031b233aedd29
          Name:       write
          Terminated:
            Container ID:  docker://9a4143e3059b0bd5496088c1c98bf1e6634886ba642cd0a7c8254c92309dc172
            Exit Code:     0
            Finished At:   2022-03-29T15:48:24Z
            Reason:        Completed
            Started At:    2022-03-29T15:48:22Z
          Container:       step-s-end
          Image ID:        docker-pullable://python@sha256:c90e15c86e2ebe71244a2a51bc7f094554422c159ce309a6faadb6debd5a6df0
          Name:            s-end
          Terminated:
            Container ID:  docker://98350b8b4ab058e2e38170c6bbf372c1777db8d1ade13e7478ba992b120fd7d0
            Exit Code:     0
            Finished At:   2022-03-29T15:48:27Z
            Reason:        Completed
            Started At:    2022-03-29T15:48:25Z
        Task Spec:
          Steps:
            Image:              jupyter/scipy-notebook
            Image Pull Policy:  IfNotPresent
            Name:               write
            Resources:
            Script:  #!/usr/bin/env python3
import time
# Store initial timestamp
with open("/data/timestamps/socket/3to3/256MB/w3cont_start_ts.txt", 'a+') as fp_wcont_s_ts:
   fp_wcont_s_ts.write("%f\n" % time.time())
# Create data object
#string = 'x' * 268435456
bytes = bytearray(b'\x01') * 268435456
# Store timestamp after data creation
with open("/data/timestamps/socket/3to3/256MB/w3cont_data_end_ts.txt", 'a+') as fp_wcont_data_ts:
   fp_wcont_data_ts.write("%f\n" % time.time())
# Write data object on the local pv
with open("/data/out_data/out3.bin", 'wb') as fp_data:
   fp_data.write(bytes)
# Store final timestamp
with open("/data/timestamps/socket/3to3/256MB/w3cont_end_ts.txt", 'a+') as fp_wcont_e_ts:
   fp_wcont_e_ts.write("%f\n" % time.time())
#print("WRITER: Written out1!")

            Image:              python
            Image Pull Policy:  IfNotPresent
            Name:               s-end
            Resources:
            Script:  #!/usr/bin/env python3
import os
import time
# Store initial timestamp
with open("/data/timestamps/socket/3to3/256MB/w3sent_start_ts.txt", 'a+') as fp_sent_s_ts:
   fp_sent_s_ts.write("%f\n" % time.time())
# Writes ready signal to sync pipe
os.system("echo 1 > /data/sync_pipe")
# Store final timestamp
with open("/data/timestamps/socket/3to3/256MB/w3sent_end_ts.txt", 'a+') as fp_sent_e_ts:
   fp_sent_e_ts.write("%f\n" % time.time())
#print("WRITER: Finished!")

          Workspaces:
            Mount Path:  /data
            Name:        write3-ws
Events:
  Type    Reason     Age                From         Message
  ----    ------     ----               ----         -------
  Normal  Started    56s (x2 over 56s)  PipelineRun  
  Normal  Running    56s (x2 over 56s)  PipelineRun  Tasks Completed: 0 (Failed: 0, Cancelled 0), Incomplete: 6, Skipped: 0
  Normal  Running    37s                PipelineRun  Tasks Completed: 1 (Failed: 0, Cancelled 0), Incomplete: 5, Skipped: 0
  Normal  Running    36s                PipelineRun  Tasks Completed: 2 (Failed: 0, Cancelled 0), Incomplete: 4, Skipped: 0
  Normal  Running    32s (x2 over 32s)  PipelineRun  Tasks Completed: 3 (Failed: 0, Cancelled 0), Incomplete: 3, Skipped: 0
  Normal  Running    12s                PipelineRun  Tasks Completed: 4 (Failed: 0, Cancelled 0), Incomplete: 2, Skipped: 0
  Normal  Running    12s                PipelineRun  Tasks Completed: 5 (Failed: 0, Cancelled 0), Incomplete: 1, Skipped: 0
  Normal  Succeeded  9s                 PipelineRun  Tasks Completed: 6 (Failed: 0, Cancelled 0), Skipped: 0
