data_dim,sh_w_data_time,sh_w_op_time,sh_r_op_time,so_d_w_data_time,so_d_w_op_time,so_d_r_op_time,so_d_w_sent_time,so_d_r_sent_time,so_m_w_data_time,so_m_w_op_time,so_m_r_op_time,so_m_w_sent_time,so_m_r_sent_time,so_p_w_data_time,so_p_w_op_time,so_p_r_op_time
1 MB,0.0008946418762207031,0.021430420875549316,0.01379537582397461,0.0009064912796020508,0.0024234771728515623,0.002256298065185547,0.001421809196472168,0.00026080608367919924,0.0008532285690307617,0.0018910408020019532,0.0021703958511352537,0.0016773462295532227,0.0002970695495605469,0.0008482933044433594,0.001987171173095703,1.5978631019592284
2 MB,0.0016390562057495117,0.029297804832458495,0.020274949073791505,0.0015272378921508789,0.004077839851379395,0.004472017288208008,0.001427292823791504,0.00028560161590576174,0.0015850305557250977,0.003718996047973633,0.0043897867202758786,0.0014848947525024415,0.00028591156005859376,0.0016279220581054688,0.1657407760620117,1.28154399394989
4 MB,0.003269815444946289,0.04385831356048584,0.03064539432525635,0.003046894073486328,0.00837411880493164,0.009206414222717285,0.0013792276382446288,0.00030689239501953126,0.003424835205078125,0.007752180099487305,0.009233951568603516,0.0014433145523071289,0.0002787590026855469,0.0031206369400024413,0.18660359382629393,1.3876161575317383
8 MB,0.006300640106201172,0.07429492473602295,0.06738708019256592,0.006240940093994141,0.018503594398498534,0.01821119785308838,0.0014910936355590821,0.00031409263610839846,0.006913900375366211,0.017371630668640135,0.018206310272216798,0.001343107223510742,0.0002852201461791992,0.006406092643737793,0.5432892799377441,1.481195044517517
16 MB,0.012538623809814454,0.13380250930786133,0.12980983257293702,0.01178600788116455,0.03345632553100586,0.03677680492401123,0.0015076875686645507,0.0002691984176635742,0.012361717224121094,0.03531570434570312,0.035214781761169434,0.0014261245727539063,0.0002746105194091797,0.01246941089630127,0.1942600965499878,1.157867670059204
32 MB,0.025383305549621583,0.2382819175720215,0.1678239107131958,0.02448427677154541,0.06776540279388428,0.07279198169708252,0.0014089345932006836,0.0003123760223388672,0.0249769926071167,0.056466293334960935,0.06801679134368896,0.0013561010360717773,0.00021767616271972656,0.0242020845413208,0.3867313385009766,1.3919265031814576
64 MB,0.04939696788787842,0.46550683975219725,0.34831302165985106,0.04741702079772949,0.12679147720336914,0.12928686141967774,0.017049288749694823,0.00031654834747314454,0.05352399349212646,0.12613241672515868,0.13423221111297606,0.0014719009399414063,0.0003056526184082031,0.049831080436706546,0.5602818012237549,1.1938198804855347
128 MB,0.09738590717315673,0.9097999811172486,0.6410210371017456,0.09386148452758789,0.252987003326416,0.27044632434844973,0.0014525651931762695,0.00028722286224365235,0.09287424087524414,0.19445133209228516,0.2735332250595093,0.0014204025268554688,0.00029718875885009766,0.10066802501678467,0.885688304901123,1.3918588876724243
256 MB,0.19169156551361083,1.7991135358810424,1.245027208328247,0.19093687534332277,0.5144420385360717,0.5179108619689942,0.0014206171035766602,0.000278925895690918,0.19626567363739014,0.4264397382736206,0.5092778921127319,0.0013030529022216796,0.00029587745666503906,0.1987142324447632,1.449761152267456,2.3518358945846556
512 MB,0.3909532308578491,3.547605586051941,2.70583758354187,0.36676208972930907,0.9954957485198974,0.9932710647583007,0.0014544248580932618,0.00031282901763916013,0.3937538146972656,0.815727972984314,0.9846780300140381,0.001405620574951172,0.00025889873504638674,0.39151108264923096,2.662054491043091,5.0647615671157835
1 GB,0.7660409212112427,7.5793661832809445,5.455672192573547,0.7308992147445679,1.8899617195129395,1.9102628469467162,0.0013519048690795899,0.00028429031372070315,0.7402235984802246,1.6196937799453734,1.8773945331573487,0.0015208721160888672,0.00029294490814208985,0.762792992591858,5.4821683168411255,6.72867648601532
2 GB,1.5521637439727782,16.709322500228883,10.657594251632691,1.543333601951599,4.079736685752868,3.644323301315308,0.0015078306198120118,0.0002470970153808594,1.4645102500915528,3.2747565507888794,3.6505425930023194,0.0012497663497924804,0.0002476215362548828,1.508509874343872,11.30498309135437,12.699217224121094
4 GB,3.0939303636550903,31.054300379753112,21.390414905548095,2.9373887300491335,8.177238512039185,7.1313845157623295,0.0013978958129882812,0.2929970741271973,3.0231757402420043,6.844512295722962,7.146223568916321,0.0012360811233520508,5.599679231643677,3.133477306365967,19.916986680030824,23.992421436309815
8 GB,6.244122910499573,54.37237186431885,44.40522565841675,6.158423972129822,17.184148097038268,15.678565502166748,0.004384422302246093,11.300902009010315,6.4522966861724855,13.142747020721435,15.773636507987977,0.002368044853210449,23.56677188873291,6.219481158256531,38.12070610523224,45.32359364032745
16 GB,13.038251614570617,115.87660217285156,98.67547559738159,13.19956452846527,54.70245769023895,39.238833332061766,0.005297446250915527,60.03984849452972,13.047430396080017,36.786720395088196,40.75701608657837,0.0052326440811157225,61.25389702320099,12.410751175880431,76.57830386161804,89.94895191192627
