Name:         write-read-array-pipeline-run-wkdh8
Namespace:    default
Labels:       tekton.dev/pipeline=write-read-array-pipeline
Annotations:  <none>
API Version:  tekton.dev/v1beta1
Kind:         PipelineRun
Metadata:
  Creation Timestamp:  2022-03-29T14:40:52Z
  Generate Name:       write-read-array-pipeline-run-
  Generation:          1
  Managed Fields:
    API Version:  tekton.dev/v1beta1
    Fields Type:  FieldsV1
    fieldsV1:
      f:metadata:
        f:generateName:
      f:spec:
        .:
        f:pipelineRef:
          .:
          f:name:
        f:taskRunSpecs:
        f:workspaces:
    Manager:      kubectl-create
    Operation:    Update
    Time:         2022-03-29T14:40:52Z
    API Version:  tekton.dev/v1beta1
    Fields Type:  FieldsV1
    fieldsV1:
      f:metadata:
        f:annotations:
          .:
          f:kubectl.kubernetes.io/last-applied-configuration:
        f:labels:
          .:
          f:tekton.dev/pipeline:
      f:status:
        .:
        f:completionTime:
        f:conditions:
        f:pipelineSpec:
          .:
          f:tasks:
          f:workspaces:
        f:startTime:
        f:taskRuns:
          .:
          f:write-read-array-pipeline-run-wkdh8-read1-task-lnr82:
            .:
            f:pipelineTaskName:
            f:status:
              .:
              f:completionTime:
              f:conditions:
              f:podName:
              f:startTime:
              f:steps:
              f:taskSpec:
                .:
                f:steps:
                f:workspaces:
          f:write-read-array-pipeline-run-wkdh8-read2-task-4t9lq:
            .:
            f:pipelineTaskName:
            f:status:
              .:
              f:completionTime:
              f:conditions:
              f:podName:
              f:startTime:
              f:steps:
              f:taskSpec:
                .:
                f:steps:
                f:workspaces:
          f:write-read-array-pipeline-run-wkdh8-read3-task-hkhwm:
            .:
            f:pipelineTaskName:
            f:status:
              .:
              f:completionTime:
              f:conditions:
              f:podName:
              f:startTime:
              f:steps:
              f:taskSpec:
                .:
                f:steps:
                f:workspaces:
          f:write-read-array-pipeline-run-wkdh8-write1-task-hp5xq:
            .:
            f:pipelineTaskName:
            f:status:
              .:
              f:completionTime:
              f:conditions:
              f:podName:
              f:startTime:
              f:steps:
              f:taskSpec:
                .:
                f:steps:
                f:workspaces:
          f:write-read-array-pipeline-run-wkdh8-write2-task-x2dqw:
            .:
            f:pipelineTaskName:
            f:status:
              .:
              f:completionTime:
              f:conditions:
              f:podName:
              f:startTime:
              f:steps:
              f:taskSpec:
                .:
                f:steps:
                f:workspaces:
          f:write-read-array-pipeline-run-wkdh8-write3-task-7b7rs:
            .:
            f:pipelineTaskName:
            f:status:
              .:
              f:completionTime:
              f:conditions:
              f:podName:
              f:startTime:
              f:steps:
              f:taskSpec:
                .:
                f:steps:
                f:workspaces:
    Manager:         controller
    Operation:       Update
    Time:            2022-03-29T14:41:32Z
  Resource Version:  54378114
  Self Link:         /apis/tekton.dev/v1beta1/namespaces/default/pipelineruns/write-read-array-pipeline-run-wkdh8
  UID:               adcb0da3-49b9-4bcd-b38b-68097a570471
Spec:
  Pipeline Ref:
    Name:                write-read-array-pipeline
  Service Account Name:  default
  Task Run Specs:
    Pipeline Task Name:  write1-task
    Task Pod Template:
      Node Selector:
        kubernetes.io/hostname:  k8s-worker-node1
    Pipeline Task Name:          write2-task
    Task Pod Template:
      Node Selector:
        kubernetes.io/hostname:  k8s-worker-node2
    Pipeline Task Name:          write3-task
    Task Pod Template:
      Node Selector:
        kubernetes.io/hostname:  k8s-worker-node3
    Pipeline Task Name:          read1-task
    Task Pod Template:
      Node Selector:
        kubernetes.io/hostname:  k8s-worker-node4
    Pipeline Task Name:          read2-task
    Task Pod Template:
      Node Selector:
        kubernetes.io/hostname:  k8s-worker-node5
    Pipeline Task Name:          read3-task
    Task Pod Template:
      Node Selector:
        kubernetes.io/hostname:  k8s-worker-node6
  Timeout:                       1h0m0s
  Workspaces:
    Name:  task-write1-ws
    Persistent Volume Claim:
      Claim Name:  task1-pv-claim
    Name:          task-write2-ws
    Persistent Volume Claim:
      Claim Name:  task2-pv-claim
    Name:          task-write3-ws
    Persistent Volume Claim:
      Claim Name:  task3-pv-claim
    Name:          task-read1-ws
    Persistent Volume Claim:
      Claim Name:  task4-pv-claim
    Name:          task-read2-ws
    Persistent Volume Claim:
      Claim Name:  task5-pv-claim
    Name:          task-read3-ws
    Persistent Volume Claim:
      Claim Name:  task6-pv-claim
Status:
  Completion Time:  2022-03-29T14:41:32Z
  Conditions:
    Last Transition Time:  2022-03-29T14:41:32Z
    Message:               Tasks Completed: 6 (Failed: 0, Cancelled 0), Skipped: 0
    Reason:                Succeeded
    Status:                True
    Type:                  Succeeded
  Pipeline Spec:
    Tasks:
      Name:  write1-task
      Task Ref:
        Kind:  Task
        Name:  write1
      Workspaces:
        Name:       write1-ws
        Workspace:  task-write1-ws
      Name:         write2-task
      Task Ref:
        Kind:  Task
        Name:  write2
      Workspaces:
        Name:       write2-ws
        Workspace:  task-write2-ws
      Name:         write3-task
      Task Ref:
        Kind:  Task
        Name:  write3
      Workspaces:
        Name:       write3-ws
        Workspace:  task-write3-ws
      Name:         read1-task
      Run After:
        write1-task
        write2-task
        write3-task
      Task Ref:
        Kind:  Task
        Name:  read1
      Workspaces:
        Name:       read1-ws
        Workspace:  task-read1-ws
      Name:         read2-task
      Run After:
        write1-task
        write2-task
        write3-task
      Task Ref:
        Kind:  Task
        Name:  read2
      Workspaces:
        Name:       read2-ws
        Workspace:  task-read2-ws
      Name:         read3-task
      Run After:
        write1-task
        write2-task
        write3-task
      Task Ref:
        Kind:  Task
        Name:  read3
      Workspaces:
        Name:       read3-ws
        Workspace:  task-read3-ws
    Workspaces:
      Name:    task-write1-ws
      Name:    task-write2-ws
      Name:    task-write3-ws
      Name:    task-read1-ws
      Name:    task-read2-ws
      Name:    task-read3-ws
  Start Time:  2022-03-29T14:40:52Z
  Task Runs:
    write-read-array-pipeline-run-wkdh8-read1-task-lnr82:
      Pipeline Task Name:  read1-task
      Status:
        Completion Time:  2022-03-29T14:41:30Z
        Conditions:
          Last Transition Time:  2022-03-29T14:41:30Z
          Message:               All Steps have completed executing
          Reason:                Succeeded
          Status:                True
          Type:                  Succeeded
        Pod Name:                write-read-array-pipeline-run-wkdh8-read1-task-lnr82-pod-qnppr
        Start Time:              2022-03-29T14:41:16Z
        Steps:
          Container:  step-s-start
          Image ID:   docker-pullable://python@sha256:c90e15c86e2ebe71244a2a51bc7f094554422c159ce309a6faadb6debd5a6df0
          Name:       s-start
          Terminated:
            Container ID:  docker://72c7d4903e74853508ae09d40b1d9e7cd99d6dbb57c150e9fba95404e3bd7872
            Exit Code:     0
            Finished At:   2022-03-29T14:41:29Z
            Reason:        Completed
            Started At:    2022-03-29T14:41:28Z
          Container:       step-read
          Image ID:        docker-pullable://jupyter/scipy-notebook@sha256:87b339ec6a62b283d0c2aee1446e7bc2e5ad03a80d49d2dfddb031b233aedd29
          Name:            read
          Terminated:
            Container ID:  docker://14dc16555ff30b9a55a93c0a1232aaf2a46d27564ffaeb67129ce71b80fee4ee
            Exit Code:     0
            Finished At:   2022-03-29T14:41:30Z
            Reason:        Completed
            Started At:    2022-03-29T14:41:29Z
        Task Spec:
          Steps:
            Image:              python
            Image Pull Policy:  IfNotPresent
            Name:               s-start
            Resources:
            Script:  #!/usr/bin/env python3
import time
# Store initial timestamp
with open("/data/timestamps/socket/3to3/64MB/r1sent_start_ts.txt", 'a+') as fp_sent_s_ts:
   fp_sent_s_ts.write("%f\n" % time.time())
# Wait for the ready signal from external process
with open("/data/sync_pipe", "rb") as sync_pipe_file:
   while(int.from_bytes(sync_pipe_file.read(1), "little") != 1):
       continue
# Store final timestamp
with open("/data/timestamps/socket/3to3/64MB/r1sent_end_ts.txt", 'a+') as fp_sent_e_ts:
   fp_sent_e_ts.write("%f\n" % time.time())

            Image:              jupyter/scipy-notebook
            Image Pull Policy:  IfNotPresent
            Name:               read
            Resources:
            Script:  #!/usr/bin/env python3
import time
import gc
# Store initial timestamp
with open("/data/timestamps/socket/3to3/64MB/r1cont_start_ts.txt", 'a+') as fp_rcont_s_ts:
   fp_rcont_s_ts.write("%f\n" % time.time())
# Read data object from remote shared storage
with open("/data/in_data/out1.bin", "rb") as fp_data1:
   data = fp_data1.read()
   del data
   gc.collect()
with open("/data/in_data/out2.bin", "rb") as fp_data2:
   data = fp_data2.read()
   del data
   gc.collect()
with open("/data/in_data/out3.bin", "rb") as fp_data3:
   data = fp_data3.read()
   del data
   gc.collect()
# Store final timestamp
with open("/data/timestamps/socket/3to3/64MB/r1cont_end_ts.txt", 'a+') as fp_rcont_e_ts:
   fp_rcont_e_ts.write("%f\n" % time.time())
#print("READER: Read %d x chars" % len(data))

          Workspaces:
            Mount Path:  /data
            Name:        read1-ws
    write-read-array-pipeline-run-wkdh8-read2-task-4t9lq:
      Pipeline Task Name:  read2-task
      Status:
        Completion Time:  2022-03-29T14:41:30Z
        Conditions:
          Last Transition Time:  2022-03-29T14:41:30Z
          Message:               All Steps have completed executing
          Reason:                Succeeded
          Status:                True
          Type:                  Succeeded
        Pod Name:                write-read-array-pipeline-run-wkdh8-read2-task-4t9lq-pod-gcq78
        Start Time:              2022-03-29T14:41:16Z
        Steps:
          Container:  step-s-start
          Image ID:   docker-pullable://python@sha256:6441e2f0bd2e566de0df6445cb8e7e395ea1a376dd702de908d70401d3700961
          Name:       s-start
          Terminated:
            Container ID:  docker://24888365c1b8feaea9034ca99c8ce8b4a6e90bbef48861786c394f33682630c3
            Exit Code:     0
            Finished At:   2022-03-29T14:41:28Z
            Reason:        Completed
            Started At:    2022-03-29T14:41:28Z
          Container:       step-read
          Image ID:        docker-pullable://jupyter/scipy-notebook@sha256:af220ba516b0c154461915f76b5b170ff8f4fb35a5c80f7e94577117f39b743c
          Name:            read
          Terminated:
            Container ID:  docker://436596c2245b53ac887b233d6c97b51b0be2e1094bf451f5a6f8e75b2827e9ca
            Exit Code:     0
            Finished At:   2022-03-29T14:41:30Z
            Reason:        Completed
            Started At:    2022-03-29T14:41:28Z
        Task Spec:
          Steps:
            Image:              python
            Image Pull Policy:  IfNotPresent
            Name:               s-start
            Resources:
            Script:  #!/usr/bin/env python3
import time
# Store initial timestamp
with open("/data/timestamps/socket/3to3/64MB/r2sent_start_ts.txt", 'a+') as fp_sent_s_ts:
   fp_sent_s_ts.write("%f\n" % time.time())
# Wait for the ready signal from external process
with open("/data/sync_pipe", "rb") as sync_pipe_file:
   while(int.from_bytes(sync_pipe_file.read(1), "little") != 1):
       continue
# Store final timestamp
with open("/data/timestamps/socket/3to3/64MB/r2sent_end_ts.txt", 'a+') as fp_sent_e_ts:
   fp_sent_e_ts.write("%f\n" % time.time())

            Image:              jupyter/scipy-notebook
            Image Pull Policy:  IfNotPresent
            Name:               read
            Resources:
            Script:  #!/usr/bin/env python3
import time
import gc
# Store initial timestamp
with open("/data/timestamps/socket/3to3/64MB/r2cont_start_ts.txt", 'a+') as fp_rcont_s_ts:
   fp_rcont_s_ts.write("%f\n" % time.time())
# Read data object from remote shared storage
with open("/data/in_data/out1.bin", "rb") as fp_data1:
   data = fp_data1.read()
   del data
   gc.collect()
with open("/data/in_data/out2.bin", "rb") as fp_data2:
   data = fp_data2.read()
   del data
   gc.collect()
with open("/data/in_data/out3.bin", "rb") as fp_data3:
   data = fp_data3.read()
   del data
   gc.collect()
# Store final timestamp
with open("/data/timestamps/socket/3to3/64MB/r2cont_end_ts.txt", 'a+') as fp_rcont_e_ts:
   fp_rcont_e_ts.write("%f\n" % time.time())
#print("READER: Read %d x chars" % len(data))

          Workspaces:
            Mount Path:  /data
            Name:        read2-ws
    write-read-array-pipeline-run-wkdh8-read3-task-hkhwm:
      Pipeline Task Name:  read3-task
      Status:
        Completion Time:  2022-03-29T14:41:32Z
        Conditions:
          Last Transition Time:  2022-03-29T14:41:32Z
          Message:               All Steps have completed executing
          Reason:                Succeeded
          Status:                True
          Type:                  Succeeded
        Pod Name:                write-read-array-pipeline-run-wkdh8-read3-task-hkhwm-pod-vv48n
        Start Time:              2022-03-29T14:41:16Z
        Steps:
          Container:  step-s-start
          Image ID:   docker-pullable://python@sha256:e71692a9512db7addf474eff98e84822d12ff4708b3aa298cb7fa15478aa76a8
          Name:       s-start
          Terminated:
            Container ID:  docker://a4a1d1b7e1496b6ca2feb0058f2fe3da315fc7b23f48e1118b2590823e7e0ea3
            Exit Code:     0
            Finished At:   2022-03-29T14:41:31Z
            Reason:        Completed
            Started At:    2022-03-29T14:41:31Z
          Container:       step-read
          Image ID:        docker-pullable://jupyter/scipy-notebook@sha256:87b339ec6a62b283d0c2aee1446e7bc2e5ad03a80d49d2dfddb031b233aedd29
          Name:            read
          Terminated:
            Container ID:  docker://40202d04b1f496569ba54270d962b221c9ec1c7a83cc11869580c2d974054abb
            Exit Code:     0
            Finished At:   2022-03-29T14:41:32Z
            Reason:        Completed
            Started At:    2022-03-29T14:41:31Z
        Task Spec:
          Steps:
            Image:              python
            Image Pull Policy:  IfNotPresent
            Name:               s-start
            Resources:
            Script:  #!/usr/bin/env python3
import time
# Store initial timestamp
with open("/data/timestamps/socket/3to3/64MB/r3sent_start_ts.txt", 'a+') as fp_sent_s_ts:
   fp_sent_s_ts.write("%f\n" % time.time())
# Wait for the ready signal from external process
with open("/data/sync_pipe", "rb") as sync_pipe_file:
   while(int.from_bytes(sync_pipe_file.read(1), "little") != 1):
       continue
# Store final timestamp
with open("/data/timestamps/socket/3to3/64MB/r3sent_end_ts.txt", 'a+') as fp_sent_e_ts:
   fp_sent_e_ts.write("%f\n" % time.time())

            Image:              jupyter/scipy-notebook
            Image Pull Policy:  IfNotPresent
            Name:               read
            Resources:
            Script:  #!/usr/bin/env python3
import time
import gc
# Store initial timestamp
with open("/data/timestamps/socket/3to3/64MB/r3cont_start_ts.txt", 'a+') as fp_rcont_s_ts:
   fp_rcont_s_ts.write("%f\n" % time.time())
# Read data object from remote shared storage
with open("/data/in_data/out1.bin", "rb") as fp_data1:
   data = fp_data1.read()
   del data
   gc.collect()
with open("/data/in_data/out2.bin", "rb") as fp_data2:
   data = fp_data2.read()
   del data
   gc.collect()
with open("/data/in_data/out3.bin", "rb") as fp_data3:
   data = fp_data3.read()
   del data
   gc.collect()
# Store final timestamp
with open("/data/timestamps/socket/3to3/64MB/r3cont_end_ts.txt", 'a+') as fp_rcont_e_ts:
   fp_rcont_e_ts.write("%f\n" % time.time())
#print("READER: Read %d x chars" % len(data))

          Workspaces:
            Mount Path:  /data
            Name:        read3-ws
    write-read-array-pipeline-run-wkdh8-write1-task-hp5xq:
      Pipeline Task Name:  write1-task
      Status:
        Completion Time:  2022-03-29T14:41:16Z
        Conditions:
          Last Transition Time:  2022-03-29T14:41:16Z
          Message:               All Steps have completed executing
          Reason:                Succeeded
          Status:                True
          Type:                  Succeeded
        Pod Name:                write-read-array-pipeline-run-wkdh8-write1-task-hp5xq-pod-55cpf
        Start Time:              2022-03-29T14:40:52Z
        Steps:
          Container:  step-write
          Image ID:   docker-pullable://jupyter/scipy-notebook@sha256:87b339ec6a62b283d0c2aee1446e7bc2e5ad03a80d49d2dfddb031b233aedd29
          Name:       write
          Terminated:
            Container ID:  docker://fb2fc88dd5afb96c92e43a746462617f494628e4dc66102cc3bad73d44e2fb9c
            Exit Code:     0
            Finished At:   2022-03-29T14:41:13Z
            Reason:        Completed
            Started At:    2022-03-29T14:41:12Z
          Container:       step-s-end
          Image ID:        docker-pullable://python@sha256:c90e15c86e2ebe71244a2a51bc7f094554422c159ce309a6faadb6debd5a6df0
          Name:            s-end
          Terminated:
            Container ID:  docker://8237ab04e21257a45c5e1ae8786462b50dd996e5dcc702f5ecc8ffeda9fa4de6
            Exit Code:     0
            Finished At:   2022-03-29T14:41:15Z
            Reason:        Completed
            Started At:    2022-03-29T14:41:14Z
        Task Spec:
          Steps:
            Image:              jupyter/scipy-notebook
            Image Pull Policy:  IfNotPresent
            Name:               write
            Resources:
            Script:  #!/usr/bin/env python3
import time
# Store initial timestamp
with open("/data/timestamps/socket/3to3/64MB/w1cont_start_ts.txt", 'a+') as fp_wcont_s_ts:
   fp_wcont_s_ts.write("%f\n" % time.time())
# Create data object
#string = 'x' * 67108864
bytes = bytearray(b'\x01') * 67108864
# Store timestamp after data creation
with open("/data/timestamps/socket/3to3/64MB/w1cont_data_end_ts.txt", 'a+') as fp_wcont_data_ts:
   fp_wcont_data_ts.write("%f\n" % time.time())
# Write data object on the local pv
with open("/data/out_data/out1.bin", 'wb') as fp_data:
   fp_data.write(bytes)
# Store final timestamp
with open("/data/timestamps/socket/3to3/64MB/w1cont_end_ts.txt", 'a+') as fp_wcont_e_ts:
   fp_wcont_e_ts.write("%f\n" % time.time())
#print("WRITER: Written out1!")

            Image:              python
            Image Pull Policy:  IfNotPresent
            Name:               s-end
            Resources:
            Script:  #!/usr/bin/env python3
import os
import time
# Store initial timestamp
with open("/data/timestamps/socket/3to3/64MB/w1sent_start_ts.txt", 'a+') as fp_sent_s_ts:
   fp_sent_s_ts.write("%f\n" % time.time())
# Writes ready signal to sync pipe
os.system("echo 1 > /data/sync_pipe")
# Store final timestamp
with open("/data/timestamps/socket/3to3/64MB/w1sent_end_ts.txt", 'a+') as fp_sent_e_ts:
   fp_sent_e_ts.write("%f\n" % time.time())
#print("WRITER: Finished!")

          Workspaces:
            Mount Path:  /data
            Name:        write1-ws
    write-read-array-pipeline-run-wkdh8-write2-task-x2dqw:
      Pipeline Task Name:  write2-task
      Status:
        Completion Time:  2022-03-29T14:41:08Z
        Conditions:
          Last Transition Time:  2022-03-29T14:41:08Z
          Message:               All Steps have completed executing
          Reason:                Succeeded
          Status:                True
          Type:                  Succeeded
        Pod Name:                write-read-array-pipeline-run-wkdh8-write2-task-x2dqw-pod-68b82
        Start Time:              2022-03-29T14:40:52Z
        Steps:
          Container:  step-write
          Image ID:   docker-pullable://jupyter/scipy-notebook@sha256:87b339ec6a62b283d0c2aee1446e7bc2e5ad03a80d49d2dfddb031b233aedd29
          Name:       write
          Terminated:
            Container ID:  docker://60d3ae8408821fb0dd8d540b80c9eb0dcb80b3b53cdc30372b41575608057fbc
            Exit Code:     0
            Finished At:   2022-03-29T14:41:06Z
            Reason:        Completed
            Started At:    2022-03-29T14:41:06Z
          Container:       step-s-end
          Image ID:        docker-pullable://python@sha256:c90e15c86e2ebe71244a2a51bc7f094554422c159ce309a6faadb6debd5a6df0
          Name:            s-end
          Terminated:
            Container ID:  docker://e20309ed695d8140aaf1c0576811b156372bbff30621b0624d93e9290727e85c
            Exit Code:     0
            Finished At:   2022-03-29T14:41:08Z
            Reason:        Completed
            Started At:    2022-03-29T14:41:07Z
        Task Spec:
          Steps:
            Image:              jupyter/scipy-notebook
            Image Pull Policy:  IfNotPresent
            Name:               write
            Resources:
            Script:  #!/usr/bin/env python3
import time
# Store initial timestamp
with open("/data/timestamps/socket/3to3/64MB/w2cont_start_ts.txt", 'a+') as fp_wcont_s_ts:
   fp_wcont_s_ts.write("%f\n" % time.time())
# Create data object
#string = 'x' * 67108864
bytes = bytearray(b'\x01') * 67108864
# Store timestamp after data creation
with open("/data/timestamps/socket/3to3/64MB/w2cont_data_end_ts.txt", 'a+') as fp_wcont_data_ts:
   fp_wcont_data_ts.write("%f\n" % time.time())
# Write data object on the local pv
with open("/data/out_data/out2.bin", 'wb') as fp_data:
   fp_data.write(bytes)
# Store final timestamp
with open("/data/timestamps/socket/3to3/64MB/w2cont_end_ts.txt", 'a+') as fp_wcont_e_ts:
   fp_wcont_e_ts.write("%f\n" % time.time())
#print("WRITER: Written out1!")

            Image:              python
            Image Pull Policy:  IfNotPresent
            Name:               s-end
            Resources:
            Script:  #!/usr/bin/env python3
import os
import time
# Store initial timestamp
with open("/data/timestamps/socket/3to3/64MB/w2sent_start_ts.txt", 'a+') as fp_sent_s_ts:
   fp_sent_s_ts.write("%f\n" % time.time())
# Writes ready signal to sync pipe
os.system("echo 1 > /data/sync_pipe")
# Store final timestamp
with open("/data/timestamps/socket/3to3/64MB/w2sent_end_ts.txt", 'a+') as fp_sent_e_ts:
   fp_sent_e_ts.write("%f\n" % time.time())
#print("WRITER: Finished!")

          Workspaces:
            Mount Path:  /data
            Name:        write2-ws
    write-read-array-pipeline-run-wkdh8-write3-task-7b7rs:
      Pipeline Task Name:  write3-task
      Status:
        Completion Time:  2022-03-29T14:41:08Z
        Conditions:
          Last Transition Time:  2022-03-29T14:41:08Z
          Message:               All Steps have completed executing
          Reason:                Succeeded
          Status:                True
          Type:                  Succeeded
        Pod Name:                write-read-array-pipeline-run-wkdh8-write3-task-7b7rs-pod-mtxlw
        Start Time:              2022-03-29T14:40:52Z
        Steps:
          Container:  step-write
          Image ID:   docker-pullable://jupyter/scipy-notebook@sha256:87b339ec6a62b283d0c2aee1446e7bc2e5ad03a80d49d2dfddb031b233aedd29
          Name:       write
          Terminated:
            Container ID:  docker://14dac9f43326cb85ec6ae56fafcc5609eb0c48fbfad9a646f9cba57ff379e152
            Exit Code:     0
            Finished At:   2022-03-29T14:41:06Z
            Reason:        Completed
            Started At:    2022-03-29T14:41:05Z
          Container:       step-s-end
          Image ID:        docker-pullable://python@sha256:c90e15c86e2ebe71244a2a51bc7f094554422c159ce309a6faadb6debd5a6df0
          Name:            s-end
          Terminated:
            Container ID:  docker://80808ca1917835d6d106acf434ed73030b665325e3653598b56bafd0ce7f08dc
            Exit Code:     0
            Finished At:   2022-03-29T14:41:08Z
            Reason:        Completed
            Started At:    2022-03-29T14:41:07Z
        Task Spec:
          Steps:
            Image:              jupyter/scipy-notebook
            Image Pull Policy:  IfNotPresent
            Name:               write
            Resources:
            Script:  #!/usr/bin/env python3
import time
# Store initial timestamp
with open("/data/timestamps/socket/3to3/64MB/w3cont_start_ts.txt", 'a+') as fp_wcont_s_ts:
   fp_wcont_s_ts.write("%f\n" % time.time())
# Create data object
#string = 'x' * 67108864
bytes = bytearray(b'\x01') * 67108864
# Store timestamp after data creation
with open("/data/timestamps/socket/3to3/64MB/w3cont_data_end_ts.txt", 'a+') as fp_wcont_data_ts:
   fp_wcont_data_ts.write("%f\n" % time.time())
# Write data object on the local pv
with open("/data/out_data/out3.bin", 'wb') as fp_data:
   fp_data.write(bytes)
# Store final timestamp
with open("/data/timestamps/socket/3to3/64MB/w3cont_end_ts.txt", 'a+') as fp_wcont_e_ts:
   fp_wcont_e_ts.write("%f\n" % time.time())
#print("WRITER: Written out1!")

            Image:              python
            Image Pull Policy:  IfNotPresent
            Name:               s-end
            Resources:
            Script:  #!/usr/bin/env python3
import os
import time
# Store initial timestamp
with open("/data/timestamps/socket/3to3/64MB/w3sent_start_ts.txt", 'a+') as fp_sent_s_ts:
   fp_sent_s_ts.write("%f\n" % time.time())
# Writes ready signal to sync pipe
os.system("echo 1 > /data/sync_pipe")
# Store final timestamp
with open("/data/timestamps/socket/3to3/64MB/w3sent_end_ts.txt", 'a+') as fp_sent_e_ts:
   fp_sent_e_ts.write("%f\n" % time.time())
#print("WRITER: Finished!")

          Workspaces:
            Mount Path:  /data
            Name:        write3-ws
Events:
  Type    Reason     Age                From         Message
  ----    ------     ----               ----         -------
  Normal  Started    47s                PipelineRun  
  Normal  Running    47s                PipelineRun  Tasks Completed: 0 (Failed: 0, Cancelled 0), Incomplete: 6, Skipped: 0
  Normal  Running    31s                PipelineRun  Tasks Completed: 1 (Failed: 0, Cancelled 0), Incomplete: 5, Skipped: 0
  Normal  Running    31s                PipelineRun  Tasks Completed: 2 (Failed: 0, Cancelled 0), Incomplete: 4, Skipped: 0
  Normal  Running    23s (x2 over 23s)  PipelineRun  Tasks Completed: 3 (Failed: 0, Cancelled 0), Incomplete: 3, Skipped: 0
  Normal  Running    9s                 PipelineRun  Tasks Completed: 4 (Failed: 0, Cancelled 0), Incomplete: 2, Skipped: 0
  Normal  Running    9s                 PipelineRun  Tasks Completed: 5 (Failed: 0, Cancelled 0), Incomplete: 1, Skipped: 0
  Normal  Succeeded  7s                 PipelineRun  Tasks Completed: 6 (Failed: 0, Cancelled 0), Skipped: 0
