Name:         write-read-array-pipeline-run-wg8fk
Namespace:    default
Labels:       tekton.dev/pipeline=write-read-array-pipeline
Annotations:  <none>
API Version:  tekton.dev/v1beta1
Kind:         PipelineRun
Metadata:
  Creation Timestamp:  2022-03-12T07:38:39Z
  Generate Name:       write-read-array-pipeline-run-
  Generation:          1
  Managed Fields:
    API Version:  tekton.dev/v1beta1
    Fields Type:  FieldsV1
    fieldsV1:
      f:metadata:
        f:generateName:
      f:spec:
        .:
        f:pipelineRef:
          .:
          f:name:
        f:taskRunSpecs:
        f:workspaces:
    Manager:      kubectl-create
    Operation:    Update
    Time:         2022-03-12T07:38:39Z
    API Version:  tekton.dev/v1beta1
    Fields Type:  FieldsV1
    fieldsV1:
      f:metadata:
        f:annotations:
          .:
          f:kubectl.kubernetes.io/last-applied-configuration:
        f:labels:
          .:
          f:tekton.dev/pipeline:
      f:status:
        .:
        f:completionTime:
        f:conditions:
        f:pipelineSpec:
          .:
          f:tasks:
          f:workspaces:
        f:startTime:
        f:taskRuns:
          .:
          f:write-read-array-pipeline-run-wg8fk-read1-task-ttl44:
            .:
            f:pipelineTaskName:
            f:status:
              .:
              f:completionTime:
              f:conditions:
              f:podName:
              f:startTime:
              f:steps:
              f:taskSpec:
                .:
                f:steps:
                f:workspaces:
          f:write-read-array-pipeline-run-wg8fk-read2-task-45tdc:
            .:
            f:pipelineTaskName:
            f:status:
              .:
              f:completionTime:
              f:conditions:
              f:podName:
              f:startTime:
              f:steps:
              f:taskSpec:
                .:
                f:steps:
                f:workspaces:
          f:write-read-array-pipeline-run-wg8fk-read3-task-pppsx:
            .:
            f:pipelineTaskName:
            f:status:
              .:
              f:completionTime:
              f:conditions:
              f:podName:
              f:startTime:
              f:steps:
              f:taskSpec:
                .:
                f:steps:
                f:workspaces:
          f:write-read-array-pipeline-run-wg8fk-read4-task-852s7:
            .:
            f:pipelineTaskName:
            f:status:
              .:
              f:completionTime:
              f:conditions:
              f:podName:
              f:startTime:
              f:steps:
              f:taskSpec:
                .:
                f:steps:
                f:workspaces:
          f:write-read-array-pipeline-run-wg8fk-read5-task-l8qhx:
            .:
            f:pipelineTaskName:
            f:status:
              .:
              f:completionTime:
              f:conditions:
              f:podName:
              f:startTime:
              f:steps:
              f:taskSpec:
                .:
                f:steps:
                f:workspaces:
          f:write-read-array-pipeline-run-wg8fk-read6-task-shw76:
            .:
            f:pipelineTaskName:
            f:status:
              .:
              f:completionTime:
              f:conditions:
              f:podName:
              f:startTime:
              f:steps:
              f:taskSpec:
                .:
                f:steps:
                f:workspaces:
          f:write-read-array-pipeline-run-wg8fk-write1-task-xz5t5:
            .:
            f:pipelineTaskName:
            f:status:
              .:
              f:completionTime:
              f:conditions:
              f:podName:
              f:startTime:
              f:steps:
              f:taskSpec:
                .:
                f:steps:
                f:workspaces:
    Manager:         controller
    Operation:       Update
    Time:            2022-03-12T07:38:54Z
  Resource Version:  14851836
  Self Link:         /apis/tekton.dev/v1beta1/namespaces/default/pipelineruns/write-read-array-pipeline-run-wg8fk
  UID:               d2ad7824-1fdb-4002-8a08-1f6eafb5901c
Spec:
  Pipeline Ref:
    Name:                write-read-array-pipeline
  Service Account Name:  default
  Task Run Specs:
    Pipeline Task Name:  write1-task
    Task Pod Template:
      Node Selector:
        kubernetes.io/hostname:  k8s-worker-node1
    Pipeline Task Name:          read1-task
    Task Pod Template:
      Node Selector:
        kubernetes.io/hostname:  k8s-worker-node2
    Pipeline Task Name:          read2-task
    Task Pod Template:
      Node Selector:
        kubernetes.io/hostname:  k8s-worker-node3
    Pipeline Task Name:          read3-task
    Task Pod Template:
      Node Selector:
        kubernetes.io/hostname:  k8s-worker-node4
    Pipeline Task Name:          read4-task
    Task Pod Template:
      Node Selector:
        kubernetes.io/hostname:  k8s-worker-node5
    Pipeline Task Name:          read5-task
    Task Pod Template:
      Node Selector:
        kubernetes.io/hostname:  k8s-worker-node6
    Pipeline Task Name:          read6-task
    Task Pod Template:
      Node Selector:
        kubernetes.io/hostname:  k8s-worker-node7
  Timeout:                       1h0m0s
  Workspaces:
    Name:  task-write1-ws
    Persistent Volume Claim:
      Claim Name:  task1-pv-claim
    Name:          task-read1-ws
    Persistent Volume Claim:
      Claim Name:  task2-pv-claim
    Name:          task-read2-ws
    Persistent Volume Claim:
      Claim Name:  task3-pv-claim
    Name:          task-read3-ws
    Persistent Volume Claim:
      Claim Name:  task4-pv-claim
    Name:          task-read4-ws
    Persistent Volume Claim:
      Claim Name:  task5-pv-claim
    Name:          task-read5-ws
    Persistent Volume Claim:
      Claim Name:  task6-pv-claim
    Name:          task-read6-ws
    Persistent Volume Claim:
      Claim Name:  task7-pv-claim
Status:
  Completion Time:  2022-03-12T07:38:54Z
  Conditions:
    Last Transition Time:  2022-03-12T07:38:54Z
    Message:               Tasks Completed: 7 (Failed: 0, Cancelled 0), Skipped: 0
    Reason:                Succeeded
    Status:                True
    Type:                  Succeeded
  Pipeline Spec:
    Tasks:
      Name:  write1-task
      Task Ref:
        Kind:  Task
        Name:  write1
      Workspaces:
        Name:       write1-ws
        Workspace:  task-write1-ws
      Name:         read1-task
      Task Ref:
        Kind:  Task
        Name:  read1
      Workspaces:
        Name:       read1-ws
        Workspace:  task-read1-ws
      Name:         read2-task
      Task Ref:
        Kind:  Task
        Name:  read2
      Workspaces:
        Name:       read2-ws
        Workspace:  task-read2-ws
      Name:         read3-task
      Task Ref:
        Kind:  Task
        Name:  read3
      Workspaces:
        Name:       read3-ws
        Workspace:  task-read3-ws
      Name:         read4-task
      Task Ref:
        Kind:  Task
        Name:  read4
      Workspaces:
        Name:       read4-ws
        Workspace:  task-read4-ws
      Name:         read5-task
      Task Ref:
        Kind:  Task
        Name:  read5
      Workspaces:
        Name:       read5-ws
        Workspace:  task-read5-ws
      Name:         read6-task
      Task Ref:
        Kind:  Task
        Name:  read6
      Workspaces:
        Name:       read6-ws
        Workspace:  task-read6-ws
    Workspaces:
      Name:    task-write1-ws
      Name:    task-read1-ws
      Name:    task-read2-ws
      Name:    task-read3-ws
      Name:    task-read4-ws
      Name:    task-read5-ws
      Name:    task-read6-ws
  Start Time:  2022-03-12T07:38:39Z
  Task Runs:
    write-read-array-pipeline-run-wg8fk-read1-task-ttl44:
      Pipeline Task Name:  read1-task
      Status:
        Completion Time:  2022-03-12T07:38:52Z
        Conditions:
          Last Transition Time:  2022-03-12T07:38:52Z
          Message:               All Steps have completed executing
          Reason:                Succeeded
          Status:                True
          Type:                  Succeeded
        Pod Name:                write-read-array-pipeline-run-wg8fk-read1-task-ttl44-pod-l9m9p
        Start Time:              2022-03-12T07:38:39Z
        Steps:
          Container:  step-read
          Image ID:   docker-pullable://jupyter/scipy-notebook@sha256:87b339ec6a62b283d0c2aee1446e7bc2e5ad03a80d49d2dfddb031b233aedd29
          Name:       read
          Terminated:
            Container ID:  docker://b3287f38efba7f1b34054ac8e2f1cb7f82ccdcf78097ab30eb5eee806c88f7f9
            Exit Code:     0
            Finished At:   2022-03-12T07:38:52Z
            Reason:        Completed
            Started At:    2022-03-12T07:38:50Z
        Task Spec:
          Steps:
            Image:              jupyter/scipy-notebook
            Image Pull Policy:  IfNotPresent
            Name:               read
            Resources:
            Script:  #!/usr/bin/env python3
import time
import os
# Store initial timestamp
with open("/data/timestamps/socket_pipe/1to6/2MB/r1cont_start_ts.txt", 'a+') as fp_rcont_s_ts:
   fp_rcont_s_ts.write("%f\n" % time.time())
buf_sz = 65536
ready = b'\x01'
sync_pipe = open("/data/sync_pipe", 'wb')
sync_pipe.write(ready)
sync_pipe.close()
#print("Written ready signal!")
# Read data object from data pipe
data_fifo = open('/data/data_pipe', 'rb')
data_length_bin = data_fifo.read(8)
data_length = int.from_bytes(data_length_bin, "big")
data = bytearray(0)
counter = 0
while counter < data_length:
   buff = data_fifo.read(buf_sz)
   counter += len(buff)
   data.extend(buff)
data_fifo.close()
# Store final timestamp
with open("/data/timestamps/socket_pipe/1to6/2MB/r1cont_end_ts.txt", 'a+') as fp_rcont_e_ts:
   fp_rcont_e_ts.write("%f\n" % time.time())
#print("READER: Read %d x chars" % len(data))

          Workspaces:
            Mount Path:  /data
            Name:        read1-ws
    write-read-array-pipeline-run-wg8fk-read2-task-45tdc:
      Pipeline Task Name:  read2-task
      Status:
        Completion Time:  2022-03-12T07:38:53Z
        Conditions:
          Last Transition Time:  2022-03-12T07:38:53Z
          Message:               All Steps have completed executing
          Reason:                Succeeded
          Status:                True
          Type:                  Succeeded
        Pod Name:                write-read-array-pipeline-run-wg8fk-read2-task-45tdc-pod-vxgqb
        Start Time:              2022-03-12T07:38:39Z
        Steps:
          Container:  step-read
          Image ID:   docker-pullable://jupyter/scipy-notebook@sha256:87b339ec6a62b283d0c2aee1446e7bc2e5ad03a80d49d2dfddb031b233aedd29
          Name:       read
          Terminated:
            Container ID:  docker://f953c250a82df299cdb10e555aefafa55ecd502d376d1d5ac22315bf4ccf58ae
            Exit Code:     0
            Finished At:   2022-03-12T07:38:52Z
            Reason:        Completed
            Started At:    2022-03-12T07:38:51Z
        Task Spec:
          Steps:
            Image:              jupyter/scipy-notebook
            Image Pull Policy:  IfNotPresent
            Name:               read
            Resources:
            Script:  #!/usr/bin/env python3
import time
import os
# Store initial timestamp
with open("/data/timestamps/socket_pipe/1to6/2MB/r2cont_start_ts.txt", 'a+') as fp_rcont_s_ts:
   fp_rcont_s_ts.write("%f\n" % time.time())
buf_sz = 65536
ready = b'\x01'
sync_pipe = open("/data/sync_pipe", 'wb')
sync_pipe.write(ready)
sync_pipe.close()
#print("Written ready signal!")
# Read data object from data pipe
data_fifo = open('/data/data_pipe', 'rb')
data_length_bin = data_fifo.read(8)
data_length = int.from_bytes(data_length_bin, "big")
data = bytearray(0)
counter = 0
while counter < data_length:
   buff = data_fifo.read(buf_sz)
   counter += len(buff)
   data.extend(buff)
data_fifo.close()
# Store final timestamp
with open("/data/timestamps/socket_pipe/1to6/2MB/r2cont_end_ts.txt", 'a+') as fp_rcont_e_ts:
   fp_rcont_e_ts.write("%f\n" % time.time())
#print("READER: Read %d x chars" % len(data))

          Workspaces:
            Mount Path:  /data
            Name:        read2-ws
    write-read-array-pipeline-run-wg8fk-read3-task-pppsx:
      Pipeline Task Name:  read3-task
      Status:
        Completion Time:  2022-03-12T07:38:53Z
        Conditions:
          Last Transition Time:  2022-03-12T07:38:53Z
          Message:               All Steps have completed executing
          Reason:                Succeeded
          Status:                True
          Type:                  Succeeded
        Pod Name:                write-read-array-pipeline-run-wg8fk-read3-task-pppsx-pod-fh2vv
        Start Time:              2022-03-12T07:38:39Z
        Steps:
          Container:  step-read
          Image ID:   docker-pullable://jupyter/scipy-notebook@sha256:87b339ec6a62b283d0c2aee1446e7bc2e5ad03a80d49d2dfddb031b233aedd29
          Name:       read
          Terminated:
            Container ID:  docker://195fb3f090b0640a07a10bdc741b12e637236a9d41fc8a124abca676cfa7c1c3
            Exit Code:     0
            Finished At:   2022-03-12T07:38:52Z
            Reason:        Completed
            Started At:    2022-03-12T07:38:47Z
        Task Spec:
          Steps:
            Image:              jupyter/scipy-notebook
            Image Pull Policy:  IfNotPresent
            Name:               read
            Resources:
            Script:  #!/usr/bin/env python3
import time
import os
# Store initial timestamp
with open("/data/timestamps/socket_pipe/1to6/2MB/r3cont_start_ts.txt", 'a+') as fp_rcont_s_ts:
   fp_rcont_s_ts.write("%f\n" % time.time())
buf_sz = 65536
ready = b'\x01'
sync_pipe = open("/data/sync_pipe", 'wb')
sync_pipe.write(ready)
sync_pipe.close()
#print("Written ready signal!")
# Read data object from data pipe
data_fifo = open('/data/data_pipe', 'rb')
data_length_bin = data_fifo.read(8)
data_length = int.from_bytes(data_length_bin, "big")
data = bytearray(0)
counter = 0
while counter < data_length:
   buff = data_fifo.read(buf_sz)
   counter += len(buff)
   data.extend(buff)
data_fifo.close()
# Store final timestamp
with open("/data/timestamps/socket_pipe/1to6/2MB/r3cont_end_ts.txt", 'a+') as fp_rcont_e_ts:
   fp_rcont_e_ts.write("%f\n" % time.time())
#print("READER: Read %d x chars" % len(data))

          Workspaces:
            Mount Path:  /data
            Name:        read3-ws
    write-read-array-pipeline-run-wg8fk-read4-task-852s7:
      Pipeline Task Name:  read4-task
      Status:
        Completion Time:  2022-03-12T07:38:52Z
        Conditions:
          Last Transition Time:  2022-03-12T07:38:52Z
          Message:               All Steps have completed executing
          Reason:                Succeeded
          Status:                True
          Type:                  Succeeded
        Pod Name:                write-read-array-pipeline-run-wg8fk-read4-task-852s7-pod-rm6cg
        Start Time:              2022-03-12T07:38:40Z
        Steps:
          Container:  step-read
          Image ID:   docker-pullable://jupyter/scipy-notebook@sha256:87b339ec6a62b283d0c2aee1446e7bc2e5ad03a80d49d2dfddb031b233aedd29
          Name:       read
          Terminated:
            Container ID:  docker://a401618048603762a354e1852bc999de0bb6ca96c585a42c15f1bcf06b42d8a3
            Exit Code:     0
            Finished At:   2022-03-12T07:38:52Z
            Reason:        Completed
            Started At:    2022-03-12T07:38:48Z
        Task Spec:
          Steps:
            Image:              jupyter/scipy-notebook
            Image Pull Policy:  IfNotPresent
            Name:               read
            Resources:
            Script:  #!/usr/bin/env python3
import time
import os
# Store initial timestamp
with open("/data/timestamps/socket_pipe/1to6/2MB/r4cont_start_ts.txt", 'a+') as fp_rcont_s_ts:
   fp_rcont_s_ts.write("%f\n" % time.time())
buf_sz = 65536
ready = b'\x01'
sync_pipe = open("/data/sync_pipe", 'wb')
sync_pipe.write(ready)
sync_pipe.close()
#print("Written ready signal!")
# Read data object from data pipe
data_fifo = open('/data/data_pipe', 'rb')
data_length_bin = data_fifo.read(8)
data_length = int.from_bytes(data_length_bin, "big")
data = bytearray(0)
counter = 0
while counter < data_length:
   buff = data_fifo.read(buf_sz)
   counter += len(buff)
   data.extend(buff)
data_fifo.close()
# Store final timestamp
with open("/data/timestamps/socket_pipe/1to6/2MB/r4cont_end_ts.txt", 'a+') as fp_rcont_e_ts:
   fp_rcont_e_ts.write("%f\n" % time.time())
#print("READER: Read %d x chars" % len(data))

          Workspaces:
            Mount Path:  /data
            Name:        read4-ws
    write-read-array-pipeline-run-wg8fk-read5-task-l8qhx:
      Pipeline Task Name:  read5-task
      Status:
        Completion Time:  2022-03-12T07:38:53Z
        Conditions:
          Last Transition Time:  2022-03-12T07:38:53Z
          Message:               All Steps have completed executing
          Reason:                Succeeded
          Status:                True
          Type:                  Succeeded
        Pod Name:                write-read-array-pipeline-run-wg8fk-read5-task-l8qhx-pod-j8vbm
        Start Time:              2022-03-12T07:38:40Z
        Steps:
          Container:  step-read
          Image ID:   docker-pullable://jupyter/scipy-notebook@sha256:87b339ec6a62b283d0c2aee1446e7bc2e5ad03a80d49d2dfddb031b233aedd29
          Name:       read
          Terminated:
            Container ID:  docker://a21bfec1c09c5ffd51e46dfe0d1bda5513a74d0c1f27e7d4b04d993b0fed74cc
            Exit Code:     0
            Finished At:   2022-03-12T07:38:52Z
            Reason:        Completed
            Started At:    2022-03-12T07:38:48Z
        Task Spec:
          Steps:
            Image:              jupyter/scipy-notebook
            Image Pull Policy:  IfNotPresent
            Name:               read
            Resources:
            Script:  #!/usr/bin/env python3
import time
import os
# Store initial timestamp
with open("/data/timestamps/socket_pipe/1to6/2MB/r5cont_start_ts.txt", 'a+') as fp_rcont_s_ts:
   fp_rcont_s_ts.write("%f\n" % time.time())
buf_sz = 65536
ready = b'\x01'
sync_pipe = open("/data/sync_pipe", 'wb')
sync_pipe.write(ready)
sync_pipe.close()
#print("Written ready signal!")
# Read data object from data pipe
data_fifo = open('/data/data_pipe', 'rb')
data_length_bin = data_fifo.read(8)
data_length = int.from_bytes(data_length_bin, "big")
data = bytearray(0)
counter = 0
while counter < data_length:
   buff = data_fifo.read(buf_sz)
   counter += len(buff)
   data.extend(buff)
data_fifo.close()
# Store final timestamp
with open("/data/timestamps/socket_pipe/1to6/2MB/r5cont_end_ts.txt", 'a+') as fp_rcont_e_ts:
   fp_rcont_e_ts.write("%f\n" % time.time())
#print("READER: Read %d x chars" % len(data))

          Workspaces:
            Mount Path:  /data
            Name:        read5-ws
    write-read-array-pipeline-run-wg8fk-read6-task-shw76:
      Pipeline Task Name:  read6-task
      Status:
        Completion Time:  2022-03-12T07:38:53Z
        Conditions:
          Last Transition Time:  2022-03-12T07:38:53Z
          Message:               All Steps have completed executing
          Reason:                Succeeded
          Status:                True
          Type:                  Succeeded
        Pod Name:                write-read-array-pipeline-run-wg8fk-read6-task-shw76-pod-4vss4
        Start Time:              2022-03-12T07:38:41Z
        Steps:
          Container:  step-read
          Image ID:   docker-pullable://jupyter/scipy-notebook@sha256:87b339ec6a62b283d0c2aee1446e7bc2e5ad03a80d49d2dfddb031b233aedd29
          Name:       read
          Terminated:
            Container ID:  docker://dcab018e9dae3fa5de31192aa039139338e06e94d34575507a1345535d1401d1
            Exit Code:     0
            Finished At:   2022-03-12T07:38:52Z
            Reason:        Completed
            Started At:    2022-03-12T07:38:49Z
        Task Spec:
          Steps:
            Image:              jupyter/scipy-notebook
            Image Pull Policy:  IfNotPresent
            Name:               read
            Resources:
            Script:  #!/usr/bin/env python3
import time
import os
# Store initial timestamp
with open("/data/timestamps/socket_pipe/1to6/2MB/r6cont_start_ts.txt", 'a+') as fp_rcont_s_ts:
   fp_rcont_s_ts.write("%f\n" % time.time())
buf_sz = 65536
ready = b'\x01'
sync_pipe = open("/data/sync_pipe", 'wb')
sync_pipe.write(ready)
sync_pipe.close()
#print("Written ready signal!")
# Read data object from data pipe
data_fifo = open('/data/data_pipe', 'rb')
data_length_bin = data_fifo.read(8)
data_length = int.from_bytes(data_length_bin, "big")
data = bytearray(0)
counter = 0
while counter < data_length:
   buff = data_fifo.read(buf_sz)
   counter += len(buff)
   data.extend(buff)
data_fifo.close()
# Store final timestamp
with open("/data/timestamps/socket_pipe/1to6/2MB/r6cont_end_ts.txt", 'a+') as fp_rcont_e_ts:
   fp_rcont_e_ts.write("%f\n" % time.time())
#print("READER: Read %d x chars" % len(data))

          Workspaces:
            Mount Path:  /data
            Name:        read6-ws
    write-read-array-pipeline-run-wg8fk-write1-task-xz5t5:
      Pipeline Task Name:  write1-task
      Status:
        Completion Time:  2022-03-12T07:38:54Z
        Conditions:
          Last Transition Time:  2022-03-12T07:38:54Z
          Message:               All Steps have completed executing
          Reason:                Succeeded
          Status:                True
          Type:                  Succeeded
        Pod Name:                write-read-array-pipeline-run-wg8fk-write1-task-xz5t5-pod-m52ft
        Start Time:              2022-03-12T07:38:39Z
        Steps:
          Container:  step-write
          Image ID:   docker-pullable://jupyter/scipy-notebook@sha256:87b339ec6a62b283d0c2aee1446e7bc2e5ad03a80d49d2dfddb031b233aedd29
          Name:       write
          Terminated:
            Container ID:  docker://bf66176c58cc7e589e28045648426baa4b1188645aa373bae819b290908bef11
            Exit Code:     0
            Finished At:   2022-03-12T07:38:52Z
            Reason:        Completed
            Started At:    2022-03-12T07:38:48Z
        Task Spec:
          Steps:
            Image:              jupyter/scipy-notebook
            Image Pull Policy:  IfNotPresent
            Name:               write
            Resources:
            Script:  #!/usr/bin/env python3
import time
# Store initial timestamp
with open("/data/timestamps/socket_pipe/1to6/2MB/w1cont_start_ts.txt", 'a+') as fp_wcont_s_ts:
   fp_wcont_s_ts.write("%f\n" % time.time())
# Create data object
# string = 'x' * 2097152
data_as_bytes = bytearray(b'\x78') * 2097152
#data_as_bytes = str.encode(string)
data_dim = 2097152
data_dim_bin = data_dim.to_bytes(8, "big")
# Store timestamp after data creation
with open("/data/timestamps/socket_pipe/1to6/2MB/w1cont_data_end_ts.txt", 'a+') as fp_wcont_data_ts:
   fp_wcont_data_ts.write("%f\n" % time.time())
# Write data object on pipe
data_fifo = open('/data/data_pipe', 'wb') 
data_fifo.write(data_dim_bin)
data_fifo.write(data_as_bytes) 
data_fifo.close()
# Store final timestamp
with open("/data/timestamps/socket_pipe/1to6/2MB/w1cont_end_ts.txt", 'a+') as fp_wcont_e_ts:
   fp_wcont_e_ts.write("%f\n" % time.time())

          Workspaces:
            Mount Path:  /data
            Name:        write1-ws
Events:
  Type    Reason     Age                From         Message
  ----    ------     ----               ----         -------
  Normal  Started    23s (x2 over 24s)  PipelineRun  
  Normal  Running    22s (x2 over 23s)  PipelineRun  Tasks Completed: 0 (Failed: 0, Cancelled 0), Incomplete: 7, Skipped: 0
  Normal  Running    10s                PipelineRun  Tasks Completed: 1 (Failed: 0, Cancelled 0), Incomplete: 6, Skipped: 0
  Normal  Running    10s                PipelineRun  Tasks Completed: 2 (Failed: 0, Cancelled 0), Incomplete: 5, Skipped: 0
  Normal  Running    9s                 PipelineRun  Tasks Completed: 3 (Failed: 0, Cancelled 0), Incomplete: 4, Skipped: 0
  Normal  Running    9s                 PipelineRun  Tasks Completed: 4 (Failed: 0, Cancelled 0), Incomplete: 3, Skipped: 0
  Normal  Running    9s                 PipelineRun  Tasks Completed: 5 (Failed: 0, Cancelled 0), Incomplete: 2, Skipped: 0
  Normal  Running    9s                 PipelineRun  Tasks Completed: 6 (Failed: 0, Cancelled 0), Incomplete: 1, Skipped: 0
  Normal  Succeeded  8s                 PipelineRun  Tasks Completed: 7 (Failed: 0, Cancelled 0), Skipped: 0
