Name:         write-read-array-pipeline-run-7nm4r
Namespace:    default
Labels:       tekton.dev/pipeline=write-read-array-pipeline
Annotations:  <none>
API Version:  tekton.dev/v1beta1
Kind:         PipelineRun
Metadata:
  Creation Timestamp:  2022-02-25T15:02:12Z
  Generate Name:       write-read-array-pipeline-run-
  Generation:          1
  Managed Fields:
    API Version:  tekton.dev/v1beta1
    Fields Type:  FieldsV1
    fieldsV1:
      f:metadata:
        f:generateName:
      f:spec:
        .:
        f:pipelineRef:
          .:
          f:name:
        f:taskRunSpecs:
        f:workspaces:
    Manager:      kubectl-create
    Operation:    Update
    Time:         2022-02-25T15:02:12Z
    API Version:  tekton.dev/v1beta1
    Fields Type:  FieldsV1
    fieldsV1:
      f:metadata:
        f:annotations:
          .:
          f:kubectl.kubernetes.io/last-applied-configuration:
        f:labels:
          .:
          f:tekton.dev/pipeline:
      f:status:
        .:
        f:completionTime:
        f:conditions:
        f:pipelineSpec:
          .:
          f:tasks:
          f:workspaces:
        f:startTime:
        f:taskRuns:
          .:
          f:write-read-array-pipeline-run-7nm4r-read1-task-dltxb:
            .:
            f:pipelineTaskName:
            f:status:
              .:
              f:completionTime:
              f:conditions:
              f:podName:
              f:startTime:
              f:steps:
              f:taskSpec:
                .:
                f:steps:
                f:workspaces:
          f:write-read-array-pipeline-run-7nm4r-write1-task-d6cml:
            .:
            f:pipelineTaskName:
            f:status:
              .:
              f:completionTime:
              f:conditions:
              f:podName:
              f:startTime:
              f:steps:
              f:taskSpec:
                .:
                f:steps:
                f:workspaces:
    Manager:         controller
    Operation:       Update
    Time:            2022-02-25T15:02:40Z
  Resource Version:  1741407
  Self Link:         /apis/tekton.dev/v1beta1/namespaces/default/pipelineruns/write-read-array-pipeline-run-7nm4r
  UID:               a9ea8e57-9d09-43c6-8a5b-77324b83e65d
Spec:
  Pipeline Ref:
    Name:                write-read-array-pipeline
  Service Account Name:  default
  Task Run Specs:
    Pipeline Task Name:  write1-task
    Task Pod Template:
      Node Selector:
        kubernetes.io/hostname:  k8s-worker-node1
    Pipeline Task Name:          read1-task
    Task Pod Template:
      Node Selector:
        kubernetes.io/hostname:  k8s-worker-node2
  Timeout:                       1h0m0s
  Workspaces:
    Name:  task-write1-ws
    Persistent Volume Claim:
      Claim Name:  task1-pv-claim
    Name:          task-read1-ws
    Persistent Volume Claim:
      Claim Name:  task2-pv-claim
Status:
  Completion Time:  2022-02-25T15:02:39Z
  Conditions:
    Last Transition Time:  2022-02-25T15:02:39Z
    Message:               Tasks Completed: 2 (Failed: 0, Cancelled 0), Skipped: 0
    Reason:                Succeeded
    Status:                True
    Type:                  Succeeded
  Pipeline Spec:
    Tasks:
      Name:  write1-task
      Task Ref:
        Kind:  Task
        Name:  write1
      Workspaces:
        Name:       write1-ws
        Workspace:  task-write1-ws
      Name:         read1-task
      Run After:
        write1-task
      Task Ref:
        Kind:  Task
        Name:  read1
      Workspaces:
        Name:       read1-ws
        Workspace:  task-read1-ws
    Workspaces:
      Name:    task-write1-ws
      Name:    task-read1-ws
  Start Time:  2022-02-25T15:02:12Z
  Task Runs:
    write-read-array-pipeline-run-7nm4r-read1-task-dltxb:
      Pipeline Task Name:  read1-task
      Status:
        Completion Time:  2022-02-25T15:02:39Z
        Conditions:
          Last Transition Time:  2022-02-25T15:02:39Z
          Message:               All Steps have completed executing
          Reason:                Succeeded
          Status:                True
          Type:                  Succeeded
        Pod Name:                write-read-array-pipeline-run-7nm4r-read1-task-dltxb-pod-rg4f6
        Start Time:              2022-02-25T15:02:25Z
        Steps:
          Container:  step-s-start
          Image ID:   docker-pullable://python@sha256:ee0b617025e112b6ad7a4c76758e4a02f1c429e1b6c44410d95b024304698ff2
          Name:       s-start
          Terminated:
            Container ID:  docker://bc191a5552d2fffca89ad2e027bd62a9e9d88be795ed829cc03859567d006c5b
            Exit Code:     0
            Finished At:   2022-02-25T15:02:37Z
            Reason:        Completed
            Started At:    2022-02-25T15:02:36Z
          Container:       step-read
          Image ID:        docker-pullable://jupyter/scipy-notebook@sha256:3eedd144be95a195a1ae2d60a3b1cb4edac47333986b519b636abe3242de7d2a
          Name:            read
          Terminated:
            Container ID:  docker://42916d9dda61ae4ee63443938c198212d82b237e0d3614b71ef5a3171c97f561
            Exit Code:     0
            Finished At:   2022-02-25T15:02:39Z
            Reason:        Completed
            Started At:    2022-02-25T15:02:37Z
        Task Spec:
          Steps:
            Image:              python
            Image Pull Policy:  IfNotPresent
            Name:               s-start
            Resources:
            Script:  #!/usr/bin/env python3
import time
# Store initial timestamp
with open("/data/timestamps/socket/1to1/1GB/r1sent_start_ts.txt", 'a+') as fp_sent_s_ts:
   fp_sent_s_ts.write("%f\n" % time.time())
# Wait for the ready signal from external process
with open("/data/sync_pipe", "rb") as sync_pipe_file:
   while(int.from_bytes(sync_pipe_file.read(1), "little") != 1):
       continue
# Store final timestamp
with open("/data/timestamps/socket/1to1/1GB/r1sent_end_ts.txt", 'a+') as fp_sent_e_ts:
   fp_sent_e_ts.write("%f\n" % time.time())

            Image:              jupyter/scipy-notebook
            Image Pull Policy:  IfNotPresent
            Name:               read
            Resources:
            Script:  #!/usr/bin/env python3
import time
# Store initial timestamp
with open("/data/timestamps/socket/1to1/1GB/r1cont_start_ts.txt", 'a+') as fp_rcont_s_ts:
   fp_rcont_s_ts.write("%f\n" % time.time())
# Read data object from remote shared storage
with open("/data/in_data/out1.txt", "r") as fp_data:
   data = fp_data.read()
# Store final timestamp
with open("/data/timestamps/socket/1to1/1GB/r1cont_end_ts.txt", 'a+') as fp_rcont_e_ts:
   fp_rcont_e_ts.write("%f\n" % time.time())
#print("READER: Read %d x chars" % len(data))

          Workspaces:
            Mount Path:  /data
            Name:        read1-ws
    write-read-array-pipeline-run-7nm4r-write1-task-d6cml:
      Pipeline Task Name:  write1-task
      Status:
        Completion Time:  2022-02-25T15:02:24Z
        Conditions:
          Last Transition Time:  2022-02-25T15:02:24Z
          Message:               All Steps have completed executing
          Reason:                Succeeded
          Status:                True
          Type:                  Succeeded
        Pod Name:                write-read-array-pipeline-run-7nm4r-write1-task-d6cml-pod-k5drt
        Start Time:              2022-02-25T15:02:12Z
        Steps:
          Container:  step-write
          Image ID:   docker-pullable://jupyter/scipy-notebook@sha256:3eedd144be95a195a1ae2d60a3b1cb4edac47333986b519b636abe3242de7d2a
          Name:       write
          Terminated:
            Container ID:  docker://59fdc09b32a0c590fb9547263b18b76b99dc77b675cdf883d9f12527132a6723
            Exit Code:     0
            Finished At:   2022-02-25T15:02:23Z
            Reason:        Completed
            Started At:    2022-02-25T15:02:20Z
          Container:       step-s-end
          Image ID:        docker-pullable://python@sha256:ee0b617025e112b6ad7a4c76758e4a02f1c429e1b6c44410d95b024304698ff2
          Name:            s-end
          Terminated:
            Container ID:  docker://01b3e2a87c674b8e6e02234540570b490312d0332a97073f2f757743bfb06020
            Exit Code:     0
            Finished At:   2022-02-25T15:02:24Z
            Reason:        Completed
            Started At:    2022-02-25T15:02:23Z
        Task Spec:
          Steps:
            Image:              jupyter/scipy-notebook
            Image Pull Policy:  IfNotPresent
            Name:               write
            Resources:
            Script:  #!/usr/bin/env python3
import time
# Store initial timestamp
with open("/data/timestamps/socket/1to1/1GB/w1cont_start_ts.txt", 'a+') as fp_wcont_s_ts:
   fp_wcont_s_ts.write("%f\n" % time.time())
# Create data object
string = 'x' * 1073741824
# Store timestamp after data creation
with open("/data/timestamps/socket/1to1/1GB/w1cont_data_end_ts.txt", 'a+') as fp_wcont_data_ts:
   fp_wcont_data_ts.write("%f\n" % time.time())
# Write data object on the local pv
with open("/data/out_data/out1.txt", 'w') as fp_data:
   fp_data.write("%s" % string)
# Store final timestamp
with open("/data/timestamps/socket/1to1/1GB/w1cont_end_ts.txt", 'a+') as fp_wcont_e_ts:
   fp_wcont_e_ts.write("%f\n" % time.time())
#print("WRITER: Written out1!")

            Image:              python
            Image Pull Policy:  IfNotPresent
            Name:               s-end
            Resources:
            Script:  #!/usr/bin/env python3
import os
import time
# Store initial timestamp
with open("/data/timestamps/socket/1to1/1GB/w1sent_start_ts.txt", 'a+') as fp_sent_s_ts:
   fp_sent_s_ts.write("%f\n" % time.time())
# Writes ready signal to sync pipe
os.system("echo 1 > /data/sync_pipe")
# Store final timestamp
with open("/data/timestamps/socket/1to1/1GB/w1sent_end_ts.txt", 'a+') as fp_sent_e_ts:
   fp_sent_e_ts.write("%f\n" % time.time())
#print("WRITER: Finished!")

          Workspaces:
            Mount Path:  /data
            Name:        write1-ws
Events:
  Type    Reason     Age                From         Message
  ----    ------     ----               ----         -------
  Normal  Started    36s (x2 over 36s)  PipelineRun  
  Normal  Running    36s (x2 over 36s)  PipelineRun  Tasks Completed: 0 (Failed: 0, Cancelled 0), Incomplete: 2, Skipped: 0
  Normal  Running    23s (x2 over 23s)  PipelineRun  Tasks Completed: 1 (Failed: 0, Cancelled 0), Incomplete: 1, Skipped: 0
  Normal  Succeeded  8s                 PipelineRun  Tasks Completed: 2 (Failed: 0, Cancelled 0), Skipped: 0
