Name:         write-read-array-minio-pipeline-run-lnwhp
Namespace:    default
Labels:       tekton.dev/pipeline=write-read-array-minio-pipeline
Annotations:  <none>
API Version:  tekton.dev/v1beta1
Kind:         PipelineRun
Metadata:
  Creation Timestamp:  2022-06-25T10:20:12Z
  Generate Name:       write-read-array-minio-pipeline-run-
  Generation:          1
  Managed Fields:
    API Version:  tekton.dev/v1beta1
    Fields Type:  FieldsV1
    fieldsV1:
      f:metadata:
        f:generateName:
      f:spec:
        .:
        f:pipelineRef:
          .:
          f:name:
        f:taskRunSpecs:
        f:workspaces:
    Manager:      kubectl-create
    Operation:    Update
    Time:         2022-06-25T10:20:12Z
    API Version:  tekton.dev/v1beta1
    Fields Type:  FieldsV1
    fieldsV1:
      f:metadata:
        f:annotations:
          .:
          f:kubectl.kubernetes.io/last-applied-configuration:
        f:labels:
          .:
          f:tekton.dev/pipeline:
      f:status:
        .:
        f:completionTime:
        f:conditions:
        f:pipelineSpec:
          .:
          f:tasks:
          f:workspaces:
        f:startTime:
        f:taskRuns:
          .:
          f:write-read-array-minio-pipeline-run-lnwhp-read1-task-ghgp8:
            .:
            f:pipelineTaskName:
            f:status:
              .:
              f:completionTime:
              f:conditions:
              f:podName:
              f:startTime:
              f:steps:
              f:taskSpec:
                .:
                f:steps:
                f:workspaces:
          f:write-read-array-minio-pipeline-run-lnwhp-read2-task-n68nc:
            .:
            f:pipelineTaskName:
            f:status:
              .:
              f:completionTime:
              f:conditions:
              f:podName:
              f:startTime:
              f:steps:
              f:taskSpec:
                .:
                f:steps:
                f:workspaces:
          f:write-read-array-minio-pipeline-run-lnwhp-write1-task-cr8d6:
            .:
            f:pipelineTaskName:
            f:status:
              .:
              f:completionTime:
              f:conditions:
              f:podName:
              f:startTime:
              f:steps:
              f:taskSpec:
                .:
                f:steps:
                f:workspaces:
    Manager:         controller
    Operation:       Update
    Time:            2022-06-25T10:21:45Z
  Resource Version:  247537930
  Self Link:         /apis/tekton.dev/v1beta1/namespaces/default/pipelineruns/write-read-array-minio-pipeline-run-lnwhp
  UID:               eb714ffb-98e2-41c8-b7e2-d43e35e07487
Spec:
  Pipeline Ref:
    Name:                write-read-array-minio-pipeline
  Service Account Name:  default
  Task Run Specs:
    Pipeline Task Name:  write1-task
    Task Pod Template:
      Node Selector:
        kubernetes.io/hostname:  k8s-worker-node1
    Pipeline Task Name:          read1-task
    Task Pod Template:
      Node Selector:
        kubernetes.io/hostname:  k8s-worker-node2
    Pipeline Task Name:          read2-task
    Task Pod Template:
      Node Selector:
        kubernetes.io/hostname:  k8s-worker-node3
  Timeout:                       1h0m0s
  Workspaces:
    Name:  task-write1-ws
    Persistent Volume Claim:
      Claim Name:  task1-pv-claim
    Name:          task-read1-ws
    Persistent Volume Claim:
      Claim Name:  task2-pv-claim
    Name:          task-read2-ws
    Persistent Volume Claim:
      Claim Name:  task3-pv-claim
Status:
  Completion Time:  2022-06-25T10:21:45Z
  Conditions:
    Last Transition Time:  2022-06-25T10:21:45Z
    Message:               Tasks Completed: 3 (Failed: 0, Cancelled 0), Skipped: 0
    Reason:                Succeeded
    Status:                True
    Type:                  Succeeded
  Pipeline Spec:
    Tasks:
      Name:  write1-task
      Task Ref:
        Kind:  Task
        Name:  write1
      Workspaces:
        Name:       write1-ws
        Workspace:  task-write1-ws
      Name:         read1-task
      Run After:
        write1-task
      Task Ref:
        Kind:  Task
        Name:  read1
      Workspaces:
        Name:       read1-ws
        Workspace:  task-read1-ws
      Name:         read2-task
      Run After:
        write1-task
      Task Ref:
        Kind:  Task
        Name:  read2
      Workspaces:
        Name:       read2-ws
        Workspace:  task-read2-ws
    Workspaces:
      Name:    task-write1-ws
      Name:    task-read1-ws
      Name:    task-read2-ws
  Start Time:  2022-06-25T10:20:12Z
  Task Runs:
    write-read-array-minio-pipeline-run-lnwhp-read1-task-ghgp8:
      Pipeline Task Name:  read1-task
      Status:
        Completion Time:  2022-06-25T10:21:43Z
        Conditions:
          Last Transition Time:  2022-06-25T10:21:43Z
          Message:               All Steps have completed executing
          Reason:                Succeeded
          Status:                True
          Type:                  Succeeded
        Pod Name:                write-read-array-minio-pipeline-run-lnwhp-read1-task-ghgp-dj9mm
        Start Time:              2022-06-25T10:21:32Z
        Steps:
          Container:  step-read
          Image ID:   docker-pullable://amnestorov/minio@sha256:384d67ba924edbf872ea1c40bac5f0049d5afc6d962e8f83dde8afa622ab1967
          Name:       read
          Terminated:
            Container ID:  docker://6a637ca36df6942f0e024bd58e0bbf99528bbd7c704a8bececf89fbed6616890
            Exit Code:     0
            Finished At:   2022-06-25T10:21:43Z
            Reason:        Completed
            Started At:    2022-06-25T10:21:42Z
        Task Spec:
          Steps:
            Image:              amnestorov/minio
            Image Pull Policy:  IfNotPresent
            Name:               read
            Resources:
            Script:  #!/usr/bin/env python3
import time
import os
import subprocess
import sys
import boto3
import io
from botocore.config import Config
# Store initial timestamp
with open("/local/timestamps/shared_minio/1to2/32MB/r1cont_start_ts.txt", 'a+') as fp_rcont_s_ts:
   fp_rcont_s_ts.write("%f\n" % time.time())
session = boto3.session.Session()
config = Config(retries = dict(max_attempts = 50))
s3_client = session.client(
   service_name='s3',
   aws_access_key_id='admin',
   aws_secret_access_key='secretpwd',
   endpoint_url='http://10.0.26.33:9000',
   config=config
)
# Read data object from remote shared storage
data_bin1 = io.BytesIO()
s3_client.download_fileobj(Bucket='data', Key='out1.bin', Fileobj=data_bin1)
# Store final timestamp
with open("/local/timestamps/shared_minio/1to2/32MB/r1cont_end_ts.txt", 'a+') as fp_rcont_e_ts:
   fp_rcont_e_ts.write("%f\n" % time.time())
#print("READER: Read %d x chars" % len(data))

          Workspaces:
            Mount Path:  /local
            Name:        read1-ws
    write-read-array-minio-pipeline-run-lnwhp-read2-task-n68nc:
      Pipeline Task Name:  read2-task
      Status:
        Completion Time:  2022-06-25T10:21:45Z
        Conditions:
          Last Transition Time:  2022-06-25T10:21:45Z
          Message:               All Steps have completed executing
          Reason:                Succeeded
          Status:                True
          Type:                  Succeeded
        Pod Name:                write-read-array-minio-pipeline-run-lnwhp-read2-task-n68n-8qnkx
        Start Time:              2022-06-25T10:21:32Z
        Steps:
          Container:  step-read
          Image ID:   docker-pullable://amnestorov/minio@sha256:384d67ba924edbf872ea1c40bac5f0049d5afc6d962e8f83dde8afa622ab1967
          Name:       read
          Terminated:
            Container ID:  docker://479e25ee1bcd88314623d029a6d7f5806103535e27afea071ea4be87c0f9343b
            Exit Code:     0
            Finished At:   2022-06-25T10:21:44Z
            Reason:        Completed
            Started At:    2022-06-25T10:21:43Z
        Task Spec:
          Steps:
            Image:              amnestorov/minio
            Image Pull Policy:  IfNotPresent
            Name:               read
            Resources:
            Script:  #!/usr/bin/env python3
import time
import os
import subprocess
import sys
import boto3
import io
from botocore.config import Config
# Store initial timestamp
with open("/local/timestamps/shared_minio/1to2/32MB/r2cont_start_ts.txt", 'a+') as fp_rcont_s_ts:
   fp_rcont_s_ts.write("%f\n" % time.time())
session = boto3.session.Session()
config = Config(retries = dict(max_attempts = 50))
s3_client = session.client(
   service_name='s3',
   aws_access_key_id='admin',
   aws_secret_access_key='secretpwd',
   endpoint_url='http://10.0.26.33:9000',
   config=config
)
# Read data object from remote shared storage
data_bin1 = io.BytesIO()
s3_client.download_fileobj(Bucket='data', Key='out1.bin', Fileobj=data_bin1)
# Store final timestamp
with open("/local/timestamps/shared_minio/1to2/32MB/r2cont_end_ts.txt", 'a+') as fp_rcont_e_ts:
   fp_rcont_e_ts.write("%f\n" % time.time())
#print("READER: Read %d x chars" % len(data))

          Workspaces:
            Mount Path:  /local
            Name:        read2-ws
    write-read-array-minio-pipeline-run-lnwhp-write1-task-cr8d6:
      Pipeline Task Name:  write1-task
      Status:
        Completion Time:  2022-06-25T10:21:31Z
        Conditions:
          Last Transition Time:  2022-06-25T10:21:31Z
          Message:               All Steps have completed executing
          Reason:                Succeeded
          Status:                True
          Type:                  Succeeded
        Pod Name:                write-read-array-minio-pipeline-run-lnwhp-write1-task-cr8-w2mq4
        Start Time:              2022-06-25T10:20:12Z
        Steps:
          Container:  step-write
          Image ID:   docker-pullable://amnestorov/minio@sha256:384d67ba924edbf872ea1c40bac5f0049d5afc6d962e8f83dde8afa622ab1967
          Name:       write
          Terminated:
            Container ID:  docker://7f9607ec3a82f7c1b03a42655289eb98088b06f62f674c93fb0fda7f44b51629
            Exit Code:     0
            Finished At:   2022-06-25T10:21:27Z
            Reason:        Completed
            Started At:    2022-06-25T10:21:23Z
        Task Spec:
          Steps:
            Image:              amnestorov/minio
            Image Pull Policy:  IfNotPresent
            Name:               write
            Resources:
            Script:  #!/usr/bin/env python3
import time
import os 
import subprocess
import sys
import boto3
import botocore
import io
import boto3.s3.transfer as s3transfer
# Store initial timestamp
with open("/local/timestamps/shared_minio/1to2/32MB/w1cont_start_ts.txt", 'a+') as fp_wcont_s_ts:
   fp_wcont_s_ts.write("%f\n" % time.time())
# Create Boto session and client
session = boto3.session.Session()
botocore_config = botocore.config.Config(
   read_timeout=3600,
   connect_timeout=3600,
   retries={"max_attempts": 0},
   max_pool_connections=20
)
s3_client = session.client(
   service_name='s3',
   aws_access_key_id='admin',
   aws_secret_access_key='secretpwd',
   endpoint_url='http://10.0.26.33:9000',
   config=botocore_config
)
transfer_config = s3transfer.TransferConfig(
   use_threads=True,
   max_concurrency=20
)
s3t = s3transfer.create_transfer_manager(s3_client, transfer_config)
# Create data object
bin_data = bytearray(b'\x01') * 33554432
# Store timestamp after data creation 
with open("/local/timestamps/shared_minio/1to2/32MB/w1cont_data_end_ts.txt", 'a+') as fp_wcont_data_ts:
   fp_wcont_data_ts.write("%f\n" % time.time())
# Write data object on minio storage
#s3_client.put_object(Bucket='data', Key='out1.bin', Body=bin_data)
s3t.upload(io.BytesIO(bin_data), 'data', 'out1.bin')
#s3_client.upload_fileobj(io.BytesIO(bin_data), 'data', 'out1.bin',  Config = config)
# Store final timestamp
with open("/local/timestamps/shared_minio/1to2/32MB/w1cont_end_ts.txt", 'a+') as fp_wcont_e_ts:
   fp_wcont_e_ts.write("%f\n" % time.time())
s3t.shutdown()
#print("WRITER: Written out1!")

          Workspaces:
            Mount Path:  /local
            Name:        write1-ws
Events:
  Type    Reason     Age                From         Message
  ----    ------     ----               ----         -------
  Normal  Started    99s                PipelineRun  
  Normal  Running    99s                PipelineRun  Tasks Completed: 0 (Failed: 0, Cancelled 0), Incomplete: 3, Skipped: 0
  Normal  Running    20s (x2 over 20s)  PipelineRun  Tasks Completed: 1 (Failed: 0, Cancelled 0), Incomplete: 2, Skipped: 0
  Normal  Running    8s                 PipelineRun  Tasks Completed: 2 (Failed: 0, Cancelled 0), Incomplete: 1, Skipped: 0
  Normal  Succeeded  6s                 PipelineRun  Tasks Completed: 3 (Failed: 0, Cancelled 0), Skipped: 0
