Name:         write-read-array-pipeline-run-dq84n
Namespace:    default
Labels:       tekton.dev/pipeline=write-read-array-pipeline
Annotations:  <none>
API Version:  tekton.dev/v1beta1
Kind:         PipelineRun
Metadata:
  Creation Timestamp:  2022-03-13T10:45:34Z
  Generate Name:       write-read-array-pipeline-run-
  Generation:          1
  Managed Fields:
    API Version:  tekton.dev/v1beta1
    Fields Type:  FieldsV1
    fieldsV1:
      f:metadata:
        f:generateName:
      f:spec:
        .:
        f:pipelineRef:
          .:
          f:name:
        f:taskRunSpecs:
        f:workspaces:
    Manager:      kubectl-create
    Operation:    Update
    Time:         2022-03-13T10:45:34Z
    API Version:  tekton.dev/v1beta1
    Fields Type:  FieldsV1
    fieldsV1:
      f:metadata:
        f:annotations:
          .:
          f:kubectl.kubernetes.io/last-applied-configuration:
        f:labels:
          .:
          f:tekton.dev/pipeline:
      f:status:
        .:
        f:completionTime:
        f:conditions:
        f:pipelineSpec:
          .:
          f:tasks:
          f:workspaces:
        f:startTime:
        f:taskRuns:
          .:
          f:write-read-array-pipeline-run-dq84n-read1-task-gt95s:
            .:
            f:pipelineTaskName:
            f:status:
              .:
              f:completionTime:
              f:conditions:
              f:podName:
              f:startTime:
              f:steps:
              f:taskSpec:
                .:
                f:steps:
                f:workspaces:
          f:write-read-array-pipeline-run-dq84n-write1-task-lvgfv:
            .:
            f:pipelineTaskName:
            f:status:
              .:
              f:completionTime:
              f:conditions:
              f:podName:
              f:startTime:
              f:steps:
              f:taskSpec:
                .:
                f:steps:
                f:workspaces:
          f:write-read-array-pipeline-run-dq84n-write2-task-7cbwk:
            .:
            f:pipelineTaskName:
            f:status:
              .:
              f:completionTime:
              f:conditions:
              f:podName:
              f:startTime:
              f:steps:
              f:taskSpec:
                .:
                f:steps:
                f:workspaces:
    Manager:         controller
    Operation:       Update
    Time:            2022-03-13T10:46:04Z
  Resource Version:  17565802
  Self Link:         /apis/tekton.dev/v1beta1/namespaces/default/pipelineruns/write-read-array-pipeline-run-dq84n
  UID:               5072c304-eb64-47b8-b1ee-94a9f80baf39
Spec:
  Pipeline Ref:
    Name:                write-read-array-pipeline
  Service Account Name:  default
  Task Run Specs:
    Pipeline Task Name:  write1-task
    Task Pod Template:
      Node Selector:
        kubernetes.io/hostname:  k8s-worker-node1
    Pipeline Task Name:          write2-task
    Task Pod Template:
      Node Selector:
        kubernetes.io/hostname:  k8s-worker-node2
    Pipeline Task Name:          read1-task
    Task Pod Template:
      Node Selector:
        kubernetes.io/hostname:  k8s-worker-node3
  Timeout:                       1h0m0s
  Workspaces:
    Name:  task-write1-ws
    Persistent Volume Claim:
      Claim Name:  task1-pv-claim
    Name:          task-write2-ws
    Persistent Volume Claim:
      Claim Name:  task2-pv-claim
    Name:          task-read1-ws
    Persistent Volume Claim:
      Claim Name:  task3-pv-claim
Status:
  Completion Time:  2022-03-13T10:46:04Z
  Conditions:
    Last Transition Time:  2022-03-13T10:46:04Z
    Message:               Tasks Completed: 3 (Failed: 0, Cancelled 0), Skipped: 0
    Reason:                Succeeded
    Status:                True
    Type:                  Succeeded
  Pipeline Spec:
    Tasks:
      Name:  write1-task
      Task Ref:
        Kind:  Task
        Name:  write1
      Workspaces:
        Name:       write1-ws
        Workspace:  task-write1-ws
      Name:         write2-task
      Task Ref:
        Kind:  Task
        Name:  write2
      Workspaces:
        Name:       write2-ws
        Workspace:  task-write2-ws
      Name:         read1-task
      Task Ref:
        Kind:  Task
        Name:  read1
      Workspaces:
        Name:       read1-ws
        Workspace:  task-read1-ws
    Workspaces:
      Name:    task-write1-ws
      Name:    task-write2-ws
      Name:    task-read1-ws
  Start Time:  2022-03-13T10:45:34Z
  Task Runs:
    write-read-array-pipeline-run-dq84n-read1-task-gt95s:
      Pipeline Task Name:  read1-task
      Status:
        Completion Time:  2022-03-13T10:46:04Z
        Conditions:
          Last Transition Time:  2022-03-13T10:46:04Z
          Message:               All Steps have completed executing
          Reason:                Succeeded
          Status:                True
          Type:                  Succeeded
        Pod Name:                write-read-array-pipeline-run-dq84n-read1-task-gt95s-pod-hbbgd
        Start Time:              2022-03-13T10:45:34Z
        Steps:
          Container:  step-read
          Image ID:   docker-pullable://jupyter/scipy-notebook@sha256:87b339ec6a62b283d0c2aee1446e7bc2e5ad03a80d49d2dfddb031b233aedd29
          Name:       read
          Terminated:
            Container ID:  docker://147bbee117aaa7f6b497d3918293cbe76050b679712e4d0a4e05ab397bc88019
            Exit Code:     0
            Finished At:   2022-03-13T10:46:02Z
            Reason:        Completed
            Started At:    2022-03-13T10:45:44Z
        Task Spec:
          Steps:
            Image:              jupyter/scipy-notebook
            Image Pull Policy:  IfNotPresent
            Name:               read
            Resources:
            Script:  #!/usr/bin/env python3
import time
import os
# Store initial timestamp
with open("/data/timestamps/socket_pipe/2to1/1GB/r1cont_start_ts.txt", 'a+') as fp_rcont_s_ts:
   fp_rcont_s_ts.write("%f\n" % time.time())
buf_sz = 65536
ready = b'\x01'
sync_pipe = open("/data/sync_pipe", 'wb')
sync_pipe.write(ready)
sync_pipe.close()
#print("Written ready signal!")
# Read data object from data pipe
data_fifo = open('/data/data_pipe', 'rb')
data_length_bin = data_fifo.read(8)
data_length = int.from_bytes(data_length_bin, "big")
data = bytearray(0)
counter = 0
while counter < data_length:
   buff = data_fifo.read(buf_sz)
   counter += len(buff)
   data.extend(buff)
data_length_bin = data_fifo.read(8)
data_length = int.from_bytes(data_length_bin, "big")
data = bytearray(0)
counter = 0
while counter < data_length:
   buff = data_fifo.read(buf_sz)
   counter += len(buff)
   data.extend(buff)
data_fifo.close()
# Store final timestamp
with open("/data/timestamps/socket_pipe/2to1/1GB/r1cont_end_ts.txt", 'a+') as fp_rcont_e_ts:
   fp_rcont_e_ts.write("%f\n" % time.time())
#print("READER: Read %d x chars" % len(data))

          Workspaces:
            Mount Path:  /data
            Name:        read1-ws
    write-read-array-pipeline-run-dq84n-write1-task-lvgfv:
      Pipeline Task Name:  write1-task
      Status:
        Completion Time:  2022-03-13T10:45:55Z
        Conditions:
          Last Transition Time:  2022-03-13T10:45:55Z
          Message:               All Steps have completed executing
          Reason:                Succeeded
          Status:                True
          Type:                  Succeeded
        Pod Name:                write-read-array-pipeline-run-dq84n-write1-task-lvgfv-pod-4pt4m
        Start Time:              2022-03-13T10:45:34Z
        Steps:
          Container:  step-write
          Image ID:   docker-pullable://jupyter/scipy-notebook@sha256:87b339ec6a62b283d0c2aee1446e7bc2e5ad03a80d49d2dfddb031b233aedd29
          Name:       write
          Terminated:
            Container ID:  docker://8f88dcc8ad28d7db754a01189f10088e248f39bf36cbcccf89e799f570395534
            Exit Code:     0
            Finished At:   2022-03-13T10:45:54Z
            Reason:        Completed
            Started At:    2022-03-13T10:45:45Z
        Task Spec:
          Steps:
            Image:              jupyter/scipy-notebook
            Image Pull Policy:  IfNotPresent
            Name:               write
            Resources:
            Script:  #!/usr/bin/env python3
import time
# Store initial timestamp
with open("/data/timestamps/socket_pipe/2to1/1GB/w1cont_start_ts.txt", 'a+') as fp_wcont_s_ts:
   fp_wcont_s_ts.write("%f\n" % time.time())
# Create data object
# string = 'x' * 1073741824
data_as_bytes = bytearray(b'\x78') * 1073741824
#data_as_bytes = str.encode(string)
data_dim = 1073741824
data_dim_bin = data_dim.to_bytes(8, "big")
# Store timestamp after data creation
with open("/data/timestamps/socket_pipe/2to1/1GB/w1cont_data_end_ts.txt", 'a+') as fp_wcont_data_ts:
   fp_wcont_data_ts.write("%f\n" % time.time())
# Write data object on pipe
data_fifo = open('/data/data_pipe', 'wb') 
data_fifo.write(data_dim_bin)
data_fifo.write(data_as_bytes) 
data_fifo.close()
# Store final timestamp
with open("/data/timestamps/socket_pipe/2to1/1GB/w1cont_end_ts.txt", 'a+') as fp_wcont_e_ts:
   fp_wcont_e_ts.write("%f\n" % time.time())

          Workspaces:
            Mount Path:  /data
            Name:        write1-ws
    write-read-array-pipeline-run-dq84n-write2-task-7cbwk:
      Pipeline Task Name:  write2-task
      Status:
        Completion Time:  2022-03-13T10:46:03Z
        Conditions:
          Last Transition Time:  2022-03-13T10:46:03Z
          Message:               All Steps have completed executing
          Reason:                Succeeded
          Status:                True
          Type:                  Succeeded
        Pod Name:                write-read-array-pipeline-run-dq84n-write2-task-7cbwk-pod-2jwgk
        Start Time:              2022-03-13T10:45:34Z
        Steps:
          Container:  step-write
          Image ID:   docker-pullable://jupyter/scipy-notebook@sha256:87b339ec6a62b283d0c2aee1446e7bc2e5ad03a80d49d2dfddb031b233aedd29
          Name:       write
          Terminated:
            Container ID:  docker://e8ae68629be1341d7d69c92713d7257abda5c616946950a7985816bec03234d4
            Exit Code:     0
            Finished At:   2022-03-13T10:46:02Z
            Reason:        Completed
            Started At:    2022-03-13T10:45:44Z
        Task Spec:
          Steps:
            Image:              jupyter/scipy-notebook
            Image Pull Policy:  IfNotPresent
            Name:               write
            Resources:
            Script:  #!/usr/bin/env python3
import time
# Store initial timestamp
with open("/data/timestamps/socket_pipe/2to1/1GB/w2cont_start_ts.txt", 'a+') as fp_wcont_s_ts:
   fp_wcont_s_ts.write("%f\n" % time.time())
# Create data object
# string = 'x' * 1073741824
data_as_bytes = bytearray(b'\x78') * 1073741824
#data_as_bytes = str.encode(string)
data_dim = 1073741824
data_dim_bin = data_dim.to_bytes(8, "big")
# Store timestamp after data creation
with open("/data/timestamps/socket_pipe/2to1/1GB/w2cont_data_end_ts.txt", 'a+') as fp_wcont_data_ts:
   fp_wcont_data_ts.write("%f\n" % time.time())
# Write data object on pipe
data_fifo = open('/data/data_pipe', 'wb') 
data_fifo.write(data_dim_bin)
data_fifo.write(data_as_bytes) 
data_fifo.close()
# Store final timestamp
with open("/data/timestamps/socket_pipe/2to1/1GB/w2cont_end_ts.txt", 'a+') as fp_wcont_e_ts:
   fp_wcont_e_ts.write("%f\n" % time.time())

          Workspaces:
            Mount Path:  /data
            Name:        write2-ws
Events:
  Type    Reason     Age   From         Message
  ----    ------     ----  ----         -------
  Normal  Started    39s   PipelineRun  
  Normal  Running    39s   PipelineRun  Tasks Completed: 0 (Failed: 0, Cancelled 0), Incomplete: 3, Skipped: 0
  Normal  Running    17s   PipelineRun  Tasks Completed: 1 (Failed: 0, Cancelled 0), Incomplete: 2, Skipped: 0
  Normal  Running    9s    PipelineRun  Tasks Completed: 2 (Failed: 0, Cancelled 0), Incomplete: 1, Skipped: 0
  Normal  Succeeded  8s    PipelineRun  Tasks Completed: 3 (Failed: 0, Cancelled 0), Skipped: 0
