Name:         write-read-array-pipeline-run-l8gh7
Namespace:    default
Labels:       tekton.dev/pipeline=write-read-array-pipeline
Annotations:  <none>
API Version:  tekton.dev/v1beta1
Kind:         PipelineRun
Metadata:
  Creation Timestamp:  2022-03-15T19:03:38Z
  Generate Name:       write-read-array-pipeline-run-
  Generation:          1
  Managed Fields:
    API Version:  tekton.dev/v1beta1
    Fields Type:  FieldsV1
    fieldsV1:
      f:metadata:
        f:generateName:
      f:spec:
        .:
        f:pipelineRef:
          .:
          f:name:
        f:taskRunSpecs:
        f:workspaces:
    Manager:      kubectl-create
    Operation:    Update
    Time:         2022-03-15T19:03:38Z
    API Version:  tekton.dev/v1beta1
    Fields Type:  FieldsV1
    fieldsV1:
      f:metadata:
        f:annotations:
          .:
          f:kubectl.kubernetes.io/last-applied-configuration:
        f:labels:
          .:
          f:tekton.dev/pipeline:
      f:status:
        .:
        f:completionTime:
        f:conditions:
        f:pipelineSpec:
          .:
          f:tasks:
          f:workspaces:
        f:startTime:
        f:taskRuns:
          .:
          f:write-read-array-pipeline-run-l8gh7-read1-task-7phkv:
            .:
            f:pipelineTaskName:
            f:status:
              .:
              f:completionTime:
              f:conditions:
              f:podName:
              f:startTime:
              f:steps:
              f:taskSpec:
                .:
                f:steps:
                f:workspaces:
          f:write-read-array-pipeline-run-l8gh7-write1-task-fz8k6:
            .:
            f:pipelineTaskName:
            f:status:
              .:
              f:completionTime:
              f:conditions:
              f:podName:
              f:startTime:
              f:steps:
              f:taskSpec:
                .:
                f:steps:
                f:workspaces:
          f:write-read-array-pipeline-run-l8gh7-write2-task-grnhb:
            .:
            f:pipelineTaskName:
            f:status:
              .:
              f:completionTime:
              f:conditions:
              f:podName:
              f:startTime:
              f:steps:
              f:taskSpec:
                .:
                f:steps:
                f:workspaces:
          f:write-read-array-pipeline-run-l8gh7-write3-task-dv8sc:
            .:
            f:pipelineTaskName:
            f:status:
              .:
              f:completionTime:
              f:conditions:
              f:podName:
              f:startTime:
              f:steps:
              f:taskSpec:
                .:
                f:steps:
                f:workspaces:
          f:write-read-array-pipeline-run-l8gh7-write4-task-88wh9:
            .:
            f:pipelineTaskName:
            f:status:
              .:
              f:completionTime:
              f:conditions:
              f:podName:
              f:startTime:
              f:steps:
              f:taskSpec:
                .:
                f:steps:
                f:workspaces:
    Manager:         controller
    Operation:       Update
    Time:            2022-03-15T19:03:52Z
  Resource Version:  22994508
  Self Link:         /apis/tekton.dev/v1beta1/namespaces/default/pipelineruns/write-read-array-pipeline-run-l8gh7
  UID:               b20b5204-5d3f-4a2c-83e5-511ee4dadce5
Spec:
  Pipeline Ref:
    Name:                write-read-array-pipeline
  Service Account Name:  default
  Task Run Specs:
    Pipeline Task Name:  write1-task
    Task Pod Template:
      Node Selector:
        kubernetes.io/hostname:  k8s-worker-node1
    Pipeline Task Name:          write2-task
    Task Pod Template:
      Node Selector:
        kubernetes.io/hostname:  k8s-worker-node2
    Pipeline Task Name:          write3-task
    Task Pod Template:
      Node Selector:
        kubernetes.io/hostname:  k8s-worker-node3
    Pipeline Task Name:          write4-task
    Task Pod Template:
      Node Selector:
        kubernetes.io/hostname:  k8s-worker-node4
    Pipeline Task Name:          read1-task
    Task Pod Template:
      Node Selector:
        kubernetes.io/hostname:  k8s-worker-node5
  Timeout:                       1h0m0s
  Workspaces:
    Name:  task-write1-ws
    Persistent Volume Claim:
      Claim Name:  task1-pv-claim
    Name:          task-write2-ws
    Persistent Volume Claim:
      Claim Name:  task2-pv-claim
    Name:          task-write3-ws
    Persistent Volume Claim:
      Claim Name:  task3-pv-claim
    Name:          task-write4-ws
    Persistent Volume Claim:
      Claim Name:  task4-pv-claim
    Name:          task-read1-ws
    Persistent Volume Claim:
      Claim Name:  task5-pv-claim
Status:
  Completion Time:  2022-03-15T19:03:52Z
  Conditions:
    Last Transition Time:  2022-03-15T19:03:52Z
    Message:               Tasks Completed: 5 (Failed: 0, Cancelled 0), Skipped: 0
    Reason:                Succeeded
    Status:                True
    Type:                  Succeeded
  Pipeline Spec:
    Tasks:
      Name:  write1-task
      Task Ref:
        Kind:  Task
        Name:  write1
      Workspaces:
        Name:       write1-ws
        Workspace:  task-write1-ws
      Name:         write2-task
      Task Ref:
        Kind:  Task
        Name:  write2
      Workspaces:
        Name:       write2-ws
        Workspace:  task-write2-ws
      Name:         write3-task
      Task Ref:
        Kind:  Task
        Name:  write3
      Workspaces:
        Name:       write3-ws
        Workspace:  task-write3-ws
      Name:         write4-task
      Task Ref:
        Kind:  Task
        Name:  write4
      Workspaces:
        Name:       write4-ws
        Workspace:  task-write4-ws
      Name:         read1-task
      Task Ref:
        Kind:  Task
        Name:  read1
      Workspaces:
        Name:       read1-ws
        Workspace:  task-read1-ws
    Workspaces:
      Name:    task-write1-ws
      Name:    task-write2-ws
      Name:    task-write3-ws
      Name:    task-write4-ws
      Name:    task-read1-ws
  Start Time:  2022-03-15T19:03:38Z
  Task Runs:
    write-read-array-pipeline-run-l8gh7-read1-task-7phkv:
      Pipeline Task Name:  read1-task
      Status:
        Completion Time:  2022-03-15T19:03:51Z
        Conditions:
          Last Transition Time:  2022-03-15T19:03:51Z
          Message:               All Steps have completed executing
          Reason:                Succeeded
          Status:                True
          Type:                  Succeeded
        Pod Name:                write-read-array-pipeline-run-l8gh7-read1-task-7phkv-pod-txmmx
        Start Time:              2022-03-15T19:03:39Z
        Steps:
          Container:  step-read
          Image ID:   docker-pullable://jupyter/scipy-notebook@sha256:87b339ec6a62b283d0c2aee1446e7bc2e5ad03a80d49d2dfddb031b233aedd29
          Name:       read
          Terminated:
            Container ID:  docker://0679fc6f42e8905dfe3402f2e8c4ae6628aab5b7825426cd1145da2bf994c52e
            Exit Code:     0
            Finished At:   2022-03-15T19:03:51Z
            Reason:        Completed
            Started At:    2022-03-15T19:03:47Z
        Task Spec:
          Steps:
            Image:              jupyter/scipy-notebook
            Image Pull Policy:  IfNotPresent
            Name:               read
            Resources:
            Script:  #!/usr/bin/env python3
import time
import os
import gc
# Store initial timestamp
with open("/data/timestamps/socket_pipe/4to1/64MB/r1cont_start_ts.txt", 'a+') as fp_rcont_s_ts:
   fp_rcont_s_ts.write("%f\n" % time.time())
buf_sz = 65536
ready = b'\x01'
sync_pipe = open("/data/sync_pipe", 'wb')
sync_pipe.write(ready)
sync_pipe.close()
#print("Written ready signal!")
# Read data object from data pipe
data_fifo = open('/data/data_pipe', 'rb')
data_length_bin = data_fifo.read(8)
data_length = int.from_bytes(data_length_bin, "big")
data = bytearray(0)
counter = 0
while counter < data_length:
   buff = data_fifo.read(buf_sz)
   counter += len(buff)
   data.extend(buff)
del data
gc.collect()
data_length_bin = data_fifo.read(8)
data_length = int.from_bytes(data_length_bin, "big")
data = bytearray(0)
counter = 0
while counter < data_length:
   buff = data_fifo.read(buf_sz)
   counter += len(buff)
   data.extend(buff)
del data
gc.collect()
data_length_bin = data_fifo.read(8)
data_length = int.from_bytes(data_length_bin, "big")
data = bytearray(0)
counter = 0
while counter < data_length:
   buff = data_fifo.read(buf_sz)
   counter += len(buff)
   data.extend(buff)
del data
gc.collect()
data_length_bin = data_fifo.read(8)
data_length = int.from_bytes(data_length_bin, "big")
data = bytearray(0)
counter = 0
while counter < data_length:
   buff = data_fifo.read(buf_sz)
   counter += len(buff)
   data.extend(buff)
del data
gc.collect()
data_fifo.close()
# Store final timestamp
with open("/data/timestamps/socket_pipe/4to1/64MB/r1cont_end_ts.txt", 'a+') as fp_rcont_e_ts:
   fp_rcont_e_ts.write("%f\n" % time.time())
#print("READER: Read %d x chars" % len(data))

          Workspaces:
            Mount Path:  /data
            Name:        read1-ws
    write-read-array-pipeline-run-l8gh7-write1-task-fz8k6:
      Pipeline Task Name:  write1-task
      Status:
        Completion Time:  2022-03-15T19:03:48Z
        Conditions:
          Last Transition Time:  2022-03-15T19:03:48Z
          Message:               All Steps have completed executing
          Reason:                Succeeded
          Status:                True
          Type:                  Succeeded
        Pod Name:                write-read-array-pipeline-run-l8gh7-write1-task-fz8k6-pod-2hpdv
        Start Time:              2022-03-15T19:03:38Z
        Steps:
          Container:  step-write
          Image ID:   docker-pullable://jupyter/scipy-notebook@sha256:87b339ec6a62b283d0c2aee1446e7bc2e5ad03a80d49d2dfddb031b233aedd29
          Name:       write
          Terminated:
            Container ID:  docker://dbc1815dfd1683579f684bb7c3ebc38265ea37bb3aa2b87c47e32577e9242209
            Exit Code:     0
            Finished At:   2022-03-15T19:03:47Z
            Reason:        Completed
            Started At:    2022-03-15T19:03:47Z
        Task Spec:
          Steps:
            Image:              jupyter/scipy-notebook
            Image Pull Policy:  IfNotPresent
            Name:               write
            Resources:
            Script:  #!/usr/bin/env python3
import time
# Store initial timestamp
with open("/data/timestamps/socket_pipe/4to1/64MB/w1cont_start_ts.txt", 'a+') as fp_wcont_s_ts:
   fp_wcont_s_ts.write("%f\n" % time.time())
# Create data object
# string = 'x' * 67108864
data_as_bytes = bytearray(b'\x78') * 67108864
#data_as_bytes = str.encode(string)
data_dim = 67108864
data_dim_bin = data_dim.to_bytes(8, "big")
# Store timestamp after data creation
with open("/data/timestamps/socket_pipe/4to1/64MB/w1cont_data_end_ts.txt", 'a+') as fp_wcont_data_ts:
   fp_wcont_data_ts.write("%f\n" % time.time())
# Write data object on pipe
data_fifo = open('/data/data_pipe', 'wb') 
data_fifo.write(data_dim_bin)
data_fifo.write(data_as_bytes) 
data_fifo.close()
# Store final timestamp
with open("/data/timestamps/socket_pipe/4to1/64MB/w1cont_end_ts.txt", 'a+') as fp_wcont_e_ts:
   fp_wcont_e_ts.write("%f\n" % time.time())

          Workspaces:
            Mount Path:  /data
            Name:        write1-ws
    write-read-array-pipeline-run-l8gh7-write2-task-grnhb:
      Pipeline Task Name:  write2-task
      Status:
        Completion Time:  2022-03-15T19:03:49Z
        Conditions:
          Last Transition Time:  2022-03-15T19:03:49Z
          Message:               All Steps have completed executing
          Reason:                Succeeded
          Status:                True
          Type:                  Succeeded
        Pod Name:                write-read-array-pipeline-run-l8gh7-write2-task-grnhb-pod-zk6q8
        Start Time:              2022-03-15T19:03:38Z
        Steps:
          Container:  step-write
          Image ID:   docker-pullable://jupyter/scipy-notebook@sha256:87b339ec6a62b283d0c2aee1446e7bc2e5ad03a80d49d2dfddb031b233aedd29
          Name:       write
          Terminated:
            Container ID:  docker://1ea06c831326d2df62aadb240c06e5a7a3a73aeb0b0dda238bcf3c7f8548962f
            Exit Code:     0
            Finished At:   2022-03-15T19:03:48Z
            Reason:        Completed
            Started At:    2022-03-15T19:03:46Z
        Task Spec:
          Steps:
            Image:              jupyter/scipy-notebook
            Image Pull Policy:  IfNotPresent
            Name:               write
            Resources:
            Script:  #!/usr/bin/env python3
import time
# Store initial timestamp
with open("/data/timestamps/socket_pipe/4to1/64MB/w2cont_start_ts.txt", 'a+') as fp_wcont_s_ts:
   fp_wcont_s_ts.write("%f\n" % time.time())
# Create data object
# string = 'x' * 67108864
data_as_bytes = bytearray(b'\x78') * 67108864
#data_as_bytes = str.encode(string)
data_dim = 67108864
data_dim_bin = data_dim.to_bytes(8, "big")
# Store timestamp after data creation
with open("/data/timestamps/socket_pipe/4to1/64MB/w2cont_data_end_ts.txt", 'a+') as fp_wcont_data_ts:
   fp_wcont_data_ts.write("%f\n" % time.time())
# Write data object on pipe
data_fifo = open('/data/data_pipe', 'wb') 
data_fifo.write(data_dim_bin)
data_fifo.write(data_as_bytes) 
data_fifo.close()
# Store final timestamp
with open("/data/timestamps/socket_pipe/4to1/64MB/w2cont_end_ts.txt", 'a+') as fp_wcont_e_ts:
   fp_wcont_e_ts.write("%f\n" % time.time())

          Workspaces:
            Mount Path:  /data
            Name:        write2-ws
    write-read-array-pipeline-run-l8gh7-write3-task-dv8sc:
      Pipeline Task Name:  write3-task
      Status:
        Completion Time:  2022-03-15T19:03:51Z
        Conditions:
          Last Transition Time:  2022-03-15T19:03:51Z
          Message:               All Steps have completed executing
          Reason:                Succeeded
          Status:                True
          Type:                  Succeeded
        Pod Name:                write-read-array-pipeline-run-l8gh7-write3-task-dv8sc-pod-dg7md
        Start Time:              2022-03-15T19:03:38Z
        Steps:
          Container:  step-write
          Image ID:   docker-pullable://jupyter/scipy-notebook@sha256:87b339ec6a62b283d0c2aee1446e7bc2e5ad03a80d49d2dfddb031b233aedd29
          Name:       write
          Terminated:
            Container ID:  docker://d8268b662d65475ab07b0fb1fd428d4865b27a121e9e17c02ea62fc0e92b4f15
            Exit Code:     0
            Finished At:   2022-03-15T19:03:51Z
            Reason:        Completed
            Started At:    2022-03-15T19:03:50Z
        Task Spec:
          Steps:
            Image:              jupyter/scipy-notebook
            Image Pull Policy:  IfNotPresent
            Name:               write
            Resources:
            Script:  #!/usr/bin/env python3
import time
# Store initial timestamp
with open("/data/timestamps/socket_pipe/4to1/64MB/w3cont_start_ts.txt", 'a+') as fp_wcont_s_ts:
   fp_wcont_s_ts.write("%f\n" % time.time())
# Create data object
# string = 'x' * 67108864
data_as_bytes = bytearray(b'\x78') * 67108864
#data_as_bytes = str.encode(string)
data_dim = 67108864
data_dim_bin = data_dim.to_bytes(8, "big")
# Store timestamp after data creation
with open("/data/timestamps/socket_pipe/4to1/64MB/w3cont_data_end_ts.txt", 'a+') as fp_wcont_data_ts:
   fp_wcont_data_ts.write("%f\n" % time.time())
# Write data object on pipe
data_fifo = open('/data/data_pipe', 'wb') 
data_fifo.write(data_dim_bin)
data_fifo.write(data_as_bytes) 
data_fifo.close()
# Store final timestamp
with open("/data/timestamps/socket_pipe/4to1/64MB/w3cont_end_ts.txt", 'a+') as fp_wcont_e_ts:
   fp_wcont_e_ts.write("%f\n" % time.time())

          Workspaces:
            Mount Path:  /data
            Name:        write3-ws
    write-read-array-pipeline-run-l8gh7-write4-task-88wh9:
      Pipeline Task Name:  write4-task
      Status:
        Completion Time:  2022-03-15T19:03:52Z
        Conditions:
          Last Transition Time:  2022-03-15T19:03:52Z
          Message:               All Steps have completed executing
          Reason:                Succeeded
          Status:                True
          Type:                  Succeeded
        Pod Name:                write-read-array-pipeline-run-l8gh7-write4-task-88wh9-pod-9hxbj
        Start Time:              2022-03-15T19:03:38Z
        Steps:
          Container:  step-write
          Image ID:   docker-pullable://jupyter/scipy-notebook@sha256:87b339ec6a62b283d0c2aee1446e7bc2e5ad03a80d49d2dfddb031b233aedd29
          Name:       write
          Terminated:
            Container ID:  docker://c0d921ac7d6a3084dc551933c68ee1c371fa4d78964048710e29bc70611ded32
            Exit Code:     0
            Finished At:   2022-03-15T19:03:51Z
            Reason:        Completed
            Started At:    2022-03-15T19:03:46Z
        Task Spec:
          Steps:
            Image:              jupyter/scipy-notebook
            Image Pull Policy:  IfNotPresent
            Name:               write
            Resources:
            Script:  #!/usr/bin/env python3
import time
# Store initial timestamp
with open("/data/timestamps/socket_pipe/4to1/64MB/w4cont_start_ts.txt", 'a+') as fp_wcont_s_ts:
   fp_wcont_s_ts.write("%f\n" % time.time())
# Create data object
# string = 'x' * 67108864
data_as_bytes = bytearray(b'\x78') * 67108864
#data_as_bytes = str.encode(string)
data_dim = 67108864
data_dim_bin = data_dim.to_bytes(8, "big")
# Store timestamp after data creation
with open("/data/timestamps/socket_pipe/4to1/64MB/w4cont_data_end_ts.txt", 'a+') as fp_wcont_data_ts:
   fp_wcont_data_ts.write("%f\n" % time.time())
# Write data object on pipe
data_fifo = open('/data/data_pipe', 'wb') 
data_fifo.write(data_dim_bin)
data_fifo.write(data_as_bytes) 
data_fifo.close()
# Store final timestamp
with open("/data/timestamps/socket_pipe/4to1/64MB/w4cont_end_ts.txt", 'a+') as fp_wcont_e_ts:
   fp_wcont_e_ts.write("%f\n" % time.time())

          Workspaces:
            Mount Path:  /data
            Name:        write4-ws
Events:
  Type    Reason     Age                From         Message
  ----    ------     ----               ----         -------
  Normal  Started    24s (x2 over 24s)  PipelineRun  
  Normal  Running    24s (x2 over 24s)  PipelineRun  Tasks Completed: 0 (Failed: 0, Cancelled 0), Incomplete: 5, Skipped: 0
  Normal  Running    13s                PipelineRun  Tasks Completed: 1 (Failed: 0, Cancelled 0), Incomplete: 4, Skipped: 0
  Normal  Running    12s                PipelineRun  Tasks Completed: 2 (Failed: 0, Cancelled 0), Incomplete: 3, Skipped: 0
  Normal  Running    10s                PipelineRun  Tasks Completed: 3 (Failed: 0, Cancelled 0), Incomplete: 2, Skipped: 0
  Normal  Running    10s                PipelineRun  Tasks Completed: 4 (Failed: 0, Cancelled 0), Incomplete: 1, Skipped: 0
  Normal  Succeeded  9s                 PipelineRun  Tasks Completed: 5 (Failed: 0, Cancelled 0), Skipped: 0
