Name:         write-read-array-minio-pipeline-run-xpxm2
Namespace:    default
Labels:       tekton.dev/pipeline=write-read-array-minio-pipeline
Annotations:  <none>
API Version:  tekton.dev/v1beta1
Kind:         PipelineRun
Metadata:
  Creation Timestamp:  2022-06-26T07:54:40Z
  Generate Name:       write-read-array-minio-pipeline-run-
  Generation:          1
  Managed Fields:
    API Version:  tekton.dev/v1beta1
    Fields Type:  FieldsV1
    fieldsV1:
      f:metadata:
        f:generateName:
      f:spec:
        .:
        f:pipelineRef:
          .:
          f:name:
        f:taskRunSpecs:
        f:workspaces:
    Manager:      kubectl-create
    Operation:    Update
    Time:         2022-06-26T07:54:40Z
    API Version:  tekton.dev/v1beta1
    Fields Type:  FieldsV1
    fieldsV1:
      f:metadata:
        f:annotations:
          .:
          f:kubectl.kubernetes.io/last-applied-configuration:
        f:labels:
          .:
          f:tekton.dev/pipeline:
      f:status:
        .:
        f:completionTime:
        f:conditions:
        f:pipelineSpec:
          .:
          f:tasks:
          f:workspaces:
        f:startTime:
        f:taskRuns:
          .:
          f:write-read-array-minio-pipeline-run-xpxm2-read1-task-892jw:
            .:
            f:pipelineTaskName:
            f:status:
              .:
              f:completionTime:
              f:conditions:
              f:podName:
              f:startTime:
              f:steps:
              f:taskSpec:
                .:
                f:steps:
                f:workspaces:
          f:write-read-array-minio-pipeline-run-xpxm2-read2-task-hgq6j:
            .:
            f:pipelineTaskName:
            f:status:
              .:
              f:completionTime:
              f:conditions:
              f:podName:
              f:startTime:
              f:steps:
              f:taskSpec:
                .:
                f:steps:
                f:workspaces:
          f:write-read-array-minio-pipeline-run-xpxm2-read3-task-dtstv:
            .:
            f:pipelineTaskName:
            f:status:
              .:
              f:completionTime:
              f:conditions:
              f:podName:
              f:startTime:
              f:steps:
              f:taskSpec:
                .:
                f:steps:
                f:workspaces:
          f:write-read-array-minio-pipeline-run-xpxm2-read4-task-9l7d7:
            .:
            f:pipelineTaskName:
            f:status:
              .:
              f:completionTime:
              f:conditions:
              f:podName:
              f:startTime:
              f:steps:
              f:taskSpec:
                .:
                f:steps:
                f:workspaces:
          f:write-read-array-minio-pipeline-run-xpxm2-write1-task-29ctd:
            .:
            f:pipelineTaskName:
            f:status:
              .:
              f:completionTime:
              f:conditions:
              f:podName:
              f:startTime:
              f:steps:
              f:taskSpec:
                .:
                f:steps:
                f:workspaces:
    Manager:         controller
    Operation:       Update
    Time:            2022-06-26T07:56:14Z
  Resource Version:  249510066
  Self Link:         /apis/tekton.dev/v1beta1/namespaces/default/pipelineruns/write-read-array-minio-pipeline-run-xpxm2
  UID:               bb25a356-b236-404b-b268-9977dab89410
Spec:
  Pipeline Ref:
    Name:                write-read-array-minio-pipeline
  Service Account Name:  default
  Task Run Specs:
    Pipeline Task Name:  write1-task
    Task Pod Template:
      Node Selector:
        kubernetes.io/hostname:  k8s-worker-node1
    Pipeline Task Name:          read1-task
    Task Pod Template:
      Node Selector:
        kubernetes.io/hostname:  k8s-worker-node2
    Pipeline Task Name:          read2-task
    Task Pod Template:
      Node Selector:
        kubernetes.io/hostname:  k8s-worker-node3
    Pipeline Task Name:          read3-task
    Task Pod Template:
      Node Selector:
        kubernetes.io/hostname:  k8s-worker-node4
    Pipeline Task Name:          read4-task
    Task Pod Template:
      Node Selector:
        kubernetes.io/hostname:  k8s-worker-node5
  Timeout:                       1h0m0s
  Workspaces:
    Name:  task-write1-ws
    Persistent Volume Claim:
      Claim Name:  task1-pv-claim
    Name:          task-read1-ws
    Persistent Volume Claim:
      Claim Name:  task2-pv-claim
    Name:          task-read2-ws
    Persistent Volume Claim:
      Claim Name:  task3-pv-claim
    Name:          task-read3-ws
    Persistent Volume Claim:
      Claim Name:  task4-pv-claim
    Name:          task-read4-ws
    Persistent Volume Claim:
      Claim Name:  task5-pv-claim
Status:
  Completion Time:  2022-06-26T07:56:13Z
  Conditions:
    Last Transition Time:  2022-06-26T07:56:13Z
    Message:               Tasks Completed: 5 (Failed: 0, Cancelled 0), Skipped: 0
    Reason:                Succeeded
    Status:                True
    Type:                  Succeeded
  Pipeline Spec:
    Tasks:
      Name:  write1-task
      Task Ref:
        Kind:  Task
        Name:  write1
      Workspaces:
        Name:       write1-ws
        Workspace:  task-write1-ws
      Name:         read1-task
      Run After:
        write1-task
      Task Ref:
        Kind:  Task
        Name:  read1
      Workspaces:
        Name:       read1-ws
        Workspace:  task-read1-ws
      Name:         read2-task
      Run After:
        write1-task
      Task Ref:
        Kind:  Task
        Name:  read2
      Workspaces:
        Name:       read2-ws
        Workspace:  task-read2-ws
      Name:         read3-task
      Run After:
        write1-task
      Task Ref:
        Kind:  Task
        Name:  read3
      Workspaces:
        Name:       read3-ws
        Workspace:  task-read3-ws
      Name:         read4-task
      Run After:
        write1-task
      Task Ref:
        Kind:  Task
        Name:  read4
      Workspaces:
        Name:       read4-ws
        Workspace:  task-read4-ws
    Workspaces:
      Name:    task-write1-ws
      Name:    task-read1-ws
      Name:    task-read2-ws
      Name:    task-read3-ws
      Name:    task-read4-ws
  Start Time:  2022-06-26T07:54:40Z
  Task Runs:
    write-read-array-minio-pipeline-run-xpxm2-read1-task-892jw:
      Pipeline Task Name:  read1-task
      Status:
        Completion Time:  2022-06-26T07:56:10Z
        Conditions:
          Last Transition Time:  2022-06-26T07:56:10Z
          Message:               All Steps have completed executing
          Reason:                Succeeded
          Status:                True
          Type:                  Succeeded
        Pod Name:                write-read-array-minio-pipeline-run-xpxm2-read1-task-892j-jh5lk
        Start Time:              2022-06-26T07:56:01Z
        Steps:
          Container:  step-read
          Image ID:   docker-pullable://amnestorov/minio@sha256:384d67ba924edbf872ea1c40bac5f0049d5afc6d962e8f83dde8afa622ab1967
          Name:       read
          Terminated:
            Container ID:  docker://743f21d41e73651b1b0982ce0caa10363638e984cc6a3173d2295fdd0d2b3a09
            Exit Code:     0
            Finished At:   2022-06-26T07:56:10Z
            Reason:        Completed
            Started At:    2022-06-26T07:56:10Z
        Task Spec:
          Steps:
            Image:              amnestorov/minio
            Image Pull Policy:  IfNotPresent
            Name:               read
            Resources:
            Script:  #!/usr/bin/env python3
import time
import os
import subprocess
import sys
import boto3
import io
from botocore.config import Config
# Store initial timestamp
with open("/local/timestamps/shared_minio/1to4/4MB/r1cont_start_ts.txt", 'a+') as fp_rcont_s_ts:
   fp_rcont_s_ts.write("%f\n" % time.time())
session = boto3.session.Session()
config = Config(retries = dict(max_attempts = 50))
s3_client = session.client(
   service_name='s3',
   aws_access_key_id='admin',
   aws_secret_access_key='secretpwd',
   endpoint_url='http://10.0.26.33:9000',
   config=config
)
# Read data object from remote shared storage
data_bin1 = io.BytesIO()
s3_client.download_fileobj(Bucket='data', Key='out1.bin', Fileobj=data_bin1)
# Store final timestamp
with open("/local/timestamps/shared_minio/1to4/4MB/r1cont_end_ts.txt", 'a+') as fp_rcont_e_ts:
   fp_rcont_e_ts.write("%f\n" % time.time())
#print("READER: Read %d x chars" % len(data))

          Workspaces:
            Mount Path:  /local
            Name:        read1-ws
    write-read-array-minio-pipeline-run-xpxm2-read2-task-hgq6j:
      Pipeline Task Name:  read2-task
      Status:
        Completion Time:  2022-06-26T07:56:13Z
        Conditions:
          Last Transition Time:  2022-06-26T07:56:13Z
          Message:               All Steps have completed executing
          Reason:                Succeeded
          Status:                True
          Type:                  Succeeded
        Pod Name:                write-read-array-minio-pipeline-run-xpxm2-read2-task-hgq6-n6vpt
        Start Time:              2022-06-26T07:56:01Z
        Steps:
          Container:  step-read
          Image ID:   docker-pullable://amnestorov/minio@sha256:384d67ba924edbf872ea1c40bac5f0049d5afc6d962e8f83dde8afa622ab1967
          Name:       read
          Terminated:
            Container ID:  docker://227efa12ec243f3db951cb87c816d0d1297573fe3b19ec9a47770cd4b993d8fa
            Exit Code:     0
            Finished At:   2022-06-26T07:56:12Z
            Reason:        Completed
            Started At:    2022-06-26T07:56:12Z
        Task Spec:
          Steps:
            Image:              amnestorov/minio
            Image Pull Policy:  IfNotPresent
            Name:               read
            Resources:
            Script:  #!/usr/bin/env python3
import time
import os
import subprocess
import sys
import boto3
import io
from botocore.config import Config
# Store initial timestamp
with open("/local/timestamps/shared_minio/1to4/4MB/r2cont_start_ts.txt", 'a+') as fp_rcont_s_ts:
   fp_rcont_s_ts.write("%f\n" % time.time())
session = boto3.session.Session()
config = Config(retries = dict(max_attempts = 50))
s3_client = session.client(
   service_name='s3',
   aws_access_key_id='admin',
   aws_secret_access_key='secretpwd',
   endpoint_url='http://10.0.26.33:9000',
   config=config
)
# Read data object from remote shared storage
data_bin1 = io.BytesIO()
s3_client.download_fileobj(Bucket='data', Key='out1.bin', Fileobj=data_bin1)
# Store final timestamp
with open("/local/timestamps/shared_minio/1to4/4MB/r2cont_end_ts.txt", 'a+') as fp_rcont_e_ts:
   fp_rcont_e_ts.write("%f\n" % time.time())
#print("READER: Read %d x chars" % len(data))

          Workspaces:
            Mount Path:  /local
            Name:        read2-ws
    write-read-array-minio-pipeline-run-xpxm2-read3-task-dtstv:
      Pipeline Task Name:  read3-task
      Status:
        Completion Time:  2022-06-26T07:56:10Z
        Conditions:
          Last Transition Time:  2022-06-26T07:56:10Z
          Message:               All Steps have completed executing
          Reason:                Succeeded
          Status:                True
          Type:                  Succeeded
        Pod Name:                write-read-array-minio-pipeline-run-xpxm2-read3-task-dtst-jdjtg
        Start Time:              2022-06-26T07:56:01Z
        Steps:
          Container:  step-read
          Image ID:   docker-pullable://amnestorov/minio@sha256:384d67ba924edbf872ea1c40bac5f0049d5afc6d962e8f83dde8afa622ab1967
          Name:       read
          Terminated:
            Container ID:  docker://3a9ba7ba559efb68dbf507b3b5c08c5609a717cba55e4e64cca6dadb40a2bd09
            Exit Code:     0
            Finished At:   2022-06-26T07:56:10Z
            Reason:        Completed
            Started At:    2022-06-26T07:56:09Z
        Task Spec:
          Steps:
            Image:              amnestorov/minio
            Image Pull Policy:  IfNotPresent
            Name:               read
            Resources:
            Script:  #!/usr/bin/env python3
import time
import os
import subprocess
import sys
import boto3
import io
from botocore.config import Config
# Store initial timestamp
with open("/local/timestamps/shared_minio/1to4/4MB/r3cont_start_ts.txt", 'a+') as fp_rcont_s_ts:
   fp_rcont_s_ts.write("%f\n" % time.time())
session = boto3.session.Session()
config = Config(retries = dict(max_attempts = 50))
s3_client = session.client(
   service_name='s3',
   aws_access_key_id='admin',
   aws_secret_access_key='secretpwd',
   endpoint_url='http://10.0.26.33:9000',
   config=config
)
# Read data object from remote shared storage
data_bin1 = io.BytesIO()
s3_client.download_fileobj(Bucket='data', Key='out1.bin', Fileobj=data_bin1)
# Store final timestamp
with open("/local/timestamps/shared_minio/1to4/4MB/r3cont_end_ts.txt", 'a+') as fp_rcont_e_ts:
   fp_rcont_e_ts.write("%f\n" % time.time())
#print("READER: Read %d x chars" % len(data))

          Workspaces:
            Mount Path:  /local
            Name:        read3-ws
    write-read-array-minio-pipeline-run-xpxm2-read4-task-9l7d7:
      Pipeline Task Name:  read4-task
      Status:
        Completion Time:  2022-06-26T07:56:10Z
        Conditions:
          Last Transition Time:  2022-06-26T07:56:10Z
          Message:               All Steps have completed executing
          Reason:                Succeeded
          Status:                True
          Type:                  Succeeded
        Pod Name:                write-read-array-minio-pipeline-run-xpxm2-read4-task-9l7d-wcr5v
        Start Time:              2022-06-26T07:56:01Z
        Steps:
          Container:  step-read
          Image ID:   docker-pullable://amnestorov/minio@sha256:384d67ba924edbf872ea1c40bac5f0049d5afc6d962e8f83dde8afa622ab1967
          Name:       read
          Terminated:
            Container ID:  docker://906cdedbcbc88ddcdc39a5de1449b9120aa017b36c93d0ee536b3ecfedf6db82
            Exit Code:     0
            Finished At:   2022-06-26T07:56:10Z
            Reason:        Completed
            Started At:    2022-06-26T07:56:10Z
        Task Spec:
          Steps:
            Image:              amnestorov/minio
            Image Pull Policy:  IfNotPresent
            Name:               read
            Resources:
            Script:  #!/usr/bin/env python3
import time
import os
import subprocess
import sys
import boto3
import io
from botocore.config import Config
# Store initial timestamp
with open("/local/timestamps/shared_minio/1to4/4MB/r4cont_start_ts.txt", 'a+') as fp_rcont_s_ts:
   fp_rcont_s_ts.write("%f\n" % time.time())
session = boto3.session.Session()
config = Config(retries = dict(max_attempts = 50))
s3_client = session.client(
   service_name='s3',
   aws_access_key_id='admin',
   aws_secret_access_key='secretpwd',
   endpoint_url='http://10.0.26.33:9000',
   config=config
)
# Read data object from remote shared storage
data_bin1 = io.BytesIO()
s3_client.download_fileobj(Bucket='data', Key='out1.bin', Fileobj=data_bin1)
# Store final timestamp
with open("/local/timestamps/shared_minio/1to4/4MB/r4cont_end_ts.txt", 'a+') as fp_rcont_e_ts:
   fp_rcont_e_ts.write("%f\n" % time.time())
#print("READER: Read %d x chars" % len(data))

          Workspaces:
            Mount Path:  /local
            Name:        read4-ws
    write-read-array-minio-pipeline-run-xpxm2-write1-task-29ctd:
      Pipeline Task Name:  write1-task
      Status:
        Completion Time:  2022-06-26T07:56:01Z
        Conditions:
          Last Transition Time:  2022-06-26T07:56:01Z
          Message:               All Steps have completed executing
          Reason:                Succeeded
          Status:                True
          Type:                  Succeeded
        Pod Name:                write-read-array-minio-pipeline-run-xpxm2-write1-task-29c-zjhg2
        Start Time:              2022-06-26T07:54:40Z
        Steps:
          Container:  step-write
          Image ID:   docker-pullable://amnestorov/minio@sha256:384d67ba924edbf872ea1c40bac5f0049d5afc6d962e8f83dde8afa622ab1967
          Name:       write
          Terminated:
            Container ID:  docker://1e98a79d6de6f81bea8727ad657753792746cd4105141d2706ccab32a87fe8ed
            Exit Code:     0
            Finished At:   2022-06-26T07:55:56Z
            Reason:        Completed
            Started At:    2022-06-26T07:55:51Z
        Task Spec:
          Steps:
            Image:              amnestorov/minio
            Image Pull Policy:  IfNotPresent
            Name:               write
            Resources:
            Script:  #!/usr/bin/env python3
import time
import os 
import subprocess
import sys
import boto3
import botocore
import io
import boto3.s3.transfer as s3transfer
# Store initial timestamp
with open("/local/timestamps/shared_minio/1to4/4MB/w1cont_start_ts.txt", 'a+') as fp_wcont_s_ts:
   fp_wcont_s_ts.write("%f\n" % time.time())
# Create Boto session and client
session = boto3.session.Session()
botocore_config = botocore.config.Config(
   read_timeout=3600,
   connect_timeout=3600,
   retries={"max_attempts": 0},
   max_pool_connections=20
)
s3_client = session.client(
   service_name='s3',
   aws_access_key_id='admin',
   aws_secret_access_key='secretpwd',
   endpoint_url='http://10.0.26.33:9000',
   config=botocore_config
)
transfer_config = s3transfer.TransferConfig(
   use_threads=True,
   max_concurrency=20
)
s3t = s3transfer.create_transfer_manager(s3_client, transfer_config)
# Create data object
bin_data = bytearray(b'\x01') * 4194304
# Store timestamp after data creation 
with open("/local/timestamps/shared_minio/1to4/4MB/w1cont_data_end_ts.txt", 'a+') as fp_wcont_data_ts:
   fp_wcont_data_ts.write("%f\n" % time.time())
# Write data object on minio storage
#s3_client.put_object(Bucket='data', Key='out1.bin', Body=bin_data)
s3t.upload(io.BytesIO(bin_data), 'data', 'out1.bin')
#s3_client.upload_fileobj(io.BytesIO(bin_data), 'data', 'out1.bin',  Config = config)
# Store final timestamp
with open("/local/timestamps/shared_minio/1to4/4MB/w1cont_end_ts.txt", 'a+') as fp_wcont_e_ts:
   fp_wcont_e_ts.write("%f\n" % time.time())
s3t.shutdown()
#print("WRITER: Written out1!")

          Workspaces:
            Mount Path:  /local
            Name:        write1-ws
Events:
  Type    Reason     Age   From         Message
  ----    ------     ----  ----         -------
  Normal  Started    102s  PipelineRun  
  Normal  Running    102s  PipelineRun  Tasks Completed: 0 (Failed: 0, Cancelled 0), Incomplete: 5, Skipped: 0
  Normal  Running    20s   PipelineRun  Tasks Completed: 1 (Failed: 0, Cancelled 0), Incomplete: 4, Skipped: 0
  Normal  Running    11s   PipelineRun  Tasks Completed: 2 (Failed: 0, Cancelled 0), Incomplete: 3, Skipped: 0
  Normal  Running    11s   PipelineRun  Tasks Completed: 3 (Failed: 0, Cancelled 0), Incomplete: 2, Skipped: 0
  Normal  Running    11s   PipelineRun  Tasks Completed: 4 (Failed: 0, Cancelled 0), Incomplete: 1, Skipped: 0
  Normal  Succeeded  8s    PipelineRun  Tasks Completed: 5 (Failed: 0, Cancelled 0), Skipped: 0
