1646323394.481314
1646323437.337808
1646323460.291670
1646323479.330396
1646323505.605177
1646323531.131828
1646323568.448919
1646323602.699097
1646323637.943497
1646323664.410597
1646323685.759528
1646323708.720559
1646323743.075640
1646323763.515820
1646323785.821973
1646323814.551559
1646323839.690886
1646323872.705548
1646323895.936003
1646323927.537520
1646323956.251329
1646324002.381623
1646324024.042705
1646324046.721545
1646324089.565829
1646324117.741849
1646324151.898664
1646324178.557703
1646324212.788015
1646324237.928837
1646324265.094153
1646324288.890261
1646324320.690043
1646324338.788607
1646324371.062651
1646324398.845315
1646324424.212830
1646324450.258646
1646324472.690783
1646324510.030630
1646324536.017597
1646324567.050640
1646324585.979867
1646324608.023475
1646324631.577374
1646324659.581764
1646324681.918799
1646324712.843867
1646324736.042161
1646324771.667633
1646324802.261988
1646324822.293606
1646324857.342388
1646324880.677459
1646324905.156024
1646324926.672764
1646324961.984421
1646324990.435265
1646325015.053202
1646325040.471052
1646325074.710821
1646325109.004888
1646325132.764463
1646325159.223008
1646325198.103061
1646325230.289081
1646325258.371463
1646325282.660433
1646325306.881374
1646325333.319905
1646325356.695992
1646325381.790800
1646325412.736280
1646325437.645246
1646325467.620041
1646325504.712101
1646325535.907031
1646325562.253919
1646325589.287324
1646325614.145073
1646325640.263957
1646325674.321226
1646325703.126921
1646325733.538098
1646325765.892620
1646325794.419238
1646325822.019284
1646325851.532128
1646325875.798206
1646325901.176066
1646325927.213462
1646325955.101007
1646325989.903739
1646326025.859770
1646326053.170979
1646326071.324452
1646326093.323435
1646326116.770596
1646326146.350057
1646326175.805152
